[
  [
    1,
    "S\u00edntesis de los tipos de vegetaci\u00f3n terrestre \n",
    []
  ],
  [
    2,
    "\n",
    []
  ],
  [
    3,
    "Introducci\u00f3n \n",
    []
  ],
  [
    4,
    "\n",
    []
  ],
  [
    5,
    "Los tipos de vegetaci\u00f3n que existen en el estado de Campeche son la expresi\u00f3n de las interacciones entre el clima, fisiograf\u00eda y geolog\u00eda a trav\u00e9s del tiempo.\n",
    []
  ],
  [
    6,
    "Diversos autores (Lundell 1933, 1934; Bravo, 1955; Miranda, 1958; Miranda y Hern\u00e1ndez-X, 1963; Rzedowski, 1978; Flores y Espejel, 1994; Mart\u00ednez y Galindo-Leal, 2002; Arteaga, 2007) han propuesto una variada nomenclatura para poder entender, estudiar y asignar nombres a estas comunidades vegetales.\n",
    []
  ],
  [
    7,
    "En este trabajo se presentan los tipos de vegetaci\u00f3n que existen en el estado de Campeche, a partir de la clasificaci\u00f3n propuesta en el Atlas de Ordenamiento Territorial del Estado de Campeche (Arteaga, 2007).\n",
    []
  ],
  [
    8,
    "La descripci\u00f3n de los tipos de vegetaci\u00f3n se basa principalmente en esta clasificaci\u00f3n, por ser la que mejor re\ufb02eja el estado actual de este recurso para el estado. \n",
    []
  ],
  [
    9,
    "\n",
    []
  ],
  [
    10,
    "Selva alta y mediana subperennifolia \n",
    []
  ],
  [
    11,
    "\n",
    []
  ],
  [
    12,
    "La selva alta y mediana subperennifolia son los tipos de vegetaci\u00f3n que originalmente ocupaban m\u00e1s extensi\u00f3n en el Estado; sin embargo actualmente se encuentran como masas boscosas en la regi\u00f3n del centro y sur-sureste.\n",
    []
  ],
  [
    13,
    "Este tipo de vegetaci\u00f3n se presenta (i) formando una ancha franja paralela al l\u00edmite con el estado de Quintana Roo, ocupando casi en su totalidad al municipio de Calakmul, (ii) a manera de saltos dispersos abarcando diferentes regiones de los municipios de Esc\u00e1rcega, Candelaria y Palizada; y, de acuerdo con Flores y Espejel (1994) (iii) como manchones aislados que se extienden hacia el norte de la entidad, alternando con otros tipos de vegetaci\u00f3n.\n",
    []
  ],
  [
    14,
    "La temperatura media anual oscila alrededor de los 27\u00b0C y la precipitaci\u00f3n media anual es de 1 300 mm (Garc\u00eda, 1973).\n",
    []
  ],
  [
    15,
    "En estos tipos de vegetaci\u00f3n los \u00e1rboles llegan a medir de 30 hasta 35 m de altura y presentan hojas la mayor parte del a\u00f1o, perdiendo aproximadamente 25% en la \u00e9poca seca, que va de finales del mes del diciembre a mediados del mes de mayo.\n",
    []
  ],
  [
    16,
    "Esta selva logra un buen desarrollo en suelos poco profundos que rara vez pasan los 50 cm de profundidad, y provistos de materia org\u00e1nica (Flores y Espejel, 1994).\n",
    []
  ],
  [
    17,
    "Por la extracci\u00f3n selectiva de algunas especies maderables que se realiz\u00f3 en estas selvas durante la primer mitad del siglo pasado, la comunidad vegetal actualmente se encuentra alternado con manchones de vegetaci\u00f3n en diferentes etapas de sucesi\u00f3n.\n",
    []
  ],
  [
    18,
    "A pesar de lo anterior, la esta selva sigue siendo de gran importancia para una explotaci\u00f3n local.\n",
    []
  ],
  [
    19,
    "Los \u00e1rboles representativos de este tipo de vegetaci\u00f3n son el chicle (Manilkara zapota), la caoba (Swetenia macrophylla), el pukte\u00b4 (Bucida buceras) y el ram\u00f3n (Brosimum alicastrum).\n",
    [
      {
        "arg2_text": "Bucida buceras",
        "arg1_offset": [
          125,
          130
        ],
        "arg2_line": 19,
        "arg2_offset": [
          133,
          147
        ],
        "arg1_text": "pukte",
        "type": "alias",
        "arg1_line": 19
      },
      {
        "arg2_text": "Brosimum alicastrum",
        "arg1_offset": [
          154,
          159
        ],
        "arg2_line": 19,
        "arg2_offset": [
          161,
          180
        ],
        "arg1_text": "ram\u00f3n",
        "type": "alias",
        "arg1_line": 19
      },
      {
        "arg2_text": "Swetenia macrophylla",
        "arg1_offset": [
          92,
          97
        ],
        "arg2_line": 19,
        "arg2_offset": [
          99,
          119
        ],
        "arg1_text": "caoba",
        "type": "alias",
        "arg1_line": 19
      },
      {
        "text": "Bucida buceras",
        "type": "Nombre_cientifico",
        "offset": [
          133,
          147
        ]
      },
      {
        "text": "Brosimum alicastrum",
        "type": "Nombre_cientifico",
        "offset": [
          161,
          180
        ]
      },
      {
        "text": "Swetenia macrophylla",
        "type": "Nombre_cientifico",
        "offset": [
          99,
          119
        ]
      },
      {
        "text": "caoba",
        "type": "Nombre_comun",
        "offset": [
          92,
          97
        ]
      },
      {
        "text": "ram\u00f3n",
        "type": "Nombre_comun",
        "offset": [
          154,
          159
        ]
      },
      {
        "text": "pukte",
        "type": "Nombre_comun",
        "offset": [
          125,
          130
        ]
      }
    ]
  ],
  [
    20,
    "Dentro de las selvas h\u00famedas de M\u00e9xico, las m\u00e1s secas se encuentran en la pen\u00ednsula de Yucat\u00e1n debido a las condiciones del clima y suelo.\n",
    []
  ],
  [
    21,
    "Como consecuencia, las selvas alta y mediana subperennifolia se alternan formando una asociaci\u00f3n (Mart\u00ednez y Galindo-Leal, 2002), lo que hace dif\u00edcil saber d\u00f3nde empieza y termina cada una de estas comunidades. \n",
    []
  ],
  [
    22,
    "\n",
    []
  ],
  [
    23,
    "Selva mediana caducifolia y subcaducifolia \n",
    []
  ],
  [
    24,
    "\n",
    []
  ],
  [
    25,
    "Estas comunidades vegetales se encuentran en toda la parte sur de Campeche, se extienden desde de la parte centro-norte de la meseta de Zohlaguna, en el municipio de Calakmul, hacia el noroeste del estado abarcando casi m\u00e1s de la mitad con el l\u00edmite de Yucat\u00e1n.\n",
    []
  ],
  [
    26,
    "El clima donde prospera este tipo de vegetaci\u00f3n es tropical subh\u00famedo con lluvias en verano, la precipitaci\u00f3n media anual es de 1 078 a 1 229 mm y la temperatura media anual es de 25 a 26\u00b0C (Garc\u00eda, 1973).\n",
    []
  ],
  [
    27,
    "Los \u00e1rboles tienen una altura de 10 a 20 m aproximadamente, y dejan caer sus hojas de 50 a 75% durante la \u00e9poca seca del a\u00f1o, esto hace que los suelos donde prosperan formen una capa esponjosa de hojarasca; la pedregosidad es tambi\u00e9n otra propiedad del suelo, y que es un factor que propicia el establecimiento de este tipo de vegetaci\u00f3n.\n",
    []
  ],
  [
    28,
    "Los \u00e1rboles caracter\u00edsticos de estas selvas son el pich (Enterolobium cyclocarpun), el chechem negro (Metopium brownei), la ceiba (Ceiba pentandra) y el ya\u00b4axnik (Vitex gaumeri) (Flores y Espejel, 1994).\n",
    [
      {
        "arg2_text": "Metopium brownei",
        "arg1_offset": [
          87,
          100
        ],
        "arg2_line": 28,
        "arg2_offset": [
          102,
          118
        ],
        "arg1_text": "chechem negro",
        "type": "alias",
        "arg1_line": 28
      },
      {
        "text": "Ceiba pentandra",
        "type": "Nombre_comun",
        "offset": [
          131,
          146
        ]
      },
      {
        "text": "Enterolobium cyclocarpun",
        "type": "Nombre_cientifico",
        "offset": [
          57,
          81
        ]
      },
      {
        "text": "Vitex gaumeri",
        "type": "Nombre_cientifico",
        "offset": [
          163,
          176
        ]
      },
      {
        "text": "Metopium brownei",
        "type": "Nombre_cientifico",
        "offset": [
          102,
          118
        ]
      },
      {
        "text": "chechem negro",
        "type": "Nombre_comun",
        "offset": [
          87,
          100
        ]
      }
    ]
  ],
  [
    29,
    "En el estado de Campeche, la selva mediana caducifolia y subcaducifolia han sido diezmadas desde tiempos prehisp\u00e1nicos con la extracci\u00f3n de diversos productos maderables y no madrables, como latex, plantas medicinales y fibras, entre otros.\n",
    []
  ],
  [
    30,
    "Actualmente la ganader\u00eda y la tierra de labranza han originado en gran parte de la regi\u00f3n norte que estos tipos de vegetaci\u00f3n se alternen con la vegetaci\u00f3n secundaria en diferentes etapas de sucesi\u00f3n.\n",
    []
  ],
  [
    31,
    "Por ser el tipo de vegetaci\u00f3n m\u00e1s representativo de Campeche reviste una gran importancia ecol\u00f3gica, al ser parte de una unidad natural conocida como la selva maya, importante remanente de vegetaci\u00f3n tropical de Norte y Centroam\u00e9rica (Berr\u00f3n et al., 2003). \n",
    []
  ],
  [
    32,
    "\n",
    []
  ],
  [
    33,
    "Selva baja perennifolia y selva baja subperennifolia \n",
    []
  ],
  [
    34,
    "\n",
    []
  ],
  [
    35,
    "Estos tipos de vegetaci\u00f3n se pueden encontrar dispersos como peque\u00f1os manchones en todo el estado, en \u00e1reas m\u00e1s o menos extensas en la regi\u00f3n centro, aproximadamente ocupando unas 38 524 ha, en especial en los municipios de Champot\u00f3n y Hopelch\u00e9n, y de manera fragmentada al sur (Palacio et al., 2002).\n",
    []
  ],
  [
    36,
    "El tipo de clima que prevalece es el c\u00e1lido h\u00famedo con lluvias en verano (Garc\u00eda, 1973).\n",
    []
  ],
  [
    37,
    "Una caracter\u00edstica distintiva de estas comunidades es que la mitad del a\u00f1o permanecen inundadas, los suelos donde se desarrollan poseen una estructura laminar, formando residuos de caliza-debido a su erosi\u00f3nque dan como resultado un material impermeable (a estos suelos se les llama \u201cakalch\u00e9\u201d en lengua maya) (Palacio et al., 2002).\n",
    []
  ],
  [
    38,
    "Esta humedad, que es permanente en el subsuelo, le confiere a los \u00e1rboles la propiedad de evitar la ca\u00edda de las hojas de manera casi total.\n",
    []
  ],
  [
    39,
    "En la porci\u00f3n norte del estado se tiene un mosaico de vegetaci\u00f3n secundaria, que se establece una vez devastada la vegetaci\u00f3n original (Rzedowski, 1978), derivada de las perturbaciones de estos tipos de vegetaci\u00f3n.\n",
    []
  ],
  [
    40,
    "Las perturbaciones pueden ser originadas por el hombre, como el derribe de los \u00e1rboles, o por efecto natural, como los huracanes.\n",
    []
  ],
  [
    41,
    "Los \u00e1rboles caracter\u00edsticos de estas selvas son el tinto (Haematoxylum campechianum), el chooch kitam (Hyperbaena winzerlingii), el boob chi\u00b4ich\u00b4 (Coccoloba cozumelensis), el sak cheechem (Cameraria latifolia) y el satj\u00b4iitsa (Neomillspaughia emarginata) (Palacio et al., 2002).\n",
    [
      {
        "text": "Haematoxylum campechianum",
        "type": "Nombre_cientifico",
        "offset": [
          58,
          83
        ]
      },
      {
        "text": "Hyperbaena winzerlingii",
        "type": "Nombre_cientifico",
        "offset": [
          103,
          126
        ]
      },
      {
        "text": "tinto",
        "type": "Nombre_comun",
        "offset": [
          51,
          56
        ]
      }
    ]
  ],
  [
    42,
    "Estos \u00e1rboles tienen importancia econ\u00f3mica y cultural; por ejemplo, el tinto se sigue explotando de manera local apara elaborar colorantes, los tallos m\u00e1s rectos del satj\u00b4iista se usan para la confecci\u00f3n de palos de escobas o para tender las fibras de la palma de jjipi (Carludovica palmata) en su tratamiento para la manufactura de artesan\u00edas.\n",
    [
      {
        "text": "jjipi",
        "type": "Nombre_comun",
        "offset": [
          264,
          269
        ]
      },
      {
        "arg2_text": "elaborar colorantes, los tallos m\u00e1s rectos del satj\u00b4iista se usan para la confecci\u00f3n de palos de escobas",
        "arg1_offset": [
          71,
          76
        ],
        "arg2_line": 42,
        "arg2_offset": [
          119,
          223
        ],
        "arg1_text": "tinto",
        "type": "se_usa",
        "arg1_line": 42
      },
      {
        "arg2_text": "Carludovica palmata",
        "arg1_offset": [
          264,
          269
        ],
        "arg2_line": 42,
        "arg2_offset": [
          271,
          290
        ],
        "arg1_text": "jjipi",
        "type": "alias",
        "arg1_line": 42
      },
      {
        "text": "elaborar colorantes, los tallos m\u00e1s rectos del satj\u00b4iista se usan para la confecci\u00f3n de palos de escobas",
        "type": "Uso",
        "offset": [
          119,
          223
        ]
      },
      {
        "text": "tinto",
        "type": "Nombre_comun",
        "offset": [
          71,
          76
        ]
      },
      {
        "text": "Carludovica palmata",
        "type": "Nombre_cientifico",
        "offset": [
          271,
          290
        ]
      }
    ]
  ],
  [
    43,
    "En su conjunto, la importancia ecol\u00f3gica de estas especies, por citar un ejemplo, es que son el h\u00e1bitat de muchas especies de fauna y proporcionan el recurso alimenticio, como los frutos del chooch kitam y del boob chi\u00b4ich\u00b4 para algunos herbivoros como el venado y el jabal\u00ed.\n",
    [
      {
        "text": "jabal\u00ed",
        "type": "Nombre_comun",
        "offset": [
          268,
          274
        ]
      }
    ]
  ],
  [
    44,
    "\n",
    []
  ],
  [
    45,
    "Selva baja caducifolia y subcaducifolia \n",
    []
  ],
  [
    46,
    "\n",
    []
  ],
  [
    47,
    "Las selvas baja caducifolia y subcaducifolia se encuentran bien representadas en el norte del estado, estas comunidades se van extendiendo de manera gradual desde el norte del municipio de Champot\u00f3n hacia Yucat\u00e1n.\n",
    []
  ],
  [
    48,
    "Tambi\u00e9n se aprecian a manera de manchones en el mismo municipio, al norte de la Reserva de la Biosfera de Calakmul, aproximadamente en la regi\u00f3n centro-este de Campeche (Palacio et al., 2002).\n",
    []
  ],
  [
    49,
    "Los \u00e1rboles no pasan de los 10 m de altura y dejan caer sus hojas total o casi totalmente durante la \u00e9poca seca del a\u00f1o.\n",
    []
  ],
  [
    50,
    "Se establecen en suelos planos o ligeramente inclinados con a\ufb02oramiento rocoso.\n",
    []
  ],
  [
    51,
    "El clima es c\u00e1lido subh\u00famedo con lluvias en verano, la temperatura media anual tiene un gradiente entre los 20 y 29\u00b0C (Garc\u00eda, 1973).\n",
    []
  ],
  [
    52,
    "Estas comunidades vegetales se han alterado intensamente al practicar una agricultura incipiente y la extracci\u00f3n de le\u00f1a.\n",
    []
  ],
  [
    53,
    "Otro factor que ha remarcado en gran medida el impacto ecol\u00f3gico para estas comunidades son las quemas peri\u00f3dicas que se realizan en la \u00e9poca seca del a\u00f1o, y que por lo general se salen de control abarcando m\u00e1s \u00e1rea de la prevista (epoMex-cedesu-ecosur-Chetumal, 1999).\n",
    []
  ],
  [
    54,
    "Los \u00e1rboles caracter\u00edsticos son el chak ch\u00b4ooy (Cochlospermum vitifolium), el chak kiis (Gyrocarpus americana), el silil (Diospyrus cuneata), el pixoy (Guazuma ulmifolia) y el chak kuy che\u00b4 (Pseudobombax ellipticum) (Palacio et al., 2002).\n",
    [
      {
        "text": "Cochlospermum vitifolium",
        "type": "Nombre_cientifico",
        "offset": [
          48,
          72
        ]
      },
      {
        "text": "Gyrocarpus americana",
        "type": "Nombre_cientifico",
        "offset": [
          89,
          109
        ]
      },
      {
        "text": "Pseudobombax ellipticum",
        "type": "Nombre_cientifico",
        "offset": [
          191,
          214
        ]
      },
      {
        "text": "Guazuma ulmifolia",
        "type": "Nombre_cientifico",
        "offset": [
          152,
          169
        ]
      },
      {
        "text": "Diospyrus cuneata",
        "type": "Nombre_cientifico",
        "offset": [
          122,
          139
        ]
      },
      {
        "arg2_text": "Guazuma ulmifolia",
        "arg1_offset": [
          145,
          150
        ],
        "arg2_line": 54,
        "arg2_offset": [
          152,
          169
        ],
        "arg1_text": "pixoy",
        "type": "alias",
        "arg1_line": 54
      },
      {
        "text": "pixoy",
        "type": "Nombre_comun",
        "offset": [
          145,
          150
        ]
      }
    ]
  ],
  [
    55,
    "Es com\u00fan observar en peque\u00f1os claros de estas comunidades vegetales colonias de abejas productoras de miel, lo que supone que estos tipos de vegetaci\u00f3n tienen importancia ecol\u00f3gica y econ\u00f3mica por los recursos que ofrece a los pobladores (sagar, 1998). \n",
    [
      {
        "text": "abejas",
        "type": "Nombre_comun",
        "offset": [
          80,
          86
        ]
      }
    ]
  ],
  [
    56,
    "\n",
    []
  ],
  [
    57,
    "Sabana \n",
    []
  ],
  [
    58,
    "\n",
    []
  ],
  [
    59,
    "La sabana en Campeche se localiza en la regi\u00f3n de Los Chenes, al centroeste del estado, en el municipio de Dzibalch\u00e9n, y en su parte norte, en el municipio de Calkin\u00ed, y en algunas \u00e1reas hacia el sur, en los municipios de El Carmen y Palizada (Flores y Espejel, 1994).\n",
    []
  ],
  [
    60,
    "Son extensas \u00e1reas que est\u00e1n dominadas por gram\u00edneas donde posiblemente se encuentran algunos \u00e1rboles dispersos.\n",
    []
  ],
  [
    61,
    "El suelo es plano y en \u00e9poca de lluvias pueden llegar a inundarse.\n",
    []
  ],
  [
    62,
    "El clima es c\u00e1lido subh\u00famedo con lluvias en verano y la temperatura media anual var\u00eda pero nunca es menor a los 23\u00b0C (Garc\u00eda, 1973).\n",
    []
  ],
  [
    63,
    "Las especies caracter\u00edsticas son el saja\u00b4 (Curatella americana), el chi\u00b4 (Byrsonima crassifolia), el joma\u00b4 o m\u00e1s conocido como g\u00fciro (Crescientia cujete), el sacate (Schizachyrium microstachum) y el jol che\u00b4 (Cladium jamaicense) (Flores y Espejel, 1994).\n",
    [
      {
        "text": "Crescientia cujete",
        "type": "Nombre_cientifico",
        "offset": [
          134,
          152
        ]
      },
      {
        "text": "g\u00fciro",
        "type": "Nombre_comun",
        "offset": [
          127,
          132
        ]
      },
      {
        "arg2_text": "uso del guiro como j\u00edcara y para la confecci\u00f3n de otros utensilios",
        "arg1_offset": [
          127,
          132
        ],
        "arg2_line": 64,
        "arg2_offset": [
          116,
          182
        ],
        "arg1_text": "g\u00fciro",
        "type": "se_usa",
        "arg1_line": 63
      },
      {
        "arg2_text": "uso del guiro como j\u00edcara y para la confecci\u00f3n de otros utensilios",
        "arg1_offset": [
          134,
          152
        ],
        "arg2_line": 64,
        "arg2_offset": [
          116,
          182
        ],
        "arg1_text": "Crescientia cujete",
        "type": "se_usa",
        "arg1_line": 63
      },
      {
        "arg2_text": "Crescientia cujete",
        "arg1_offset": [
          127,
          132
        ],
        "arg2_line": 63,
        "arg2_offset": [
          134,
          152
        ],
        "arg1_text": "g\u00fciro",
        "type": "alias",
        "arg1_line": 63
      }
    ]
  ],
  [
    64,
    "Quiz\u00e1 una de las especies m\u00e1s representativas extra\u00edda de las sabanas ligada a la cultura de los campechanos, es el uso del guiro como j\u00edcara y para la confecci\u00f3n de otros utensilios.\n",
    [
      {
        "text": "uso del guiro como j\u00edcara y para la confecci\u00f3n de otros utensilios",
        "type": "Uso",
        "offset": [
          116,
          182
        ]
      }
    ]
  ],
  [
    65,
    "La cosecha del fruto chi\u00b4, tambi\u00e9n conocido como nance, es otra especie que surgi\u00f3 de este tipo de vegetaci\u00f3n.\n",
    []
  ],
  [
    66,
    "En las \u00faltimas d\u00e9cadas, el cultivo de arroz en la regi\u00f3n sur, el municipio de Palizada, ha dado importancia a las sabanas. \n",
    []
  ],
  [
    67,
    "\n",
    []
  ],
  [
    68,
    "Pastizal inducido y cultivado \n",
    []
  ],
  [
    69,
    "\n",
    []
  ],
  [
    70,
    "Estos pastizales est\u00e1n dispersos en todo el estado como producto del derribe intencional o de forma indirecta, de la vegetaci\u00f3n natural con fines b\u00e1sicamente ganaderos, cubriendo en su totalidad aproximadamente 1.1% del territorio estatal (Arteaga, 2007).\n",
    []
  ],
  [
    71,
    "Sin embargo, existen \u00e1reas que son importantes por la historia del uso del suelo que han practicado sus habitantes, fen\u00f3meno que se dio al final de la mitad del siglo pasado con el establecimiento de la poblaci\u00f3n inmigrante de diversos estados de la Rep\u00fablica Mexicana.\n",
    []
  ],
  [
    72,
    "Esto ocurre principalmente en los municipios de El Carmen, Candelaria, Esc\u00e1rcega y Palizada; tambi\u00e9n al este de los municipios de Calakmul y Hopelch\u00e9n; el \u00e1rea comprendida entre los municipios de Champot\u00f3n y Campeche, y al norte del municipio de Calkin\u00ed (Le\u00f3n, 2003).\n",
    []
  ],
  [
    73,
    "Las especies caracter\u00edsticas son guinea (Panicum hirsutum), su\u00b4uk (P. m\u00e1ximum) jmul (Cenchrus incertus) y zacate taiwan (Digitaria insularis) (Flores y Espejel, 1994). \n",
    [
      {
        "text": "Panicum hirsutum",
        "type": "Nombre_cientifico",
        "offset": [
          41,
          57
        ]
      },
      {
        "text": "guinea",
        "type": "Nombre_comun",
        "offset": [
          33,
          39
        ]
      },
      {
        "text": "Digitaria insularis",
        "type": "Nombre_cientifico",
        "offset": [
          121,
          140
        ]
      },
      {
        "text": "P. m\u00e1ximum",
        "type": "Nombre_cientifico",
        "offset": [
          67,
          77
        ]
      }
    ]
  ],
  [
    74,
    "\n",
    []
  ],
  [
    75,
    "Palmar \n",
    []
  ],
  [
    76,
    "\n",
    []
  ],
  [
    77,
    "Este tipo de vegetaci\u00f3n se encuentra bien representado en el sureste del estado, la especie caracter\u00edstica es Scheelea liebmannii (corozo); sin embargo para las zonas inundables de los municipios de Candelaria y Palizada, se forman manchones casi puros de Acoelorrhaphe wrightii (tasiste) (Miranda, 1958).\n",
    []
  ],
  [
    78,
    "Cabe mencionar que existen otras especies (Chamaedorea spp., Bactrix spp., y Thrinax sp.) que se encuentran formando parte integrante de otras comunidades vegetales en todo el estado (Rzedowski, 1978).\n",
    []
  ],
  [
    79,
    "Existen \u00e1reas que se han visto favorecidas por el disturbio de algunas comunidades, especialmente cuando algunos sitios se somenten al fuego, ciertas especies de palmas son las primeras en establecerse en la comunidad vegetal, especialmente en las selvas secas donde domina Sabal mexicana y S. yapa (guano) (Miranda, 1958).\n",
    [
      {
        "text": "S. yapa",
        "type": "Nombre_cientifico",
        "offset": [
          291,
          298
        ]
      },
      {
        "text": "Sabal mexicana",
        "type": "Nombre_cientifico",
        "offset": [
          274,
          288
        ]
      }
    ]
  ],
  [
    80,
    "Las palmas en la pen\u00ednsula de Yucat\u00e1n est\u00e1n ligadas a la cultura y vida de sus pobladores desde tiempos precortesianos, ya que de \u00e9stas se obtienen fibras para la elaboraci\u00f3n de sombreros, bolsas y otros utensilios para la vida diaria; pero quiz\u00e1 el valor m\u00e1s significativo es el que aportan las hojas que se emplean para la confecci\u00f3n de techumbres en la casa tradicional maya (Rzedowski, 1978).\n",
    [
      {
        "text": "se obtienen fibras para la elaboraci\u00f3n de sombreros, bolsas y otros utensilios para la vida diaria",
        "type": "Uso",
        "offset": [
          136,
          234
        ]
      },
      {
        "text": "aportan las hojas que se emplean para la confecci\u00f3n de techumbres en la casa tradicional maya",
        "type": "Construccion_vivienda",
        "offset": [
          284,
          377
        ]
      }
    ]
  ],
  [
    81,
    "Las palmas tambi\u00e9n tienen gran importancia ecol\u00f3gica al proporcionar el h\u00e1bitat para muchas especies de organismos, especialmente las aves; de la misma forma sus frutos son el alimento para algunas especies de loros y otras de mam\u00edferos.\n",
    [
      {
        "text": "loros",
        "type": "Nombre_comun",
        "offset": [
          210,
          215
        ]
      }
    ]
  ],
  [
    82,
    "Entre la inserci\u00f3n de las hojas con el tallo se crea un ambiente donde viven diversas especies de peque\u00f1os reptiles, insectos y otros invertebrados. \n",
    []
  ],
  [
    83,
    "\n",
    []
  ],
  [
    84,
    "Vegetaci\u00f3n Hal\u00f3fita y gips\u00f3fila \n",
    []
  ],
  [
    85,
    "\n",
    []
  ],
  [
    86,
    "La vegetaci\u00f3n hal\u00f3fita en Campeche se desarrolla en suelos con alto contenido de sales, por lo general dominan las hierbas o vegetaci\u00f3n de poca altura, como la que se encuentra en las costas.\n",
    []
  ],
  [
    87,
    "La vegetaci\u00f3n gips\u00f3fila es la que crece en suelos yesosos, dominan tambi\u00e9n las hierbas y se pueden llegar a presentar algunos \u00e1rboles (Rzedowski, 1978); en el estado se distribuyen en forma restringida como peque\u00f1os manchones puntuales: al oeste de Campeche, frente a la costa, en el municipio de Tenabo; en la regi\u00f3n de la monta\u00f1a, al este del municipio de Hopelch\u00e9n; y una extensi\u00f3n considerable al sur, en el municipio de Candelaria, muy cerca del l\u00edmite con el estado de Tabasco (Arteaga, 2007).\n",
    []
  ],
  [
    88,
    "Las especies caracter\u00edsticas son Bouteloua americana y B. disticha; entre otras, se pueden encontrar algunos representantes de los g\u00e9neros Atriplex, Salicornia y Suaeda de la familia Chenopodiaceae.\n",
    [
      {
        "text": "B. disticha",
        "type": "Nombre_cientifico",
        "offset": [
          55,
          66
        ]
      }
    ]
  ],
  [
    89,
    "La familia Portulacaceae es tambi\u00e9n importante como parte de la \ufb02ora en estos ambientes (Miranda, 1958).\n",
    []
  ],
  [
    90,
    "La extracci\u00f3n de sal ya sea para uso dom\u00e9stico o industrial es una de las principales actividades que se explotan de los suelos donde se establece la vegetaci\u00f3n hal\u00f3fita; a estas regiones se les conoce localmente como blanquisales, en particular los que se localizan en frente a las costas del municipio de Tenabo.\n",
    []
  ],
  [
    91,
    "Por otro lado, un aspecto importante en la ecolog\u00eda de estas comunidades radica en su frontera con otros tipos de vegetaci\u00f3n, donde las condiciones del suelo pueden cambiar dr\u00e1sticamente, lo que genera una continuidad en la cubierta vegetal del suelo (Artega, 2007).\n",
    []
  ],
  [
    92,
    "\n",
    []
  ],
  [
    93,
    "Problemas que enfrentan los tipos de vegetaci\u00f3n en Campeche \n",
    []
  ],
  [
    94,
    "\n",
    []
  ],
  [
    95,
    "Siendo Campeche uno de los estados que tiene \u00e1reas con vegetaci\u00f3n m\u00e1s conservada, aproximadamente el 35% de su territorio (Berr\u00f3n et al., 2003), no escapa a los efectos paralelos de su desarrollo.\n",
    []
  ],
  [
    96,
    "Las extenciones de selva que posee desde tiempos hist\u00f3ricos ya han venido explot\u00e1ndose para la obtenci\u00f3n de diversos productos, como son el corte de maderas preciosas, la extracci\u00f3n del chicle, as\u00ed como el derribe de la vegetaci\u00f3n para el cultivo de los granos b\u00e1sicos o la ganader\u00eda.\n",
    []
  ],
  [
    97,
    "En \u00e9pocas m\u00e1s recientes, el desarrollo tur\u00edstico, especialmente el que se establece frente a las costas y playas, ha modificado significativamente la din\u00e1mica natural de las comunidades vegetales que originalmente exist\u00edan, mediante el fraccionamiento del terreno para la construcci\u00f3n de hoteles u otros servicios.\n",
    []
  ],
  [
    98,
    "Tambi\u00e9n la traza de carreteras y autopistas, el tender l\u00edneas de energ\u00eda el\u00e9ctrica, la construcci\u00f3n de viviendas para asentamientos humanos (Artega, 2007; Berr\u00f3n et al., 2003), aunado al importante movimiento de inmigrantes que lleg\u00f3 de diferentes estados de la Rep\u00fablica Mexicana para establecerse en territorio campechano desde la primera mitad del siglo pasado (Le\u00f3n, 2003), son factores que paulatinamente han ido modificado la distribuci\u00f3n original del recurso vegetal del estado. \n",
    []
  ],
  [
    99,
    "\n",
    []
  ],
  [
    100,
    "A manera de conclusi\u00f3n \n",
    []
  ],
  [
    101,
    "\n",
    []
  ],
  [
    102,
    "Se han descrito de manera sint\u00e9tica los tipos de vegetaci\u00f3n que existen para Campeche; si bien es cierto que esto representa riqueza, esta aseveraci\u00f3n se puede ver modificada al satisfacer demandas de una sociedad que responde a directrices y pol\u00edticas actuales.\n",
    []
  ],
  [
    103,
    "Ante esto es preciso recordar que para asegurar el beneficio que representa el patrimonio natural a trav\u00e9s de la cubierta vegetal para el estado, es necesario conocer, al menos de forma general, la conveniencia que estas comunidades representan: son reservorio de materias primas para diversos usos, forman parte del ciclo hidrol\u00f3gico, ayudan a la conservaci\u00f3n del suelo, contribuyen con la estabilidad del clima, y son fuente de otros bienes y servicios ambientales.",
    []
  ]
]