[
  [
    1,
    "Estudio de caso: conservaci\u00f3n y aprovechamiento del Guayac\u00e1n en el estado de Campeche \n",
    [
      {
        "text": "Guayac\u00e1n",
        "type": "Nombre_comun",
        "offset": [
          52,
          60
        ]
      }
    ]
  ],
  [
    2,
    "\n",
    []
  ],
  [
    3,
    "El \u201cGuayac\u00e1n\u201d (Guaiacum sanctum L., Zygophyllaceae) es un \u00e1rbol de hasta 30 m de altura y 70 cm de di\u00e1metro del tronco a la altura del pecho (dap).\n",
    [
      {
        "text": "Guayac\u00e1n",
        "type": "Nombre_comun",
        "offset": [
          4,
          12
        ]
      },
      {
        "arg2_text": "Guaiacum sanctum",
        "arg1_offset": [
          4,
          12
        ],
        "arg2_line": 3,
        "arg2_offset": [
          15,
          31
        ],
        "arg1_text": "Guayac\u00e1n",
        "type": "alias",
        "arg1_line": 3
      },
      {
        "text": "Guaiacum sanctum",
        "type": "Nombre_cientifico",
        "offset": [
          15,
          31
        ]
      }
    ]
  ],
  [
    4,
    "Su copa es dispersa y con follaje discontinuo.\n",
    []
  ],
  [
    5,
    "Las \ufb02ores son de color azul-morado con estambres amarillos, lo que hace al Guayac\u00e1n muy vistoso en la \u00e9poca de \ufb02oraci\u00f3n (febrero-mayo).\n",
    [
      {
        "text": "Guayac\u00e1n",
        "type": "Nombre_comun",
        "offset": [
          75,
          83
        ]
      }
    ]
  ],
  [
    6,
    "Los frutos son de 1.5 a 2 cm de largo de color amarillo-naranja.\n",
    []
  ],
  [
    7,
    "Las semillas son de aproximadamente 1 cm de largo, negras o pardo-oscuras recubiertas por una llamativa capa carnosa (arilo) de color rojo (Chavarria et al. 2001; Grow y Schwartzman, 2001) (figura 1).\n",
    []
  ],
  [
    8,
    "El Guayac\u00e1n se distribuye desde Florida en Estados Unidos hasta Costa Rica y en algunos pa\u00edses del Caribe (cites, 2000; Chavarria et al., 2001; Grow y Schwartzman, 2001).\n",
    [
      {
        "text": "Guayac\u00e1n",
        "type": "Nombre_comun",
        "offset": [
          3,
          11
        ]
      }
    ]
  ],
  [
    9,
    "En M\u00e9xico se distribuye en Oaxaca, Chiapas, Yucat\u00e1n, Quintana Roo y Campeche.\n",
    []
  ],
  [
    10,
    "En este \u00faltimo, en las Reservas Balam-Kin y Balam-K\u00fa, en las ampliaciones forestales de los ejidos Pich, Chencoh, Constituci\u00f3n, Xbonil, Centenario, Silvituc, Conhu\u00e1s y en la Reserva de la Biosfera Calakmul se pueden encontrar poblaciones con 200 a 1 000 \u00e1rboles con un dap \u2265 1 cm por hect\u00e1rea y con una gran cantidad de pl\u00e1ntulas y \u00e1rboles juveniles (L\u00f3pez-Toledo, 2008) (figura 2).\n",
    []
  ],
  [
    11,
    "En las selvas bajas y medianas (sensu Miranda y Hern\u00e1ndez-X,1963) de Campeche, Guaiacum sanctum es una especie ecol\u00f3gicamente importante tanto en n\u00famero de individuos como en biomasa (L\u00f3pez- Toledo, 2008).\n",
    [
      {
        "text": "Guaiacum sanctum",
        "type": "Nombre_cientifico",
        "offset": [
          79,
          95
        ]
      }
    ]
  ],
  [
    12,
    "Se estima que un \u00e1rbol requiere de 350 a 400 a\u00f1os para desarrollar un tronco con 35 cm de dap, por lo que se considera que estos \u00e1rboles representan un importante almac\u00e9n de carbono.\n",
    []
  ],
  [
    13,
    "As\u00ed, considerando la gran abundancia, la amplia distribuci\u00f3n y la elevada biomasa de G. sanctum en Campeche, es esperable que su papel en funciones ecol\u00f3gicas tales como fijaci\u00f3n y almacenamiento de carbono, \ufb02ujo de nutrientes y agua, conservaci\u00f3n de suelo y provisi\u00f3n de recursos alimenticios para la fauna, sean muy importantes.\n",
    [
      {
        "text": "G. sanctum",
        "type": "Nombre_cientifico",
        "offset": [
          85,
          95
        ]
      }
    ]
  ],
  [
    14,
    "Por ejemplo, se sabe que muchas especies de aves y mam\u00edferos se alimentan de los frutos/semillas del Guayac\u00e1n o que utilizan a este \u00e1rbol como sitios de percha, anidamiento o protecci\u00f3n (Weldeken y Mart\u00edn, 1987).\n",
    [
      {
        "text": "Guayac\u00e1n",
        "type": "Nombre_comun",
        "offset": [
          101,
          109
        ]
      },
      {
        "text": "utilizan a este \u00e1rbol como sitios de percha, anidamiento o protecci\u00f3n",
        "type": "Uso",
        "offset": [
          116,
          185
        ]
      },
      {
        "arg2_text": "utilizan a este \u00e1rbol como sitios de percha, anidamiento o protecci\u00f3n",
        "arg1_offset": [
          101,
          109
        ],
        "arg2_line": 14,
        "arg2_offset": [
          116,
          185
        ],
        "arg1_text": "Guayac\u00e1n",
        "type": "se_usa",
        "arg1_line": 14
      }
    ]
  ],
  [
    15,
    "A juzgar por su tipo de \ufb02ores y masiva \ufb02oraci\u00f3n es probable que G. sanctum sea tambi\u00e9n un recurso muy importante para la comunidad de polinizadores.\n",
    [
      {
        "text": "G. sanctum",
        "type": "Nombre_cientifico",
        "offset": [
          64,
          74
        ]
      }
    ]
  ],
  [
    16,
    "Al Guayac\u00e1n se le atribuyen propiedades medicinales y fue intensamente explotado para su uso como anti-in\ufb02amatorio, diur\u00e9tico y laxante, contra la gota, la neuralgia, el reumatismo, la tonsilitis y la s\u00edfilis (Gifford, 1939; cites, 2000).\n",
    [
      {
        "text": "Guayac\u00e1n",
        "type": "Nombre_comun",
        "offset": [
          3,
          11
        ]
      },
      {
        "arg2_text": "intensamente explotado para su uso como anti-in\ufb02amatorio, diur\u00e9tico y laxante, contra la gota, la neuralgia, el reumatismo, la tonsilitis y la s\u00edfilis",
        "arg1_offset": [
          3,
          11
        ],
        "arg2_line": 16,
        "arg2_offset": [
          58,
          208
        ],
        "arg1_text": "Guayac\u00e1n",
        "type": "se_usa",
        "arg1_line": 16
      },
      {
        "text": "intensamente explotado para su uso como anti-in\ufb02amatorio, diur\u00e9tico y laxante, contra la gota, la neuralgia, el reumatismo, la tonsilitis y la s\u00edfilis",
        "type": "Medicinal",
        "offset": [
          58,
          208
        ]
      }
    ]
  ],
  [
    17,
    "La madera del Guayac\u00e1n se ha usado en la construcci\u00f3n de durmientes de ferrocarril, para horcones de casas o postes y en la fabricaci\u00f3n de artesan\u00edas.\n",
    [
      {
        "arg2_text": "se ha usado en la construcci\u00f3n de durmientes de ferrocarril, para horcones de casas o postes y en la fabricaci\u00f3n de artesan\u00edas",
        "arg1_offset": [
          14,
          22
        ],
        "arg2_line": 17,
        "arg2_offset": [
          23,
          149
        ],
        "arg1_text": "Guayac\u00e1n",
        "type": "se_usa",
        "arg1_line": 17
      },
      {
        "arg2_text": "se emplea en la fabricaci\u00f3n de repelentes de mosquitos",
        "arg1_offset": [
          14,
          22
        ],
        "arg2_line": 18,
        "arg2_offset": [
          11,
          65
        ],
        "arg1_text": "Guayac\u00e1n",
        "type": "se_usa",
        "arg1_line": 17
      },
      {
        "text": "Guayac\u00e1n",
        "type": "Nombre_comun",
        "offset": [
          14,
          22
        ]
      },
      {
        "text": "se ha usado en la construcci\u00f3n de durmientes de ferrocarril, para horcones de casas o postes y en la fabricaci\u00f3n de artesan\u00edas",
        "type": "Uso",
        "offset": [
          23,
          149
        ]
      }
    ]
  ],
  [
    18,
    "El aserr\u00edn se emplea en la fabricaci\u00f3n de repelentes de mosquitos.\n",
    [
      {
        "text": "se emplea en la fabricaci\u00f3n de repelentes de mosquitos",
        "type": "Uso",
        "offset": [
          11,
          65
        ]
      }
    ]
  ],
  [
    19,
    "Los desechos de la industria maderera se utilizan para la preparaci\u00f3n de una bebida alcoh\u00f3lica en Alemania.\n",
    []
  ],
  [
    20,
    "La industria naviera aporta recursos econ\u00f3micos por importantes a las madederas, ya que d se emplea en la producci\u00f3n de algunas piezas de barcos.\n",
    []
  ],
  [
    21,
    "En el estado de Campeche, el aprovechamiento industrial de la madera del Guayac\u00e1n fue esencial durante los a\u00f1os 1960-1990 con un importante mercado en pa\u00edses de Europa, As\u00eda y Norteam\u00e9rica.\n",
    [
      {
        "text": "Guayac\u00e1n",
        "type": "Nombre_comun",
        "offset": [
          73,
          81
        ]
      }
    ]
  ],
  [
    22,
    "Esta madera se extra\u00eda principalmente de los municipios de Campeche, Hopelch\u00e9n y lo que hoy es Calakmul.\n",
    []
  ],
  [
    23,
    "A partir de 1990, el mercado del Guayac\u00e1n ha declinado hasta llegar a comercializarse s\u00f3lo un 10- 15% de los vol\u00famenes de exportaci\u00f3n originales (cites, 2000, Salmon, com. pers.).\n",
    []
  ],
  [
    24,
    "Esta ca\u00edda se debi\u00f3 a la sustituci\u00f3n de la madera por piezas de pl\u00e1stico (cites, 2000).\n",
    []
  ],
  [
    25,
    "El aprovechamiento forestal del Guayac\u00e1n ha sido muy importante para la econom\u00eda de familias y comunidades ejidales poseedoras del recurso.\n",
    [
      {
        "text": "Guayac\u00e1n",
        "type": "Nombre_comun",
        "offset": [
          32,
          40
        ]
      }
    ]
  ],
  [
    26,
    "As\u00ed, en el Ejido Pich alrededor de 260 ejidatarios o residentes tienen una fuente econ\u00f3mica directa o indirecta del aprovechamiento del Guayac\u00e1n.\n",
    [
      {
        "text": "Guayac\u00e1n",
        "type": "Nombre_comun",
        "offset": [
          136,
          144
        ]
      }
    ]
  ],
  [
    27,
    "Debido a una intensa explotaci\u00f3n pasada y a la p\u00e9rdida de su h\u00e1bitat (provocada por el cambio de uso del suelo), las poblaciones de Guayac\u00e1n han sufrido fragmentaci\u00f3n, reducci\u00f3n severa en su distribuci\u00f3n geogr\u00e1fica y la extracci\u00f3n de los \u00e1rboles de mayor talla.\n",
    [
      {
        "text": "Guayac\u00e1",
        "type": "Nombre_comun",
        "offset": [
          132,
          139
        ]
      }
    ]
  ],
  [
    28,
    "Por ello, la especie se encuentra catalogada como una especie amenazada en once pa\u00edses y, en M\u00e9xico se encuentra listada como una especie \u201cBajo Protecci\u00f3n Especial\u201d (cites, 2000; seMarnat, 2002; iucn, 2007).\n",
    []
  ],
  [
    29,
    "La deforestaci\u00f3n y la fragmentaci\u00f3n de bosques representan los factores de riesgo m\u00e1s importantes para la persistencia de las poblaciones de Guayac\u00e1n, especialmente en los estados de Oaxaca, Chiapas y Yucat\u00e1n.\n",
    [
      {
        "text": "Guayac\u00e1n",
        "type": "Nombre_comun",
        "offset": [
          141,
          149
        ]
      }
    ]
  ],
  [
    30,
    "Para el caso de Campeche, podemos decir que la especie presenta, en t\u00e9rminos generales, un buen estado de conservaci\u00f3n.\n",
    []
  ],
  [
    31,
    "Sin embargo, en el Estado tambi\u00e9n existen riesgos por la conversi\u00f3n de las selvas a los sistemas agropecuarios.\n",
    []
  ],
  [
    32,
    "Por ejemplo, algunos ejidos con poblaciones de Guayac\u00e1n, han vendido sus tierras a particulares, cuya visi\u00f3n es reemplazar el bosque por campos agr\u00edcolas, praderas ganaderas o plantaciones forestales.\n",
    [
      {
        "text": "Guayac\u00e1n",
        "type": "Nombre_comun",
        "offset": [
          47,
          55
        ]
      }
    ]
  ],
  [
    33,
    "En nuestro an\u00e1lisis encontramos que en Campeche la fragmentaci\u00f3n de selvas con presencia de Guayac\u00e1n ha sido muy importante, lo que ha creado remanentes peque\u00f1os de selva (<100 hect\u00e1reas) susceptibles a la degradaci\u00f3n del h\u00e1bitat y a largo plazo a la p\u00e9rdida del mismo.\n",
    [
      {
        "text": "Guayac\u00e1n",
        "type": "Nombre_comun",
        "offset": [
          92,
          100
        ]
      }
    ]
  ],
  [
    34,
    "La fragmentaci\u00f3n puede provocar problemas de p\u00e9rdida de variabilidad gen\u00e9tica y de vulnerabilidad demogr\u00e1fica, por lo que compromete la persistencia de poblaciones a largo plazo.\n",
    []
  ],
  [
    35,
    "Actualmente, la intensidad con que se efect\u00faa el aprovechamiento forestal del Guayac\u00e1n en el estado de Campeche parece no ser un problema para su conservaci\u00f3n, pues ha perdido importancia comercial y sus usos locales son menores.\n",
    [
      {
        "text": "Guayac\u00e1n",
        "type": "Nombre_comun",
        "offset": [
          78,
          86
        ]
      }
    ]
  ],
  [
    36,
    "Alrededor del 14% de la superficie de distribuci\u00f3n de G. sanctum en M\u00e9xico se encuentra protegido, Campeche cuenta con la mayor proporci\u00f3n (85%).\n",
    [
      {
        "text": "G. sanctum",
        "type": "Nombre_cientifico",
        "offset": [
          54,
          64
        ]
      }
    ]
  ],
  [
    37,
    "Resulta importante contar con el ordenamiento ecol\u00f3gico que ayude a la planeaci\u00f3n y a la toma de decisiones sobre el avance agr\u00edcola, ganadero y de asentamientos humanos.\n",
    []
  ],
  [
    38,
    "Asimismo, los proyectos de desarrollo que impliquen el cambio de uso de suelo en \u00e1reas con bosques de Guayac\u00e1n, deben de cumplir adecuadamente con los estudios requeridos y ser cuidadosamente evaluados para la conservaci\u00f3n de la especie.\n",
    [
      {
        "text": "Guayac\u00e1n",
        "type": "Nombre_comun",
        "offset": [
          102,
          110
        ]
      }
    ]
  ],
  [
    39,
    "As\u00ed \u00e1reas de selva que sean parte de un corredor biol\u00f3gico, con una riqueza de especies importante y la presencia de G. sanctum, deben de considerarse de gran valor y prioritarias para la conservaci\u00f3n.\n",
    [
      {
        "text": "G. sanctum",
        "type": "Nombre_cientifico",
        "offset": [
          117,
          127
        ]
      }
    ]
  ],
  [
    40,
    "Asimismo, se debe aumentar el nivel de protecci\u00f3n y vigilancia de las \u00e1reas naturales con categor\u00eda estatal.\n",
    []
  ],
  [
    41,
    "La gran variaci\u00f3n espacial de las poblaciones de G. sanctum en Campeche indica que las propuesta de manejo forestal debe sustentarse en una intensa evaluaci\u00f3n de la disponibilidad del recurso.\n",
    [
      {
        "text": "G. sanctum",
        "type": "Nombre_cientifico",
        "offset": [
          49,
          59
        ]
      }
    ]
  ],
  [
    42,
    "Los estudios demogr\u00e1ficos indican que una cosecha de un 40 a 60% de los \u00e1rboles adultos (con m\u00e1s de 35 cm de dap) cada 20 a\u00f1os no produce impactos negativos sobre la persistencia futura de las poblaciones aprovechadas, siempre y cuando se reduzcan al m\u00ednimo los da\u00f1os a los \u00e1rboles peque\u00f1os no comerciales (tallos de 1 a 25 cm dap) .\n",
    []
  ],
  [
    43,
    "Este da\u00f1o m\u00ednimo implica no causar la muerte a m\u00e1s del 8% de los \u00e1rboles peque\u00f1os por la actividad de extracci\u00f3n forestal, lo que implica tener buenas estrategias de tala y de construcci\u00f3n de brechas (L\u00f3pez-Toledo, 2008).\n",
    []
  ],
  [
    44,
    "Cualquier aprovechamiento forestal de Guayac\u00e1n debe de considerar estos antecedentes.\n",
    [
      {
        "text": "Guayac\u00e1n",
        "type": "Nombre_comun",
        "offset": [
          38,
          46
        ]
      }
    ]
  ],
  [
    45,
    "En M\u00e9xico, el Guayac\u00e1n se encuentra en la categor\u00eda de \u201cprotecci\u00f3n especial\u201d, aunque usando el M\u00e9todo de Evaluaci\u00f3n del Riesgo de Extinci\u00f3n de las Especies Silvestres (seMarnat, 2002) encontramos que la especie a nivel nacional se considera especie amenazada, especialmente en poblaciones de Oaxaca, Chiapas y Yucat\u00e1n.\n",
    [
      {
        "text": "Guayac\u00e1n",
        "type": "Nombre_comun",
        "offset": [
          14,
          22
        ]
      }
    ]
  ],
  [
    46,
    "Resulta importante promover la ampliaci\u00f3n de \u00e1reas protegidas o de nuevas reservas y llevar a cabo una concientizaci\u00f3n de conservaci\u00f3n entre comunidades en las que G. sanctum est\u00e1 presente.\n",
    [
      {
        "text": "G. sanctum",
        "type": "Nombre_cientifico",
        "offset": [
          164,
          174
        ]
      }
    ]
  ],
  [
    47,
    "La distribuci\u00f3n actual de Guaiacum sanctum en M\u00e9xico y especialmente su abundancia en el estado de Campeche representan una posibilidad excepcional de conservaci\u00f3n y aprovechamiento de esta especie de singular belleza y gran importancia ecol\u00f3gica y biol\u00f3gica para el beneficio y gozo de la actual y de las futuras generaciones.",
    [
      {
        "text": "Guaiacum sanctum",
        "type": "Nombre_cientifico",
        "offset": [
          26,
          42
        ]
      }
    ]
  ]
]