[
  [
    1,
    "INTRODUCCI\u00d3N \n",
    []
  ],
  [
    2,
    "\n",
    []
  ],
  [
    3,
    "Los hongos son considerados como el segundo grupo m\u00e1s abundante de organismos vivos, despu\u00e9s de los insectos.\n",
    []
  ],
  [
    4,
    "Seg\u00fan estimaciones de Hawksworth (1991), existen 1 500 000 especies de hongos en el mundo, de las cuales 200 000 podr\u00edan encontrarse en M\u00e9xico y m\u00e1s de 14 000 especies de macromicetos estar\u00edan presentes en Veracruz (Guzm\u00e1n, 1998).\n",
    []
  ],
  [
    5,
    "Los hongos comestibles silvestres son consumidos en M\u00e9xico desde tiempos prehisp\u00e1nicos.\n",
    []
  ],
  [
    6,
    "De acuerdo con Guzm\u00e1n (2001), en nuestro pa\u00eds existen m\u00e1s de 200 especies de hongos comestibles, de las cuales 37 se distinguen por sus propiedades medicinales (Guzm\u00e1n, 1994) y muchas de ellas est\u00e1n presentes en el estado de Veracruz.\n",
    []
  ],
  [
    7,
    "Por otro lado, a nivel mundial se ha experimentado con el cultivo y crecimiento de alrededor de 200 especies, de \u00e9stas 100 son econ\u00f3micamente cultivadas, pero s\u00f3lo 60 lo son comercialmente y 10 han alcanzado una escala industrial de producci\u00f3n en varios pa\u00edses (Chang y Miles, 2004).\n",
    []
  ],
  [
    8,
    "Estos datos de M\u00e9xico, y a nivel mundial, indican el gran potencial que tienen los hongos silvestres en la industria del cultivo de hongos.\n",
    []
  ],
  [
    9,
    "Este trabajo re\u00fane informaci\u00f3n sobre el conocimiento y conservaci\u00f3n de las especies comestibles silvestres de Veracruz, as\u00ed tambi\u00e9n, aporta datos sobre la producci\u00f3n estimada de hongos comestibles, con la finalidad de identificar los beneficios econ\u00f3micos y ecol\u00f3gicos que el desarrollo de esta actividad proporciona a la entidad.\n",
    []
  ],
  [
    10,
    "\n",
    []
  ],
  [
    11,
    "HONGOS COMESTIBLES SILVESTRES EN VERACRUZ \n",
    []
  ],
  [
    12,
    "\n",
    []
  ],
  [
    13,
    "Actualmente se recolectan hongos en la entidad no s\u00f3lo para autoconsumo sino para la venta, lo que aporta un ingreso a la econom\u00eda familiar en zonas rurales.\n",
    []
  ],
  [
    14,
    "La venta de hongos silvestres en los mercados se sigue realizando, especialmente en la zona centro del estado, donde la tradici\u00f3n del consumo de hongos comestibles silvestres se ha mantenido (figura 1).\n",
    []
  ],
  [
    15,
    "Sin embargo, la sobreexplotaci\u00f3n de este recurso y la reducci\u00f3n de los bosques en los \u00faltimos a\u00f1os, han impactado en la densidad de poblaci\u00f3n de dichos organismos.\n",
    []
  ],
  [
    16,
    "Un ejemplo de esto es el hongo de encino Cantharellus odoratus (Schwein.) Fr., que Guzm\u00e1n y Sampieri (1984) citaron como un hongo que se vend\u00eda abundantemente en los mercados de Huatusco, Veracruz.\n",
    [
      {
        "text": "hongo de encino",
        "type": "Nombre_comun",
        "offset": [
          25,
          40
        ]
      },
      {
        "arg2_text": "hongos comestibles",
        "arg1_offset": [
          41,
          62
        ],
        "arg2_line": 18,
        "arg2_offset": [
          140,
          158
        ],
        "arg1_text": "Cantharellus odoratus",
        "type": "se_usa",
        "arg1_line": 16
      },
      {
        "arg2_text": "Cantharellus odoratus",
        "arg1_offset": [
          25,
          40
        ],
        "arg2_line": 16,
        "arg2_offset": [
          41,
          62
        ],
        "arg1_text": "hongo de encino",
        "type": "alias",
        "arg1_line": 16
      },
      {
        "text": "Cantharellus odoratus",
        "type": "Nombre_cientifico",
        "offset": [
          41,
          62
        ]
      }
    ]
  ],
  [
    17,
    "Esta especie crec\u00eda en los manchones de bosque mes\u00f3filo que a\u00fan se encontraban cerca de esta localidad, sin embargo, las estad\u00edsticas sobre este tipo de bosque en Veracruz apuntan a que aproximadamente el 87 % de la superficie original del mismo, en la entidad, se han eliminado, especialmente en las zonas de C\u00f3rdoba y Orizaba (Challenger, 2003), de tal manera que es probable que la presencia de este hongo tambi\u00e9n se haya reducido.\n",
    []
  ],
  [
    18,
    "El conocimiento actual de los hongos comestibles silvestres en el estado se puede sintetizar de la siguiente manera: de las 204 especies de hongos comestibles citadas de M\u00e9xico, 131 especies est\u00e1n presentes en Veracruz, de \u00e9stas 79 se comercializan en los mercados y 61 son micorr\u00edcicas (asociadas a diversas especies de \u00e1rboles) (Villarreal y P\u00e9rez-Moreno, 1989).\n",
    [
      {
        "text": "hongos comestibles",
        "type": "Alimentario",
        "offset": [
          140,
          158
        ]
      }
    ]
  ],
  [
    19,
    "Entre las especies m\u00e1s populares destacan el hongo blanco (Tricholoma magnivelare [Peck] Redhead), las morillas (Morchella spp.), panza (Boletus edulis Bull.) (figura 2), masayel (Boletus pinophilus Pil\u00e1t & Dermek), todas creciendo en los bosques de con\u00edferas de Veracruz, no as\u00ed el duraznillo (Cantharellus cibarius Fr.) que prospera en el bosque mes\u00f3filo de monta\u00f1a.\n",
    [
      {
        "text": "panza",
        "type": "Nombre_comun",
        "offset": [
          130,
          135
        ]
      },
      {
        "text": "masayel",
        "type": "Nombre_comun",
        "offset": [
          171,
          178
        ]
      },
      {
        "text": "Cantharellus cibarius",
        "type": "Nombre_cientifico",
        "offset": [
          295,
          316
        ]
      },
      {
        "text": "hongo blanco",
        "type": "Nombre_comun",
        "offset": [
          45,
          57
        ]
      },
      {
        "text": "morillas",
        "type": "Nombre_comun",
        "offset": [
          103,
          111
        ]
      },
      {
        "text": "Boletus edulis",
        "type": "Nombre_cientifico",
        "offset": [
          137,
          151
        ]
      },
      {
        "arg2_text": "Tricholoma magnivelare",
        "arg1_offset": [
          45,
          57
        ],
        "arg2_line": 19,
        "arg2_offset": [
          59,
          81
        ],
        "arg1_text": "hongo blanco",
        "type": "alias",
        "arg1_line": 19
      },
      {
        "arg2_text": "Morchella spp.",
        "arg1_offset": [
          103,
          111
        ],
        "arg2_line": 19,
        "arg2_offset": [
          113,
          127
        ],
        "arg1_text": "morillas",
        "type": "alias",
        "arg1_line": 19
      },
      {
        "arg2_text": "Boletus edulis",
        "arg1_offset": [
          130,
          135
        ],
        "arg2_line": 19,
        "arg2_offset": [
          137,
          151
        ],
        "arg1_text": "panza",
        "type": "alias",
        "arg1_line": 19
      },
      {
        "arg2_text": "Boletus pinophilus",
        "arg1_offset": [
          171,
          178
        ],
        "arg2_line": 19,
        "arg2_offset": [
          180,
          198
        ],
        "arg1_text": "masayel",
        "type": "alias",
        "arg1_line": 19
      },
      {
        "arg2_text": "Cantharellus cibarius",
        "arg1_offset": [
          283,
          293
        ],
        "arg2_line": 19,
        "arg2_offset": [
          295,
          316
        ],
        "arg1_text": "duraznillo",
        "type": "alias",
        "arg1_line": 19
      },
      {
        "text": "Tricholoma magnivelare",
        "type": "Nombre_cientifico",
        "offset": [
          59,
          81
        ]
      },
      {
        "text": "Boletus pinophilus",
        "type": "Nombre_cientifico",
        "offset": [
          180,
          198
        ]
      },
      {
        "text": "Morchella spp.",
        "type": "Nombre_cientifico",
        "offset": [
          113,
          127
        ]
      },
      {
        "text": "duraznillo",
        "type": "Nombre_comun",
        "offset": [
          283,
          293
        ]
      }
    ]
  ],
  [
    20,
    "Otros hongos muy apreciados son los tecomates, que de acuerdo con Guzm\u00e1n y Ram\u00edrez-Guill\u00e9n (2001), pertenecen al complejo Amanita caesarea (Scop.) Pers., e incluyen al menos siete especies comestibles que crecen en bosques de con\u00edferas y de encino (figura 3).\n",
    [
      {
        "text": "Amanita caesarea",
        "type": "Nombre_cientifico",
        "offset": [
          122,
          138
        ]
      },
      {
        "arg2_text": "Amanita caesarea",
        "arg1_offset": [
          36,
          45
        ],
        "arg2_line": 20,
        "arg2_offset": [
          122,
          138
        ],
        "arg1_text": "tecomates",
        "type": "alias",
        "arg1_line": 20
      },
      {
        "arg2_text": "especies comestibles",
        "arg1_offset": [
          122,
          138
        ],
        "arg2_line": 20,
        "arg2_offset": [
          180,
          200
        ],
        "arg1_text": "Amanita caesarea",
        "type": "se_usa",
        "arg1_line": 20
      },
      {
        "text": "especies comestibles",
        "type": "Alimentario",
        "offset": [
          180,
          200
        ]
      },
      {
        "text": "tecomates",
        "type": "Nombre_comun",
        "offset": [
          36,
          45
        ]
      }
    ]
  ],
  [
    21,
    "Es importante se\u00f1alar que de estas especies, el hongo blanco (T. magnivelare) (figura 4) es el que alcanza un mayor precio de venta, incluso se encuentra entre los principales productos forestales no maderables con mayor derrama econ\u00f3mica en nuestro pa\u00eds (Villarreal y P\u00e9rez-Moreno, 1989).\n",
    [
      {
        "arg2_text": "T. magnivelare",
        "arg1_offset": [
          48,
          60
        ],
        "arg2_line": 21,
        "arg2_offset": [
          62,
          76
        ],
        "arg1_text": "hongo blanco",
        "type": "alias",
        "arg1_line": 21
      },
      {
        "text": "hongo blanco",
        "type": "Nombre_comun",
        "offset": [
          48,
          60
        ]
      },
      {
        "text": "T. magnivelare",
        "type": "Nombre_cientifico",
        "offset": [
          62,
          76
        ]
      }
    ]
  ],
  [
    22,
    "B. edulis, C. cibarius y Amanita caesarea, tambi\u00e9n son especies apreciadas en el mercado, pero al igual que con el hongo blanco, su reproducci\u00f3n in situ es dif\u00edcil ya que son especies micorr\u00edcicas.\n",
    [
      {
        "text": "B. edulis",
        "type": "Nombre_cientifico",
        "offset": [
          0,
          9
        ]
      },
      {
        "text": "C. cibarius",
        "type": "Nombre_cientifico",
        "offset": [
          11,
          22
        ]
      },
      {
        "text": "Amanita caesarea",
        "type": "Nombre_cientifico",
        "offset": [
          25,
          41
        ]
      },
      {
        "text": "hongo blanco",
        "type": "Nombre_comun",
        "offset": [
          115,
          127
        ]
      }
    ]
  ],
  [
    23,
    "A diferencia del avance significativo de algunos pa\u00edses sobre el aprovechamiento de los hongos micorr\u00ed- cicos, en M\u00e9xico los estudios han sido escasos, no habi\u00e9ndose logrado a\u00fan evaluar el potencial de las cepas silvestres a las condiciones de suelo, vegetaci\u00f3n y clima existentes en el pa\u00eds (Varela y Estrada-Torres, 1997). \n",
    []
  ],
  [
    24,
    "La conservaci\u00f3n de las especies de hongos comestibles silvestres en M\u00e9xico se reduce a la NOM-059- SEMARNAT-2001 (http://www.semarnat. gob.mx/ pfnm/NOM-ECOL-059Especies), que considera nueve familias pertenecientes principalmente a los basidiomicetos, las cuales incluyen al menos 12 especies que se sabe son comestibles en Veracruz.\n",
    [
      {
        "text": "hongos comestibles",
        "type": "Alimentario",
        "offset": [
          35,
          53
        ]
      }
    ]
  ],
  [
    25,
    "De las especies consideradas, A. caesarea, B. edulis, C. cibarius, Morchella conica Krombh., M. elata Fr., y M. esculenta (L.) Pers.\n",
    [
      {
        "text": "C. cibarius",
        "type": "Nombre_cientifico",
        "offset": [
          54,
          65
        ]
      },
      {
        "text": "A. caesarea",
        "type": "Nombre_cientifico",
        "offset": [
          30,
          41
        ]
      },
      {
        "text": "B. edulis",
        "type": "Nombre_cientifico",
        "offset": [
          43,
          52
        ]
      },
      {
        "text": "M. elata",
        "type": "Nombre_cientifico",
        "offset": [
          93,
          101
        ]
      },
      {
        "text": "M. esculenta",
        "type": "Nombre_cientifico",
        "offset": [
          109,
          121
        ]
      },
      {
        "text": "Morchella conica",
        "type": "Nombre_cientifico",
        "offset": [
          67,
          83
        ]
      }
    ]
  ],
  [
    26,
    "(mazorquitas) est\u00e1n sujetas a protecci\u00f3n especial, adem\u00e1s Agaricus augustus, Boletus pinophilus, Suillus brevipes (Peck) Kuntze, S. granulatus (L.) Roussel, Hygrophorus russula (Fr.) Kauffman, Morchella costata (Vent.) Pers. y Leccinum aurantiacum (Bull.) Gray, est\u00e1n consideradas como especies amenazadas.\n",
    [
      {
        "text": "Suillus brevipes",
        "type": "Nombre_cientifico",
        "offset": [
          97,
          113
        ]
      },
      {
        "text": "Boletus pinophilus",
        "type": "Nombre_cientifico",
        "offset": [
          77,
          95
        ]
      },
      {
        "text": "Agaricus augustus",
        "type": "Nombre_cientifico",
        "offset": [
          58,
          75
        ]
      },
      {
        "text": "Morchella costata",
        "type": "Nombre_cientifico",
        "offset": [
          193,
          210
        ]
      },
      {
        "text": "Leccinum aurantiacum",
        "type": "Nombre_cientifico",
        "offset": [
          227,
          247
        ]
      },
      {
        "text": "S. granulatus",
        "type": "Nombre_cientifico",
        "offset": [
          129,
          142
        ]
      },
      {
        "text": "Hygrophorus russula",
        "type": "Nombre_cientifico",
        "offset": [
          157,
          176
        ]
      }
    ]
  ],
  [
    27,
    "\n",
    []
  ],
  [
    28,
    "LA CONSERVACI\u00d3N DE GERMOPLASMA DE HONGOS SILVESTRES \n",
    []
  ],
  [
    29,
    "\n",
    []
  ],
  [
    30,
    "Las poblaciones silvestres de los hongos comestibles son, por excelencia, la fuente m\u00e1s importante de material gen\u00e9tico para el sector productivo de los hongos cultivados, pues al estar fisiol\u00f3gicamente adaptados a determinados sustratos y condiciones ambientales, pueden proporcionar variaci\u00f3n gen\u00e9- tica suficiente para realizar estudios de aislamiento de las cepas y determinaci\u00f3n de los par\u00e1metros \u00f3ptimos de germinaci\u00f3n y desarrollo de las fructificaciones, con la finalidad de seleccionar material gen\u00e9tico que presente caracter\u00edsticas deseables para la industria del cultivo (Chang y Miles, 2004).\n",
    []
  ],
  [
    31,
    "Por ende, la producci\u00f3n de hongos comestibles depende en gran parte de la disponibilidad de material gen\u00e9tico silvestre y de su adecuada preservaci\u00f3n.\n",
    []
  ],
  [
    32,
    "En M\u00e9xico, a pesar de ser el l\u00edder latinoamericano en producci\u00f3n de hongos comestibles, pocas investigaciones se han enfocado a recuperar y preservar germoplasma silvestre de las especies de inter\u00e9s industrial (Mata y Salmones, 2003).\n",
    []
  ],
  [
    33,
    "En Veracruz se refleja esta situaci\u00f3n, ya que a pesar de ser considerada una de las regiones mejor conocidas micol\u00f3gicamente en el pa\u00eds (Guzm\u00e1n, 1998), s\u00f3lo el cepario de hongos del Instituto de Ecolog\u00eda (Xalapa), ha conservado por varios a\u00f1os material gen\u00e9tico de especies comestibles (Mata y Salmones, 2003), por lo que es reconocido oficialmente en el World Data Centre for Microorganisms.\n",
    []
  ],
  [
    34,
    "Esta colecci\u00f3n fue fundada en 1982 y actualmente cuenta con m\u00e1s de 300 cepas, adscritas a 15 g\u00e9neros (cuadro 1).\n",
    []
  ],
  [
    35,
    "El m\u00e9todo de conservaci\u00f3n empleado en esta colecci\u00f3n biol\u00f3gica es la criogenizaci\u00f3n, por lo que el germoplasma se mantiene inmerso en nitr\u00f3geno l\u00edquido a temperaturas ultrabajas (cercanas a -196 \u00b0C).\n",
    []
  ],
  [
    36,
    "\n",
    []
  ],
  [
    37,
    "USO POTENCIAL DE LOS RESIDUOS AGR\u00cdCOLAS Y FORESTALES \n",
    []
  ],
  [
    38,
    "\n",
    []
  ],
  [
    39,
    "M\u00e9xico es un pa\u00eds productor de gran cantidad de residuos org\u00e1nicos.\n",
    []
  ],
  [
    40,
    "Tan s\u00f3lo en el a\u00f1o 2004, se generaron m\u00e1s de 70 millones de toneladas de residuos lignocelul\u00f3sicos como resultado de la utilizaci\u00f3n de los recursos naturales, mediante la agricultura, la ganader\u00eda y los productos forestales (FAO, 2004) (cuadro 2).\n",
    []
  ],
  [
    41,
    "De este volumen producido, se calcula que un 70 % es desperdiciado y desechado de manera incorrecta en el ambiente (FAO, 2004). \n",
    []
  ],
  [
    42,
    "Los residuos lignocelul\u00f3sicos, como su nombre lo indica, contienen altos porcentajes de lignocelulosa, una mol\u00e9cula compleja de dif\u00edcil degradaci\u00f3n microbiana (Reid, 1995).\n",
    []
  ],
  [
    43,
    "El mayor beneficio ecol\u00f3- gico de los hongos comestibles es que son degrada- dores naturales de la lignocelulosa y otros compuestos recalcitrantes, proceso que logran mediante la secreci\u00f3n de diversas enzimas hidrol\u00edti- cas y oxidativas durante sus ciclos de cultivo (Leo- nowicz et al., 1999).\n",
    []
  ],
  [
    44,
    "Por lo tanto, con el cultivo de hongos comestibles no s\u00f3lo se obtienen fructifica- ciones para consumo directo, sino adem\u00e1s, se genera un material residual que puede ser aplicado como fertilizante.\n",
    []
  ],
  [
    45,
    "La actual producci\u00f3n rural y comercial de hongos comestibles utiliza m\u00e1s de 670 mil toneladas de residuos, con lo que se generan aproximadamente 300 mil toneladas de abono org\u00e1nico (Chang y Miles, 2004).\n",
    []
  ],
  [
    46,
    "La mayor\u00eda de los residuos org\u00e1nicos son potencialmente adecuados como sustratos para el cultivo de hongos.\n",
    []
  ],
  [
    47,
    "Entre estos desechos cabe des- tacar, por los vol\u00famenes anualmente producidos, el bagazo de ca\u00f1a de az\u00facar, la pulpa de caf\u00e9, el rastrojo de ma\u00edz, las pajas de gram\u00edneas, entre otros.\n",
    []
  ],
  [
    48,
    "De estos residuos, el estado de Veracruz, con un 44 % de su superficie dedicada a la agri- cultura, produce gran cantidad de ellos.\n",
    []
  ],
  [
    49,
    "Adem\u00e1s, el aserr\u00edo de la madera y su comercializaci\u00f3n en la entidad (180 mil m3 /a\u00f1o) (Semarnat, 2006), pro- porciona vol\u00famenes de residuos forestales ideales para su aprovechamiento en el cultivo de especies de hongos comestibles con mayor demanda de lignina en el sustrato.\n",
    []
  ],
  [
    50,
    "\n",
    []
  ],
  [
    51,
    "CULTIVO DE HONGOS COMESTIBLES \n",
    []
  ],
  [
    52,
    "\n",
    []
  ],
  [
    53,
    "En los \u00faltimos a\u00f1os, la tendencia en el cultivo de hongos comestibles se ha orientado al desarrollo tecnol\u00f3gico con el prop\u00f3sito de elevar los rendi- mientos en la producci\u00f3n (S\u00e1nchez V\u00e1zquez et al., 2007; Oei, 2003), esto ha posibilitado su incre- mento a nivel mundial.\n",
    []
  ],
  [
    54,
    "En M\u00e9xico, el cultivo de hongos se ha realizado durante m\u00e1s de 70 a\u00f1os (Mart\u00ednez-Carrera y Larqu\u00e9-Saavedra, 1990; Mart\u00ednez-Carrera, 2000) y, actualmente, la pro- ducci\u00f3n comercial se estima en m\u00e1s de 38 mil toneladas anuales (Mart\u00ednez-Carrera et al., 2005).\n",
    []
  ],
  [
    55,
    "Las principales especies cultivadas son Agaricus bisporus (champi\u00f1\u00f3n) (figura 5), Pleurotus spp. (seta) (figura 6) y Lentinula edodes (shiitake) (figura 7).\n",
    [
      {
        "text": "Pleurotus spp.",
        "type": "Nombre_cientifico",
        "offset": [
          82,
          96
        ]
      },
      {
        "text": "Agaricus bisporus",
        "type": "Nombre_cientifico",
        "offset": [
          40,
          57
        ]
      },
      {
        "arg2_text": "Pleurotus spp.",
        "arg1_offset": [
          98,
          102
        ],
        "arg2_line": 55,
        "arg2_offset": [
          82,
          96
        ],
        "arg1_text": "seta",
        "type": "alias",
        "arg1_line": 55
      },
      {
        "arg2_text": "Lentinula edodes",
        "arg1_offset": [
          135,
          143
        ],
        "arg2_line": 55,
        "arg2_offset": [
          117,
          133
        ],
        "arg1_text": "shiitake",
        "type": "alias",
        "arg1_line": 55
      },
      {
        "arg2_text": "Agaricus bisporus",
        "arg1_offset": [
          59,
          68
        ],
        "arg2_line": 55,
        "arg2_offset": [
          40,
          57
        ],
        "arg1_text": "champi\u00f1\u00f3n",
        "type": "alias",
        "arg1_line": 55
      },
      {
        "text": "Lentinula edodes",
        "type": "Nombre_cientifico",
        "offset": [
          117,
          133
        ]
      },
      {
        "text": "shiitake",
        "type": "Nombre_comun",
        "offset": [
          135,
          143
        ]
      },
      {
        "text": "seta",
        "type": "Nombre_comun",
        "offset": [
          98,
          102
        ]
      },
      {
        "text": "champi\u00f1\u00f3n",
        "type": "Nombre_comun",
        "offset": [
          59,
          68
        ]
      }
    ]
  ],
  [
    56,
    "De \u00e9stas, el champi\u00f1\u00f3n representa el 94 % del total de hongos producidos a nivel nacional.\n",
    [
      {
        "text": "champi\u00f1\u00f3n",
        "type": "Nombre_comun",
        "offset": [
          13,
          22
        ]
      }
    ]
  ],
  [
    57,
    "Las setas, el segundo hongo producido y consumido, han tenido un desarrollo muy r\u00e1pido, con una amplia aceptaci\u00f3n en el mercado y un crecimiento de su industria.\n",
    [
      {
        "text": "setas",
        "type": "Nombre_comun",
        "offset": [
          4,
          9
        ]
      }
    ]
  ],
  [
    58,
    "Este hongo ha tenido una atenci\u00f3n especial, entre otras cosas, debido a sus propiedades nutrimentales y la amplia varie- dad de residuos org\u00e1nicos en los que es capaz de crecer.\n",
    []
  ],
  [
    59,
    "A diferencia del champi\u00f1\u00f3n, el cultivo de las setas se adapta con relativa facilidad a condi- ciones r\u00fasticas, utilizando un sistema poco tecni- ficado, por lo que el proceso de producci\u00f3n es mucho m\u00e1s econ\u00f3mico.\n",
    []
  ],
  [
    60,
    "La producci\u00f3n de hongos en M\u00e9xico se distribuye en la parte centro y, en menor escala en el sur, favo- recido, principalmente, por condiciones clim\u00e1ticas y por la presencia de grupos acad\u00e9micos especialis- tas en el tema que promueven y difunden la infor- maci\u00f3n disponible.\n",
    []
  ],
  [
    61,
    "Veracruz es una de las entidades donde se lleva a cabo el cultivo de hongos, junto con Chiapas, Estado de M\u00e9xico, Distrito Federal, Hidalgo, Jalisco, Puebla, Quer\u00e9taro y Tlaxcala, entre otros (Gait\u00e1n-Hern\u00e1ndez, 2007).\n",
    []
  ],
  [
    62,
    "En 2005, en Veracruz se comercializaron aprox. 2 800 toneladas de hongos cultivados, lo que representar\u00eda el 5.8 % de lo generado en el pa\u00eds (datos no publicados).\n",
    []
  ],
  [
    63,
    "De este volumen, aprox. 1 500 toneladas correspondie- ron a Agaricus bisporus (champi\u00f1\u00f3n) y las restantes, aprox. 1 300 toneladas, a Pleurotus spp. (seta) (Gai- t\u00e1n-Hern\u00e1ndez, 2007).\n",
    [
      {
        "text": "seta",
        "type": "Nombre_comun",
        "offset": [
          149,
          153
        ]
      },
      {
        "arg2_text": "Pleurotus spp.",
        "arg1_offset": [
          149,
          153
        ],
        "arg2_line": 63,
        "arg2_offset": [
          133,
          147
        ],
        "arg1_text": "seta",
        "type": "alias",
        "arg1_line": 63
      },
      {
        "arg2_text": "Agaricus bisporus",
        "arg1_offset": [
          79,
          88
        ],
        "arg2_line": 63,
        "arg2_offset": [
          60,
          77
        ],
        "arg1_text": "champi\u00f1\u00f3n",
        "type": "alias",
        "arg1_line": 63
      },
      {
        "text": "Agaricus bisporus",
        "type": "Nombre_cientifico",
        "offset": [
          60,
          77
        ]
      },
      {
        "text": "champi\u00f1\u00f3n",
        "type": "Nombre_comun",
        "offset": [
          79,
          88
        ]
      },
      {
        "text": "Pleurotus spp.",
        "type": "Nombre_cientifico",
        "offset": [
          133,
          147
        ]
      }
    ]
  ],
  [
    64,
    "Los primeros estudios sobre cultivo de hongos en Veracruz fueron desarrollados en la Universidad Veracruzana y el extinto Instituto Nacional de Investigaciones sobre Recursos Bi\u00f3ticos (L\u00f3pez Ram\u00edrez, 1984; Mart\u00ednez et al., 1984), en este \u00faltimo centro de investigaci\u00f3n se construy\u00f3 la pri- mera planta experimental para cultivo de Pleurotus, instalaciones que posteriormente se asignaron al Instituto de Ecolog\u00eda.\n",
    [
      {
        "text": "Pleurotus",
        "type": "Nombre_cientifico",
        "offset": [
          331,
          340
        ]
      }
    ]
  ],
  [
    65,
    "Durante estos primeros a\u00f1os de experimentaci\u00f3n, destac\u00f3 el inter\u00e9s de la comu- nidad acad\u00e9mica en implementar la tecnolog\u00eda para el aprovechamiento de los residuos lignocelul\u00f3sicos m\u00e1s abundantes en la regi\u00f3n central de la entidad, como es la pulpa de caf\u00e9 (Guzm\u00e1n y Mart\u00ednez- Carrera, 1985).\n",
    []
  ],
  [
    66,
    "Como resultado de la capacitaci\u00f3n a diversos sectores de la poblaci\u00f3n, en los siguientes a\u00f1os se establecieron algunas plantas comerciales, convirtiendo a la regi\u00f3n central de Veracruz en un semillero de productores de hongos, esfuerzo reco- nocido a nivel nacional (Villegas de Gante, 1996).\n",
    []
  ],
  [
    67,
    "\n",
    []
  ],
  [
    68,
    "EXPERIENCIAS EN LA PRODUCCI\u00d3N DE HONGOS EN EL ESTADO DE VERACRUZ \n",
    []
  ],
  [
    69,
    "\n",
    []
  ],
  [
    70,
    "En los a\u00f1os recientes el cultivo de hongos comestibles en la entidad ha tenido dos vertientes principales, la industria privada y la producci\u00f3n rural.\n",
    []
  ],
  [
    71,
    "La primera ha sido desarrollada por una empresa dedicada al cul- tivo del champi\u00f1\u00f3n en el municipio de Las Vigas de Ram\u00edrez (Rioxal, S. A. de C. V.) y la segunda, confor- mada por el sector social, a la producci\u00f3n de setas.\n",
    [
      {
        "text": "setas",
        "type": "Nombre_comun",
        "offset": [
          217,
          222
        ]
      },
      {
        "text": "champi\u00f1\u00f3n",
        "type": "Nombre_comun",
        "offset": [
          74,
          83
        ]
      }
    ]
  ],
  [
    72,
    "La producci\u00f3n rural se ha llevado a cabo por peque\u00f1os productores que, al no contar con condiciones para una producci\u00f3n rentable y exitosa, tienen una presencia inconstante en el mercado regional.\n",
    []
  ],
  [
    73,
    "Existen adem\u00e1s otras especies potenciales de cultivarse en la entidad, pero sus t\u00e9cnicas de propagaci\u00f3n a\u00fan est\u00e1n en experimentaci\u00f3n (cuadro 3).\n",
    []
  ],
  [
    74,
    "Por otra parte, y como se ha descrito en p\u00e1rrafos anteriores, los estudios con especies micorr\u00edcicas han sido escasos, por lo que deber\u00e1n desarrollarse iniciativas que incidan sobre la conservaci\u00f3n de especies, recuperaci\u00f3n de ambientes perturbados, din\u00e1micas de la propagaci\u00f3n e interacci\u00f3n de las especies f\u00fangicas en diversos tipos de vegetaci\u00f3n presentes en Veracruz (bosques tropicales, caducifo- lios, dunas, etc\u00e9tera).\n",
    []
  ],
  [
    75,
    "Adem\u00e1s de sus cualidades organol\u00e9pticas, algunas especies de hongos tienen gran demanda de consumo por sus propiedades medicinales.\n",
    []
  ],
  [
    76,
    "En Veracruz encontramos g\u00e9neros de especies silvestres de Agaricus, Auricularia, Ganoderma y Pleurotus, entre otros, que probablemente contengan metabolitos secundarios de inter\u00e9s en la industria farmacol\u00f3gica.\n",
    [
      {
        "text": "Pleurotus",
        "type": "Nombre_cientifico",
        "offset": [
          93,
          102
        ]
      },
      {
        "text": "Agaricus",
        "type": "Nombre_cientifico",
        "offset": [
          58,
          66
        ]
      },
      {
        "text": "Auricularia",
        "type": "Nombre_cientifico",
        "offset": [
          68,
          79
        ]
      },
      {
        "text": "Ganoderma",
        "type": "Nombre_cientifico",
        "offset": [
          81,
          90
        ]
      },
      {
        "arg2_text": "inter\u00e9s en la industria farmacol\u00f3gica",
        "arg1_offset": [
          58,
          66
        ],
        "arg2_line": 76,
        "arg2_offset": [
          172,
          209
        ],
        "arg1_text": "Agaricus",
        "type": "se_usa",
        "arg1_line": 76
      },
      {
        "arg2_text": "aprovechar la abundancia f\u00fangica de la entidad para diversificar los beneficios provenientes de los hongos",
        "arg1_offset": [
          58,
          66
        ],
        "arg2_line": 77,
        "arg2_offset": [
          64,
          170
        ],
        "arg1_text": "Agaricus",
        "type": "se_usa",
        "arg1_line": 76
      },
      {
        "text": "inter\u00e9s en la industria farmacol\u00f3gica",
        "type": "Medicinal",
        "offset": [
          172,
          209
        ]
      },
      {
        "arg2_text": "inter\u00e9s en la industria farmacol\u00f3gica",
        "arg1_offset": [
          93,
          102
        ],
        "arg2_line": 76,
        "arg2_offset": [
          172,
          209
        ],
        "arg1_text": "Pleurotus",
        "type": "se_usa",
        "arg1_line": 76
      },
      {
        "arg2_text": "inter\u00e9s en la industria farmacol\u00f3gica",
        "arg1_offset": [
          68,
          79
        ],
        "arg2_line": 76,
        "arg2_offset": [
          172,
          209
        ],
        "arg1_text": "Auricularia",
        "type": "se_usa",
        "arg1_line": 76
      },
      {
        "arg2_text": "aprovechar la abundancia f\u00fangica de la entidad para diversificar los beneficios provenientes de los hongos",
        "arg1_offset": [
          93,
          102
        ],
        "arg2_line": 77,
        "arg2_offset": [
          64,
          170
        ],
        "arg1_text": "Pleurotus",
        "type": "se_usa",
        "arg1_line": 76
      },
      {
        "arg2_text": "aprovechar la abundancia f\u00fangica de la entidad para diversificar los beneficios provenientes de los hongos",
        "arg1_offset": [
          68,
          79
        ],
        "arg2_line": 77,
        "arg2_offset": [
          64,
          170
        ],
        "arg1_text": "Auricularia",
        "type": "se_usa",
        "arg1_line": 76
      },
      {
        "arg2_text": "aprovechar la abundancia f\u00fangica de la entidad para diversificar los beneficios provenientes de los hongos",
        "arg1_offset": [
          81,
          90
        ],
        "arg2_line": 77,
        "arg2_offset": [
          64,
          170
        ],
        "arg1_text": "Ganoderma",
        "type": "se_usa",
        "arg1_line": 76
      },
      {
        "arg2_text": "inter\u00e9s en la industria farmacol\u00f3gica",
        "arg1_offset": [
          81,
          90
        ],
        "arg2_line": 76,
        "arg2_offset": [
          172,
          209
        ],
        "arg1_text": "Ganoderma",
        "type": "se_usa",
        "arg1_line": 76
      }
    ]
  ],
  [
    77,
    "Esta \u00e1rea del conocimiento representa una gran oportunidad para aprovechar la abundancia f\u00fangica de la entidad para diversificar los beneficios provenientes de los hongos. \n",
    [
      {
        "text": "aprovechar la abundancia f\u00fangica de la entidad para diversificar los beneficios provenientes de los hongos",
        "type": "Uso",
        "offset": [
          64,
          170
        ]
      }
    ]
  ],
  [
    78,
    "\n",
    []
  ],
  [
    79,
    "CONCLUSIONES \n",
    []
  ],
  [
    80,
    "\n",
    []
  ],
  [
    81,
    "Los hongos, ocupan el segundo lugar en n\u00famero de especies en la Tierra, despu\u00e9s de los insectos, por lo que juegan un papel importante en la conservaci\u00f3n de la diversidad biol\u00f3gica.\n",
    []
  ],
  [
    82,
    "La gran destrucci\u00f3n que se est\u00e1 efectuando de la vegetaci\u00f3n en el pa\u00eds repercute enormemente sobre las poblaciones de las especies f\u00fangicas, con el grave peligro de la extinci\u00f3n de muchas de ellas, antes, incluso, de poder ser estudiadas o catalogadas, por lo que el manejo sustentable de los hongos debe considerarse una actividad prioritaria para lograr preservar la integridad del entorno natural.\n",
    []
  ],
  [
    83,
    "Los hongos proveen m\u00faltiples beneficios en nuestra vida cotidiana, desde su importante papel como descomponedores de materia org\u00e1nica, hasta constituir la fuente de productos farmacol\u00f3gicos esenciales para la salud humana y animal, por lo que un aprovechamiento adecuado de los recursos f\u00fangicos de la entidad permitir\u00edan no s\u00f3lo considerar las propiedades nutrimentales de las especies comestibles, sino adem\u00e1s, preservar la diversidad existente y promover su uso sustentable.\n",
    [
      {
        "text": "aprovechamiento adecuado de los recursos f\u00fangicos de la entidad permitir\u00edan no s\u00f3lo considerar las propiedades nutrimentales de las especies comestibles",
        "type": "Uso",
        "offset": [
          246,
          398
        ]
      }
    ]
  ],
  [
    84,
    "Por otra parte, el cultivo de hongos comestibles es una alternativa viable para diversas regiones de Veracruz, debido a su clima, disponibilidad de materias primas y ubicaci\u00f3n geogr\u00e1fica, con grandes perspectivas de incorporaci\u00f3n a los mercados nacional e internacional.\n",
    []
  ],
  [
    85,
    "Esta actividad representa una tecnolog\u00eda que busca aumentar los ingresos econ\u00f3micos y diversificar el sector productivo, sin efectos negativos al ambiente, por lo que se espera que el sector financiero incremente y fortalezca los programas de extensi\u00f3n que apoyen a esta industria.\n",
    []
  ]
]