[
  [
    1,
    "Para conocer el origen de los bosques de oyameles (Abies) debemos recurrir a la historia geol\u00f3gica: pertenecen a la familia Pinaceae, que tuvo su origen durante el periodo Jur\u00e1sico de la era Mesozoica en el Hemisferio Norte.\n",
    []
  ],
  [
    2,
    "M\u00e9xico tiene nueve especies diferentes del g\u00e9nero Abies, conocidos com\u00fanmente como oyameles, abetos o romerillos, siete de ellas son end\u00e9micas.\n",
    [
      {
        "arg2_text": "Abies",
        "arg1_offset": [
          83,
          91
        ],
        "arg2_line": 2,
        "arg2_offset": [
          50,
          55
        ],
        "arg1_text": "oyameles",
        "type": "alias",
        "arg1_line": 2
      },
      {
        "arg2_text": "Abies",
        "arg1_offset": [
          93,
          99
        ],
        "arg2_line": 2,
        "arg2_offset": [
          50,
          55
        ],
        "arg1_text": "abetos",
        "type": "alias",
        "arg1_line": 2
      },
      {
        "arg2_text": "Abies",
        "arg1_offset": [
          102,
          112
        ],
        "arg2_line": 2,
        "arg2_offset": [
          50,
          55
        ],
        "arg1_text": "romerillos",
        "type": "alias",
        "arg1_line": 2
      },
      {
        "text": "abetos",
        "type": "Nombre_comun",
        "offset": [
          93,
          99
        ]
      },
      {
        "text": "romerillos",
        "type": "Nombre_comun",
        "offset": [
          102,
          112
        ]
      },
      {
        "text": "Abies",
        "type": "Nombre_cientifico",
        "offset": [
          50,
          55
        ]
      },
      {
        "text": "oyameles",
        "type": "Nombre_comun",
        "offset": [
          83,
          91
        ]
      }
    ]
  ],
  [
    3,
    "En Veracruz se encuentran dos especies de oyamel, Abies religiosa y A. hickelii, \u00e9sta \u00faltima en peligro de extinci\u00f3n (Semarnat, 2002), y con distribuci\u00f3n restringida y disyunta, es decir, separada.\n",
    [
      {
        "text": "Abies religiosa",
        "type": "Nombre_cientifico",
        "offset": [
          50,
          65
        ]
      },
      {
        "text": "A. hickelii",
        "type": "Nombre_cientifico",
        "offset": [
          68,
          79
        ]
      }
    ]
  ],
  [
    4,
    "\n",
    []
  ],
  [
    5,
    "DISTRIBUCI\u00d3N \n",
    []
  ],
  [
    6,
    "\n",
    []
  ],
  [
    7,
    "La distribuci\u00f3n actual de A. hickelii bien puede deberse al descenso de la temperatura durante el Mioceno Medio, cuyo registro de polen de Picea y Abies en la formaci\u00f3n plioc\u00e9nica de Paraje Solo, cerca de Coatzacoalcos, Veracruz, refuerza la idea de que durante este periodo la temperatura y las ecoton\u00edas descendieron (Graham, 1998).\n",
    [
      {
        "text": "A. hickelii",
        "type": "Nombre_cientifico",
        "offset": [
          26,
          37
        ]
      }
    ]
  ],
  [
    8,
    "De acuerdo con este \u00faltimo autor, durante el Terciario, la tierra firme se extend\u00eda desde el sureste de M\u00e9xico hasta Norteam\u00e9rica, lo que facilit\u00f3 que especies de clima templado o fr\u00edo como Abies, Picea, Pinus, Ilex, Alnus, Quercus, Liquidambar y Ulmus, entre otras, pudieran sobrevivir al enfriarse el clima.\n",
    [
      {
        "text": "Liquidambar",
        "type": "Nombre_cientifico",
        "offset": [
          233,
          244
        ]
      },
      {
        "text": "Ulmus",
        "type": "Nombre_cientifico",
        "offset": [
          247,
          252
        ]
      },
      {
        "text": "Picea",
        "type": "Nombre_cientifico",
        "offset": [
          197,
          202
        ]
      },
      {
        "text": "Ilex",
        "type": "Nombre_cientifico",
        "offset": [
          211,
          215
        ]
      },
      {
        "text": "Alnus",
        "type": "Nombre_cientifico",
        "offset": [
          217,
          222
        ]
      },
      {
        "text": "Quercus",
        "type": "Nombre_cientifico",
        "offset": [
          224,
          231
        ]
      },
      {
        "text": "Abies",
        "type": "Nombre_cientifico",
        "offset": [
          190,
          195
        ]
      },
      {
        "text": "Pinus",
        "type": "Nombre_cientifico",
        "offset": [
          204,
          209
        ]
      }
    ]
  ],
  [
    9,
    "Los bosques de Abies del estado de Veracruz se encuentran en el Cofre de Perote (Narave, 1985; S\u00e1nchez-Vel\u00e1squez et al., 1991), el Pico de Orizaba, la sierra de Acultzingo (\u00c1vila-Bello et al., 1994; \u00c1vila-Bello y L\u00f3pez-Mata, 2001) y peque\u00f1os manchones en Huayacocotla (Dom\u00ednguez, 1986), entre los 2 400 a 3 600 msnm; en las tres primeras \u00e1reas se encuentran de manera simp\u00e1trica, es decir, comparten la misma \u00e1rea, Abies hickelii y A. religiosa, en el \u00faltimo, Abies vejari forma parte de bosques dominados por Pinus pseudostrobus y Pseudotsuga menziesii (Dom\u00ednguez, 1986).\n",
    [
      {
        "text": "Abies",
        "type": "Nombre_cientifico",
        "offset": [
          15,
          20
        ]
      },
      {
        "text": "Abies hickelii",
        "type": "Nombre_cientifico",
        "offset": [
          415,
          429
        ]
      },
      {
        "text": "A. religiosa",
        "type": "Nombre_cientifico",
        "offset": [
          432,
          444
        ]
      },
      {
        "text": "Abies vejari",
        "type": "Nombre_cientifico",
        "offset": [
          460,
          472
        ]
      },
      {
        "text": "Pseudotsuga menziesii",
        "type": "Nombre_cientifico",
        "offset": [
          532,
          553
        ]
      },
      {
        "text": "Pinus pseudostrobus",
        "type": "Nombre_cientifico",
        "offset": [
          510,
          529
        ]
      }
    ]
  ],
  [
    10,
    "Como se mencion\u00f3 anteriormente, la distribuci\u00f3n de A. hickelii est\u00e1 restringida a los estados de Chiapas, Veracruz y Oaxaca; Farjon (1990), menciona su presencia en Guerrero, pero los estudios gen\u00e9ticos de Eguiarte y Furnier (1997) y de \u00c1vila-Bello y L\u00f3pez-Mata (2001), confirmaron que s\u00f3lo se encuentra en los tres primeros estados.\n",
    [
      {
        "text": "A. hickelii",
        "type": "Nombre_cientifico",
        "offset": [
          51,
          62
        ]
      }
    ]
  ],
  [
    11,
    "\n",
    []
  ],
  [
    12,
    "GEOLOG\u00cdA Y FISIOGRAF\u00cdA \n",
    []
  ],
  [
    13,
    "\n",
    []
  ],
  [
    14,
    "El Pico de Orizaba y el Cofre de Perote forman parte del eje neovolc\u00e1nico y convergen con la Sierra Madre Oriental; las formaciones geol\u00f3gicas de ambas \u00e1reas datan del Cret\u00e1cico hasta el Cuaternario, son volcanes estratificados de andesitas de anf\u00ed- bola con augita, obsidiana negra y basalto (Johnson, 1970; Yarza, 1992).\n",
    []
  ],
  [
    15,
    "Los lugares donde actualmente vegetan los bosques de Abies de Veracruz son normalmente muy accidentados, en el Pico de Orizaba y Acultzingo, por ejemplo, las pendientes donde se encuentran var\u00edan entre 46 a 75\u00ba; en Perote las pendientes fluct\u00faan entre 20 a 65\u00ba (figura 1).\n",
    []
  ],
  [
    16,
    "En los tres casos, la existencia de estos bosques se ha confinado a esos lugares debido a cambios en el uso del suelo, especialmente para establecer cultivos de papa y haba.\n",
    []
  ],
  [
    17,
    "En el estado, los bosques de oyamel se distribuyen normalmente en exposiciones N, NE y NO, aunque se pueden observar en exposiciones SE y SO en la sierra de Acultzingo y Perote.\n",
    []
  ],
  [
    18,
    "\n",
    []
  ],
  [
    19,
    "CLIMA \n",
    []
  ],
  [
    20,
    "\n",
    []
  ],
  [
    21,
    "El clima de estos bosques var\u00eda de templado subh\u00fa- medo a semifr\u00edo, con r\u00e9gimen de lluvias de verano, este \u00faltimo es fresco, largo e isotermal, con variaci\u00f3n anual de la temperatura tipo Ganges (Garc\u00eda, 1970; Garc\u00eda, 1988; Soto, com. pers.).\n",
    []
  ],
  [
    22,
    "La precipitaci\u00f3n total es de 1 698 mm anuales.\n",
    []
  ],
  [
    23,
    "La temperatura media es de 9.3 \u00baC y los extremos van de 17 \u00baC en mayo a 1.5 \u00baC en febrero.\n",
    []
  ],
  [
    24,
    "Se registran en promedio 238 d\u00edas nublados y 146 con neblina durante el a\u00f1o.\n",
    []
  ],
  [
    25,
    "En la figura 2 pueden observarse las caracter\u00edsticas generales del clima donde se encuentran los bosques de Abies de Veracruz, se observa claramente que a lo largo del a\u00f1o no existe d\u00e9ficit de humedad, marzo es el mes m\u00e1s seco y se presenta una peque\u00f1a can\u00edcula en agosto; septiembre es el mes m\u00e1s h\u00famedo.\n",
    []
  ],
  [
    26,
    "Lo anterior est\u00e1 ligado seguramente a fen\u00f3menos clim\u00e1ticos como los nortes, \u00e9stos tienen un efecto importante en la distribuci\u00f3n de Abies hickelii en Veracruz, ya que crean condiciones de mayor humedad; la temperatura baja a menos de 10 \u00baC, especialmente entre los meses de noviembre a marzo; la lluvia parece ser un factor fundamental, ya que normalmente en los bosques de A. religiosa llueve entre 1 082 a 1 286 mm anuales (Madrigal-S\u00e1nchez, 1967; \u00c1lvarez del C., 1987), mientras que en los bosques de A. hickelii esta cantidad se encuentra cerca de los 1 700 mm.\n",
    [
      {
        "text": "Abies hickelii",
        "type": "Nombre_cientifico",
        "offset": [
          132,
          146
        ]
      },
      {
        "text": "A. religiosa",
        "type": "Nombre_cientifico",
        "offset": [
          374,
          386
        ]
      },
      {
        "text": "A. hickelii",
        "type": "Nombre_cientifico",
        "offset": [
          504,
          515
        ]
      }
    ]
  ],
  [
    27,
    "Del mismo modo, la temperatura media fluct\u00faa de manera importante, en los bosques de A. religiosa va de los 10.5 a los 13 \u00baC, mientras que en los de A. hickelii es de 9.4 \u00baC.\n",
    [
      {
        "text": "A. hickelii",
        "type": "Nombre_cientifico",
        "offset": [
          149,
          160
        ]
      },
      {
        "text": "A. religiosa",
        "type": "Nombre_cientifico",
        "offset": [
          85,
          97
        ]
      }
    ]
  ],
  [
    28,
    "La m\u00e1xima extrema en los bosques de A. religiosa puede llegar a 30 \u00baC, mientras que en los de A. hickelii es de 27 \u00baC; la m\u00ednima extrema que encontr\u00f3 Madrigal-S\u00e1nchez (1967) fue de -11 \u00baC, en el caso de los bosques de A. hickelii es de 1.5 \u00baC.\n",
    [
      {
        "text": "A. hickelii",
        "type": "Nombre_cientifico",
        "offset": [
          94,
          105
        ]
      },
      {
        "text": "A. religiosa",
        "type": "Nombre_cientifico",
        "offset": [
          36,
          48
        ]
      },
      {
        "text": "A. hickelii",
        "type": "Nombre_cientifico",
        "offset": [
          218,
          229
        ]
      }
    ]
  ],
  [
    29,
    "La diferencia entre d\u00edas nublados en uno y otro tipo de bosque tambi\u00e9n es considerable, ya que mientras en los de A. religiosa se presentan 200 d\u00edas, en los de A. hickelii son 38 d\u00edas m\u00e1s; los d\u00edas con neblinas contabilizan 146 en total en los bosques de oyamel de Veracruz, mientras que en los de A. religiosa son s\u00f3lo 55.\n",
    [
      {
        "text": "A. hickelii",
        "type": "Nombre_cientifico",
        "offset": [
          160,
          171
        ]
      },
      {
        "text": "A. religiosa",
        "type": "Nombre_cientifico",
        "offset": [
          298,
          310
        ]
      },
      {
        "text": "A. religiosa",
        "type": "Nombre_cientifico",
        "offset": [
          114,
          126
        ]
      }
    ]
  ],
  [
    30,
    "De acuerdo con lo anterior, se puede concluir que estas condiciones son las que han propiciado la existencia de los bosques de A. hickelii en Veracruz, adicionalmente, estas caracter\u00edsticas permiten que los bosques de Abies, a diferencia de otros localizados a mayor latitud, pr\u00e1cticamente no interrumpan su crecimiento y desarrollo (Rzedowski, 1978).\n",
    [
      {
        "text": "A. hickelii",
        "type": "Nombre_cientifico",
        "offset": [
          127,
          138
        ]
      },
      {
        "text": "Abies",
        "type": "Nombre_cientifico",
        "offset": [
          218,
          223
        ]
      }
    ]
  ],
  [
    31,
    "Es importante se\u00f1alar, sin embargo, que debido al calentamiento global y el efecto de \u00e9ste sobre el clima, el glaciar del r\u00edo Jamapa puede desaparecer en unos 20 a\u00f1os (Palacios y V\u00e1zquez, 1996).\n",
    []
  ],
  [
    32,
    "\n",
    []
  ],
  [
    33,
    "SUELOS \n",
    []
  ],
  [
    34,
    "\n",
    []
  ],
  [
    35,
    "Los suelos en donde se desarrollan los bosques de oyamel del estado son andosoles, de origen volc\u00e1nico.\n",
    []
  ],
  [
    36,
    "En el Pico de Orizaba presentan textura miga- josa, con tres horizontes; su contenido de materia org\u00e1nica var\u00eda entre 0.11 a 0.72 %; el valor m\u00e1ximo de la relaci\u00f3n C/N es de 16.81 en el horizonte I (los primeros 20 cm de profundidad); el pH es ligeramente \u00e1cido, entre 4.8 y 6.7, levemente m\u00e1s \u00e1cido que aquellos ocupados por A. religiosa (Madrigal- S\u00e1nchez, 1967).\n",
    [
      {
        "text": "A. religiosa",
        "type": "Nombre_cientifico",
        "offset": [
          326,
          338
        ]
      }
    ]
  ],
  [
    37,
    "A pesar de ser muy f\u00e9rtiles, estos suelos son muy susceptibles a la erosi\u00f3n.\n",
    []
  ],
  [
    38,
    "\n",
    []
  ],
  [
    39,
    "ESTRUCTURA \n",
    []
  ],
  [
    40,
    "\n",
    []
  ],
  [
    41,
    "El bosque de oyamel presenta cuatro estratos, el herb\u00e1ceo, arbustivo, arb\u00f3reo inferior y arb\u00f3reo superior (figura 3).\n",
    []
  ],
  [
    42,
    "En su \u00e1rea de distribuci\u00f3n forma tres asociaciones vegetales a lo largo del gradiente altitudinal que cubre, entre los 2 700 a los 2 900 msnm, con Pinus ayacahuite, P. patula, Alnus jorullensis y varias especies de encinos como Quercus laurina, Q. crassifolia, Q. dysophylla, Q. glabrescens, Q. greggii y Q. aff. tristis, Salix oxylepis y ocasionalmente S. paradoxa.\n",
    [
      {
        "text": "P. patula",
        "type": "Nombre_cientifico",
        "offset": [
          165,
          174
        ]
      },
      {
        "text": "Alnus jorullensis",
        "type": "Nombre_cientifico",
        "offset": [
          176,
          193
        ]
      },
      {
        "text": "Pinus ayacahuite",
        "type": "Nombre_cientifico",
        "offset": [
          147,
          163
        ]
      },
      {
        "text": "Q. glabrescens",
        "type": "Nombre_cientifico",
        "offset": [
          276,
          290
        ]
      },
      {
        "text": "Q. dysophylla",
        "type": "Nombre_cientifico",
        "offset": [
          261,
          274
        ]
      },
      {
        "text": "Q. crassifolia",
        "type": "Nombre_cientifico",
        "offset": [
          245,
          259
        ]
      },
      {
        "text": "Quercus laurina",
        "type": "Nombre_cientifico",
        "offset": [
          228,
          243
        ]
      },
      {
        "text": "S. paradoxa",
        "type": "Nombre_cientifico",
        "offset": [
          354,
          365
        ]
      },
      {
        "text": "Salix oxylepis",
        "type": "Nombre_cientifico",
        "offset": [
          322,
          336
        ]
      },
      {
        "text": "Q. aff. tristis",
        "type": "Nombre_cientifico",
        "offset": [
          305,
          320
        ]
      },
      {
        "text": "Q. greggii",
        "type": "Nombre_cientifico",
        "offset": [
          292,
          302
        ]
      }
    ]
  ],
  [
    43,
    "De acuerdo con \u00c1vila-Bello y L\u00f3pez-Mata (2001), en esta fisonom\u00eda A. hickelii y P. ayacahuite representan en conjunto el 59 % del valor de importancia (v. i.) de la comunidad y presentan, asimismo, los mayores valores de \u00e1rea basal, junto con P. patula y Alnus jorullensis; hacia los 2 900 a 3 200 msnm el bosque est\u00e1 conformado por A. hickelii, A. religiosa, P. pseudostrobus, P. ayacahuite, S. oxylepis, P. patula y, espor\u00e1dicamente, Sambucus mexicana, zona dominada por las dos especies de oyamel, ya que representan en conjunto el 60 % del v. i. en la comunidad.\n",
    [
      {
        "text": "P. ayacahuite",
        "type": "Nombre_cientifico",
        "offset": [
          80,
          93
        ]
      },
      {
        "text": "A. hickelii",
        "type": "Nombre_cientifico",
        "offset": [
          66,
          77
        ]
      },
      {
        "text": "Sambucus mexicana",
        "type": "Nombre_cientifico",
        "offset": [
          436,
          453
        ]
      },
      {
        "text": "P. patula",
        "type": "Nombre_cientifico",
        "offset": [
          243,
          252
        ]
      },
      {
        "text": "Alnus jorullensis",
        "type": "Nombre_cientifico",
        "offset": [
          255,
          272
        ]
      },
      {
        "text": "A. hickelii",
        "type": "Nombre_cientifico",
        "offset": [
          333,
          344
        ]
      },
      {
        "text": "A. religiosa",
        "type": "Nombre_cientifico",
        "offset": [
          346,
          358
        ]
      },
      {
        "text": "P. pseudostrobus",
        "type": "Nombre_cientifico",
        "offset": [
          360,
          376
        ]
      },
      {
        "text": "P. ayacahuite",
        "type": "Nombre_cientifico",
        "offset": [
          378,
          391
        ]
      },
      {
        "text": "S. oxylepis",
        "type": "Nombre_cientifico",
        "offset": [
          393,
          404
        ]
      },
      {
        "text": "P. patula",
        "type": "Nombre_cientifico",
        "offset": [
          406,
          415
        ]
      }
    ]
  ],
  [
    44,
    "Por otro lado, A. religiosa, P. pseudostrobus, P. patula y S. oxylepis presentan los mayores valores de \u00e1rea basal; de los 3 200 a 3 600 m de altitud el bosque est\u00e1 conformado por A. hickelii, P. pseudostrobus, Arbutus xalapensis, Alnus firmifolia y Quercus sp.\n",
    [
      {
        "text": "A. religiosa",
        "type": "Nombre_cientifico",
        "offset": [
          15,
          27
        ]
      },
      {
        "text": "Arbutus xalapensis",
        "type": "Nombre_cientifico",
        "offset": [
          211,
          229
        ]
      },
      {
        "text": "P. pseudostrobus",
        "type": "Nombre_cientifico",
        "offset": [
          193,
          209
        ]
      },
      {
        "text": "Quercus sp",
        "type": "Nombre_cientifico",
        "offset": [
          250,
          260
        ]
      },
      {
        "text": "Alnus firmifolia",
        "type": "Nombre_cientifico",
        "offset": [
          231,
          247
        ]
      },
      {
        "text": "P. patula",
        "type": "Nombre_cientifico",
        "offset": [
          47,
          56
        ]
      },
      {
        "text": "P. pseudostrobus",
        "type": "Nombre_cientifico",
        "offset": [
          29,
          45
        ]
      },
      {
        "text": "A. hickelii",
        "type": "Nombre_cientifico",
        "offset": [
          180,
          191
        ]
      },
      {
        "text": "S. oxylepis",
        "type": "Nombre_cientifico",
        "offset": [
          59,
          70
        ]
      }
    ]
  ],
  [
    45,
    "Las dos primeras junto con la \u00faltima representan el 70 % del v. i. en la comunidad, en esta fisonom\u00eda las especies con mayor \u00e1rea basal fueron Quercus spp., A. religiosa y Arbutus xalapensis.\n",
    [
      {
        "text": "Arbutus xalapensis",
        "type": "Nombre_cientifico",
        "offset": [
          172,
          190
        ]
      },
      {
        "text": "A. religiosa",
        "type": "Nombre_cientifico",
        "offset": [
          157,
          169
        ]
      },
      {
        "text": "Quercus spp",
        "type": "Nombre_cientifico",
        "offset": [
          143,
          154
        ]
      }
    ]
  ],
  [
    46,
    "La altura m\u00e1xima registrada para este tipo de \u00e1rboles fue de 50 m, la ausencia de \u00e1rboles de este tipo en otras \u00e1reas de la zona de distribuci\u00f3n de la especie se debe seguramente a su extracci\u00f3n.\n",
    []
  ],
  [
    47,
    "De acuerdo con el \u00edndice de McNaugthon,1 las especies que dominan este tipo de comunidades son A. hickelii-P. pseudos- trobus y A. hickelii-P. ayacahuite, ya que presentan altos valores de asociaci\u00f3n (\u00c1vila-Bello y L\u00f3pez- Mata, 2001).\n",
    [
      {
        "text": "P. pseudos- trobus",
        "type": "Nombre_cientifico",
        "offset": [
          107,
          125
        ]
      },
      {
        "text": "A. hickelii",
        "type": "Nombre_cientifico",
        "offset": [
          128,
          139
        ]
      },
      {
        "text": "A. hickelii",
        "type": "Nombre_cientifico",
        "offset": [
          95,
          106
        ]
      },
      {
        "text": "P. ayacahuite",
        "type": "Nombre_cientifico",
        "offset": [
          140,
          153
        ]
      }
    ]
  ],
  [
    48,
    "Algunos datos que pueden resultar de importan- cia para el manejo de estos bosques son los que se obtuvieron en los estudios de S\u00e1nchez-Vel\u00e1squez et al. (1991) y \u00c1vila-Bello et al. (1994).\n",
    []
  ],
  [
    49,
    "En ellos se indica que Abies religiosa y A. hickelii responden de mejor manera a algunas variables ambientales entre las que se encuentran la altitud, la temperatura m\u00e1xima absoluta, el contenido de nitr\u00f3geno del pri- mero y segundo horizontes, la profundidad del pri- mero y segundo horizontes del suelo, as\u00ed como el pH del primer horizonte y la pendiente.\n",
    []
  ],
  [
    50,
    "\n",
    []
  ],
  [
    51,
    "COMPOSICI\u00d3N FLOR\u00cdSTICA \n",
    []
  ],
  [
    52,
    "\n",
    []
  ],
  [
    53,
    "Por otra parte, las condiciones de alta humedad, alto contenido de materia org\u00e1nica en los suelos, as\u00ed como poca insolaci\u00f3n y apertura de claros en algu- nas \u00e1reas, han favorecido la presencia de un soto- bosque rico y diversificado.\n",
    []
  ],
  [
    54,
    "En los bosques de oyamel del estado se encuentra un total de 126 especies diferentes pertenecientes a 40 familias (cua- dro 1) (Narave, 1985; Dom\u00ednguez, 1986; \u00c1vila- Bello et al., 1994; V\u00e1zquez, s/f), las familias mejor representadas son: Asteraceae, Rosaceae, Pinaceae, Fagaceae y Ericaceae.\n",
    []
  ],
  [
    55,
    "Todas las \u00e1reas donde se dis- tribuye este tipo de bosques comparten pr\u00e1ctica- mente todos los elementos arb\u00f3reos mencionados, con excepci\u00f3n de Pinus patula que no se observ\u00f3 en las cumbres de Acultzingo.\n",
    [
      {
        "text": "Pinus patula",
        "type": "Nombre_cientifico",
        "offset": [
          144,
          156
        ]
      }
    ]
  ],
  [
    56,
    "En este sentido, las comunidades de Abies son aparentemente muy homog\u00e9neas, varios de los ele- mentos que se observan en toda el \u00e1rea de distribu- ci\u00f3n del bosque de oyamel de Veracruz, se encuen- tren tambi\u00e9n en los bosques de A. guatemalensis como Rubus trilobus, Senecio callosus, Fuchsia microphylla, Castilleja, Salvia y Pinus ayacahuite (Islebe et al., 1995).\n",
    [
      {
        "text": "A. guatemalensis",
        "type": "Nombre_cientifico",
        "offset": [
          228,
          244
        ]
      },
      {
        "text": "Rubus trilobus",
        "type": "Nombre_cientifico",
        "offset": [
          250,
          264
        ]
      },
      {
        "text": "Senecio callosus",
        "type": "Nombre_cientifico",
        "offset": [
          266,
          282
        ]
      },
      {
        "text": "Fuchsia microphylla",
        "type": "Nombre_cientifico",
        "offset": [
          284,
          303
        ]
      },
      {
        "text": "Pinus ayacahuite",
        "type": "Nombre_cientifico",
        "offset": [
          326,
          342
        ]
      },
      {
        "text": "Salvia",
        "type": "Nombre_comun",
        "offset": [
          317,
          323
        ]
      },
      {
        "text": "Castilleja",
        "type": "Nombre_comun",
        "offset": [
          305,
          315
        ]
      }
    ]
  ],
  [
    57,
    "Del mismo modo, llama la atenci\u00f3n que, a pesar de que el Pico de Orizaba se considera una zona m\u00e1s o menos conocida y explo- rada, hace algunos a\u00f1os se encontr\u00f3 una nueva espe- cie para la regi\u00f3n, Oritrophium orizabense Nesom, cuya distribuci\u00f3n m\u00e1s norte\u00f1a se encontraba en Venezuela (Nesom, 1992).\n",
    []
  ],
  [
    58,
    "\n",
    []
  ],
  [
    59,
    "ESTADO DE CONSERVACI\u00d3N \n",
    []
  ],
  [
    60,
    "\n",
    []
  ],
  [
    61,
    "Es importante destacar que A. hickelii est\u00e1 catalo- gada en la Norma Ecol\u00f3gica Mexicana 059 como en peligro de extinci\u00f3n (Semarnat, 2002).\n",
    [
      {
        "text": "A. hickelii",
        "type": "Nombre_cientifico",
        "offset": [
          27,
          38
        ]
      }
    ]
  ],
  [
    62,
    "Los bosques que forman estas especies son de gran importancia ecol\u00f3gica, ya que protegen las cuencas de lo r\u00edos Jamapa, Blanco, Jalcomulco, La Antigua, Actopan y Bobos, con ello se asegura el abastecimiento de agua a diferentes ciudades del centro del estado como C\u00f3rdoba, Fort\u00edn, Jalapa, Orizaba y Perote; adem\u00e1s, evitan la p\u00e9rdida de suelo por erosi\u00f3n, aseguran la infiltraci\u00f3n del agua, contribuyen a la preservaci\u00f3n de los ciclos biogeoqu\u00edmicos, a disminuir el calenta- miento global, evitan el asolvamiento de r\u00edos, pre- sas, lagos y son \u00e1reas de majestuosa belleza esc\u00e9nica (figuras 4, 5 y 6).\n",
    []
  ],
  [
    63,
    "Sin embargo, estas comunidades se encuentran sometidas a fuerte presi\u00f3n antrop\u00f3- gena, ya que de ellos se extraen madera para diferen- tes prop\u00f3sitos; adem\u00e1s son usados como \u00e1reas de apacentamiento para hatos mixtos de ganado ovino, caprino y bovino, as\u00ed como para la extracci\u00f3n de plantas alimenticias, ornamentales, medicinales y ocasionalmente la cacer\u00eda (\u00c1vila-Bello, 1996; Jarvis et al., 2004).\n",
    [
      {
        "text": "se extraen madera para diferen- tes prop\u00f3sitos; adem\u00e1s son usados como \u00e1reas de apacentamiento para hatos mixtos de ganado ovino, caprino y bovino, as\u00ed como para la extracci\u00f3n de plantas alimenticias, ornamentales, medicinales y ocasionalmente la cacer\u00eda",
        "type": "Uso",
        "offset": [
          103,
          357
        ]
      }
    ]
  ],
  [
    64,
    "Estos bosques cubren un \u00e1rea aproxi- mada de 1 507 hect\u00e1reas, 362 en el Pico de Orizaba (\u00c1vila-Bello y L\u00f3pez-Mata, 2001) y 1 145 en el Cofre de Perote (S\u00e1nchez-Vel\u00e1squez et al., 1991), faltan por cuantificar aquellos rodales localizados en la sierra de Acultzingo y los correspondientes a Huayacocotla.\n",
    []
  ],
  [
    65,
    "\n",
    []
  ],
  [
    66,
    "DEMOGRAF\u00cdA \n",
    []
  ],
  [
    67,
    "\n",
    []
  ],
  [
    68,
    "No existen estudios detallados acerca de la demo- graf\u00eda de las especies de Abies localizadas en Veracruz, algunos datos sin publicar muestran que en el Parque Nacional Pico de Orizaba A. hickelii se encuentra en peligro de extinci\u00f3n, ya que la capaci- dad de crecimiento de la poblaci\u00f3n no llega al equilibrio, es decir, mueren m\u00e1s individuos de los que nacen (\u00c1vila-Bello et al., en prep.).\n",
    [
      {
        "text": "A. hickelii",
        "type": "Nombre_cientifico",
        "offset": [
          185,
          196
        ]
      }
    ]
  ],
  [
    69,
    "El ciclo biol\u00f3- gico de esta especie puede dividirse en siete estadios, la densidad, como es normal en especies longevas, disminuye al aumentar la edad o el tama\u00f1o, de tal manera que las pl\u00e1ntulas y juveniles se presentan en mayor n\u00famero que los adultos.\n",
    []
  ],
  [
    70,
    "El estadio que requiere mayor atenci\u00f3n para asegurar la permanen- cia de la especie es el de juveniles pre-reproductivos, es decir, aquellos \u00e1rboles que entrar\u00e1n a la etapa de adultos; el problema principal en algunas \u00e1reas del Pico de Orizaba es la nula incorporaci\u00f3n de juveni- les pre-reproductivos al estadio de adultos, si se logra esto \u00faltimo, \u03b3 puede aumentar a 1.01 o en caso de no cosechar \u00e1rboles hasta 1.29, lo cual representa, desde el punto de vista biol\u00f3gico, una tasa de crecimiento excepcional en \u00e1rboles.\n",
    []
  ],
  [
    71,
    "\n",
    []
  ],
  [
    72,
    "IMPORTANCIA ECON\u00d3MICA, AMENAZAS Y POSIBILIDADES DE CONSERVACI\u00d3N Y USO SUSTENTABLE \n",
    []
  ],
  [
    73,
    "\n",
    []
  ],
  [
    74,
    "Los usos a los que se someten los bosques de oyamel en su \u00e1rea de distribuci\u00f3n son variados y se llevan a cabo gracias a la riqueza que presentan los suelos de tipo andosol (profundos, con alta cantidad de materia org\u00e1nica y h\u00famedos), pero tambi\u00e9n a la riqueza flor\u00edstica producto de la apertura de claros en el dosel superior del bosque.\n",
    []
  ],
  [
    75,
    "\n",
    []
  ],
  [
    76,
    "Agricultura \n",
    []
  ],
  [
    77,
    "\n",
    []
  ],
  [
    78,
    "El cultivo comercial m\u00e1s importante que se practica en el \u00e1rea de distribuci\u00f3n de los bosques de oyamel es la papa (Solanum tuberosum L.), en el Pico de Orizaba este cultivo se lleva a cabo desde hace m\u00e1s de un siglo en lugares cuya altitud va de los 2 800 a los 3 200 m y est\u00e1 sujeto a la oferta y la demanda (figura 7); todas las pr\u00e1cticas agr\u00edcolas se llevan a cabo con trac- ci\u00f3n animal, palas rectas y azadones.\n",
    [
      {
        "arg2_text": "Solanum tuberosum L.",
        "arg1_offset": [
          110,
          114
        ],
        "arg2_line": 78,
        "arg2_offset": [
          116,
          136
        ],
        "arg1_text": "papa",
        "type": "alias",
        "arg1_line": 78
      },
      {
        "text": "Solanum tuberosum L.",
        "type": "Nombre_cientifico",
        "offset": [
          116,
          136
        ]
      },
      {
        "text": "papa",
        "type": "Nombre_comun",
        "offset": [
          110,
          114
        ]
      }
    ]
  ],
  [
    79,
    "En general se encuentran dos \u00e1reas dedicadas al cultivo, en las partes bajas se cultiva la papa para venta y en las m\u00e1s altas aquella que se destinar\u00e1 a la obtenci\u00f3n de semilla para el siguiente ciclo.\n",
    [
      {
        "text": "papa",
        "type": "Nombre_comun",
        "offset": [
          91,
          95
        ]
      }
    ]
  ],
  [
    80,
    "La papa se cosecha entre agosto y septiembre con la ayuda de azadones para jalar y de tipo rastrillo; aquellas papas para semilla se cosechan entre noviembre y diciembre.\n",
    []
  ],
  [
    81,
    "Despu\u00e9s de la cosecha, los terrenos se someten a rotaci\u00f3n simple, es decir, se deja un periodo de descanso corto seguido del cultivo de cebada o avena forrajera.\n",
    []
  ],
  [
    82,
    "Algunos productores con- servan dentro de estas \u00e1reas \u00e1rboles de P. pseudostro- bus, P. patula y A. hickelii, los cuales son sometidos a podas constantes para permitir el paso de luz, esto posibilita en algunos casos un buen desarrollo del \u00e1rbol, sin embargo, en otros las podas son tan severas que afectan su desarrollo volum\u00e9trico; del mismo modo, merece menci\u00f3n la pr\u00e1ctica de conservar \u00e1rbo- les siguiendo emp\u00edricamente la curva natural del terreno (\u00c1vila-Bello, 1996). \n",
    [
      {
        "text": "P. pseudostro- bus",
        "type": "Nombre_cientifico",
        "offset": [
          65,
          83
        ]
      },
      {
        "text": "P. patula",
        "type": "Nombre_cientifico",
        "offset": [
          85,
          94
        ]
      },
      {
        "text": "A. hickelii",
        "type": "Nombre_cientifico",
        "offset": [
          97,
          108
        ]
      }
    ]
  ],
  [
    83,
    "\n",
    []
  ],
  [
    84,
    "Aprovechamientos forestales \n",
    []
  ],
  [
    85,
    "\n",
    []
  ],
  [
    86,
    "El bosque proporciona diferentes productos, con valor de uso y valor de cambio, aunque en \u00e9ste \u00faltimo caso los campesinos siguen enfrentando pro- blemas importantes como precios bajos, corrup- ci\u00f3n, dificultad de acceso a las zonas de aprovechamiento, desorganizaci\u00f3n y minifun- dismo.\n",
    []
  ],
  [
    87,
    "Tanto del oyamel negro (A. religiosa) como del oyamel blanco (A. hickelii) se obtienen vigas, tablones, ocasionalmente tejamanil, morillos, cinta y tapajunta, cuya vida \u00fatil va de 10 a 15 a\u00f1os.\n",
    [
      {
        "arg2_text": "A. religiosa",
        "arg1_offset": [
          10,
          22
        ],
        "arg2_line": 87,
        "arg2_offset": [
          24,
          36
        ],
        "arg1_text": "oyamel negro",
        "type": "alias",
        "arg1_line": 87
      },
      {
        "arg2_text": "A. hickelii",
        "arg1_offset": [
          47,
          60
        ],
        "arg2_line": 87,
        "arg2_offset": [
          62,
          73
        ],
        "arg1_text": "oyamel blanco",
        "type": "alias",
        "arg1_line": 87
      },
      {
        "arg2_text": "se obtienen vigas, tablones, ocasionalmente tejamanil, morillos, cinta y tapajunta",
        "arg1_offset": [
          24,
          36
        ],
        "arg2_line": 87,
        "arg2_offset": [
          75,
          157
        ],
        "arg1_text": "A. religiosa",
        "type": "se_usa",
        "arg1_line": 87
      },
      {
        "arg2_text": "se obtienen vigas, tablones, ocasionalmente tejamanil, morillos, cinta y tapajunta",
        "arg1_offset": [
          62,
          73
        ],
        "arg2_line": 87,
        "arg2_offset": [
          75,
          157
        ],
        "arg1_text": "A. hickelii",
        "type": "se_usa",
        "arg1_line": 87
      },
      {
        "text": "oyamel blanco",
        "type": "Nombre_comun",
        "offset": [
          47,
          60
        ]
      },
      {
        "text": "A. hickelii",
        "type": "Nombre_cientifico",
        "offset": [
          62,
          73
        ]
      },
      {
        "text": "se obtienen vigas, tablones, ocasionalmente tejamanil, morillos, cinta y tapajunta",
        "type": "Uso",
        "offset": [
          75,
          157
        ]
      },
      {
        "text": "oyamel negro",
        "type": "Nombre_comun",
        "offset": [
          10,
          22
        ]
      },
      {
        "text": "A. religiosa",
        "type": "Nombre_cientifico",
        "offset": [
          24,
          36
        ]
      }
    ]
  ],
  [
    88,
    "De P. ayacahuite se obtienen horcones y tablones, cuya vida \u00fatil puede llegar a 30 a\u00f1os (\u00c1vila-Bello, 1996) (figura 8).\n",
    [
      {
        "arg2_text": "se obtienen horcones y tablones",
        "arg1_offset": [
          3,
          16
        ],
        "arg2_line": 88,
        "arg2_offset": [
          17,
          48
        ],
        "arg1_text": "P. ayacahuite",
        "type": "se_usa",
        "arg1_line": 88
      },
      {
        "text": "se obtienen horcones y tablones",
        "type": "Uso",
        "offset": [
          17,
          48
        ]
      },
      {
        "text": "P. ayacahuite",
        "type": "Nombre_cientifico",
        "offset": [
          3,
          16
        ]
      }
    ]
  ],
  [
    89,
    "La le\u00f1a es uno de los productos m\u00e1s importantes derivados de estos bosques, el consumo de una familia de seis miembros es de alrededor de un millar de kg al a\u00f1o, aunque se debe mencionar que es raro el derribo de \u00e1rboles completos para este prop\u00f3sito ya que buena parte del consumo de este producto se lleva a cabo recogiendo los restos de ramas y \u00e1rboles muertos (\u00c1vila-Bello, 1996).\n",
    [
      {
        "text": "le\u00f1a es uno de los productos m\u00e1s importantes",
        "type": "Uso",
        "offset": [
          3,
          47
        ]
      }
    ]
  ],
  [
    90,
    "De otras especies componentes del bosque de oyamel como Quercus spp., Salix oxylepis, S. paradoxa y Alnus firmifolia se obtienen cabos para herramien- tas, juguetes y condimentos como el laurel (Litsea aff. glauscesens); otras plantas como el chicamole (Microsechium helleri) proporcionan jab\u00f3n, ya que aparentemente la ra\u00edz produce saponinas.\n",
    [
      {
        "arg2_text": "se obtienen cabos para herramien- tas, juguetes",
        "arg1_offset": [
          70,
          84
        ],
        "arg2_line": 90,
        "arg2_offset": [
          117,
          164
        ],
        "arg1_text": "Salix oxylepis",
        "type": "se_usa",
        "arg1_line": 90
      },
      {
        "arg2_text": "se obtienen cabos para herramien- tas, juguetes",
        "arg1_offset": [
          56,
          68
        ],
        "arg2_line": 90,
        "arg2_offset": [
          117,
          164
        ],
        "arg1_text": "Quercus spp.",
        "type": "se_usa",
        "arg1_line": 90
      },
      {
        "arg2_text": "se obtienen cabos para herramien- tas, juguetes",
        "arg1_offset": [
          100,
          116
        ],
        "arg2_line": 90,
        "arg2_offset": [
          117,
          164
        ],
        "arg1_text": "Alnus firmifolia",
        "type": "se_usa",
        "arg1_line": 90
      },
      {
        "arg2_text": "se obtienen cabos para herramien- tas, juguetes",
        "arg1_offset": [
          86,
          97
        ],
        "arg2_line": 90,
        "arg2_offset": [
          117,
          164
        ],
        "arg1_text": "S. paradoxa",
        "type": "se_usa",
        "arg1_line": 90
      },
      {
        "arg2_text": "Litsea aff. glauscesens",
        "arg1_offset": [
          187,
          193
        ],
        "arg2_line": 90,
        "arg2_offset": [
          195,
          218
        ],
        "arg1_text": "laurel",
        "type": "alias",
        "arg1_line": 90
      },
      {
        "arg2_text": "condimentos",
        "arg1_offset": [
          195,
          218
        ],
        "arg2_line": 90,
        "arg2_offset": [
          167,
          178
        ],
        "arg1_text": "Litsea aff. glauscesens",
        "type": "se_usa",
        "arg1_line": 90
      },
      {
        "arg2_text": "Microsechium helleri",
        "arg1_offset": [
          240,
          252
        ],
        "arg2_line": 90,
        "arg2_offset": [
          254,
          274
        ],
        "arg1_text": "el chicamole",
        "type": "alias",
        "arg1_line": 90
      },
      {
        "arg2_text": "proporcionan jab\u00f3n",
        "arg1_offset": [
          254,
          274
        ],
        "arg2_line": 90,
        "arg2_offset": [
          276,
          294
        ],
        "arg1_text": "Microsechium helleri",
        "type": "se_usa",
        "arg1_line": 90
      },
      {
        "text": "condimentos",
        "type": "Alimentario",
        "offset": [
          167,
          178
        ]
      },
      {
        "text": "Salix oxylepis",
        "type": "Nombre_cientifico",
        "offset": [
          70,
          84
        ]
      },
      {
        "text": "Quercus spp.",
        "type": "Nombre_cientifico",
        "offset": [
          56,
          68
        ]
      },
      {
        "text": "Alnus firmifolia",
        "type": "Nombre_cientifico",
        "offset": [
          100,
          116
        ]
      },
      {
        "text": "S. paradoxa",
        "type": "Nombre_cientifico",
        "offset": [
          86,
          97
        ]
      },
      {
        "text": "el chicamole",
        "type": "Nombre_comun",
        "offset": [
          240,
          252
        ]
      },
      {
        "text": "se obtienen cabos para herramien- tas, juguetes",
        "type": "Uso",
        "offset": [
          117,
          164
        ]
      },
      {
        "text": "proporcionan jab\u00f3n",
        "type": "Domestico",
        "offset": [
          276,
          294
        ]
      },
      {
        "text": "Microsechium helleri",
        "type": "Nombre_cientifico",
        "offset": [
          254,
          274
        ]
      },
      {
        "text": "Litsea aff. glauscesens",
        "type": "Nombre_cientifico",
        "offset": [
          195,
          218
        ]
      },
      {
        "text": "laurel",
        "type": "Nombre_comun",
        "offset": [
          187,
          193
        ]
      }
    ]
  ],
  [
    91,
    "\n",
    []
  ],
  [
    92,
    "Ganader\u00eda \n",
    []
  ],
  [
    93,
    "\n",
    []
  ],
  [
    94,
    "La pr\u00e1ctica de la ganader\u00eda es muy importante para muchos de los productores que habitan las zonas donde se distribuyen los bosques de oyamel en Veracruz.\n",
    []
  ],
  [
    95,
    "En general se manejan hatos mixtos de ganado ovino y caprino, algunos campesinos poseen ganado bovino, que permanece libre en el monte.\n",
    []
  ],
  [
    96,
    "El pastoreo es libre y se lleva a cabo siguiendo un gradiente de distancia, es decir, se ini- cia al salir del corral, muy cerca de la casa habita- ci\u00f3n, y se detiene de vez en vez, de acuerdo con la riqueza que observe el pastor en los estratos herb\u00e1- ceo y arbustivo (figura 9).\n",
    []
  ],
  [
    97,
    "Es muy interesante men- cionar la alta palatabilidad aparente que tiene el mu\u00e9rdago (Phoradendron sp.), esta planta se poda de \u00e1rboles de Alnus sp. o de Pinus spp. y, sin nece- sidad de ofrecerla a los animales, \u00e9stos la aprove- chan de inmediato.\n",
    [
      {
        "arg2_text": "Phoradendron sp.",
        "arg1_offset": [
          75,
          83
        ],
        "arg2_line": 97,
        "arg2_offset": [
          85,
          101
        ],
        "arg1_text": "mu\u00e9rdago",
        "type": "alias",
        "arg1_line": 97
      },
      {
        "text": "Pinus spp",
        "type": "Nombre_cientifico",
        "offset": [
          153,
          162
        ]
      },
      {
        "text": "Phoradendron sp.",
        "type": "Nombre_cientifico",
        "offset": [
          85,
          101
        ]
      },
      {
        "text": "Alnus sp.",
        "type": "Nombre_cientifico",
        "offset": [
          138,
          147
        ]
      },
      {
        "text": "mu\u00e9rdago",
        "type": "Nombre_comun",
        "offset": [
          75,
          83
        ]
      }
    ]
  ],
  [
    98,
    "De acuerdo con Parra (1989), el uso del bosque como \u00e1rea de apacentamiento puede tener varias ventajas, como la utilizaci\u00f3n de plantas en \u00e1reas no aptas para la agricultura; la recolecci\u00f3n de minerales que sirven como abono para el bosque y los cultivos.\n",
    []
  ],
  [
    99,
    "Pueden aportar mate- ria prima para otros productos (prendas de vestir o artesan\u00edas); valorizaci\u00f3n de fuerza de trabajo con pocas opciones de empleo (ancianos, ni\u00f1os y muje- res).\n",
    [
      {
        "text": "aportar mate- ria prima para otros productos (prendas de vestir o artesan\u00edas)",
        "type": "Uso",
        "offset": [
          7,
          84
        ]
      }
    ]
  ],
  [
    100,
    "Esta pr\u00e1ctica tiene un efecto muy importante sobre el suelo y los individuos j\u00f3venes del bosque, por lo que ser\u00e1 fundamental en el futuro llevar a cabo estudios de ecolog\u00eda de agostaderos, especialmente los relacionados con la condici\u00f3n y tenden- cia de estas \u00e1reas de apacentamiento, que contribuyan al uso sustentable de estos bosques. \n",
    []
  ],
  [
    101,
    "\n",
    []
  ],
  [
    102,
    "FAUNA \n",
    []
  ],
  [
    103,
    "\n",
    []
  ],
  [
    104,
    "Finalmente, la fauna silvestre que a\u00fan puede encontrarse en estas zonas constituye una fuente de prote\u00edna y medicina, se aprovechan para tal prop\u00f3sito el zorrillo (Mephitis macroura), como remedio contra erupciones de la piel; ardillas de \u00e1rbol (Sciurus aureogaster) y conejos (Sylvilagus floridanus) (\u00c1vila- Bello, 1996).\n",
    [
      {
        "text": "ardillas de \u00e1rbol",
        "type": "Nombre_comun",
        "offset": [
          227,
          244
        ]
      },
      {
        "text": "Sciurus aureogaster",
        "type": "Nombre_cientifico",
        "offset": [
          246,
          265
        ]
      },
      {
        "text": "zorrillo",
        "type": "Nombre_comun",
        "offset": [
          154,
          162
        ]
      },
      {
        "text": "Mephitis macroura",
        "type": "Nombre_cientifico",
        "offset": [
          164,
          181
        ]
      },
      {
        "text": "conejos",
        "type": "Nombre_comun",
        "offset": [
          269,
          276
        ]
      },
      {
        "text": "Sylvilagus floridanus",
        "type": "Nombre_cientifico",
        "offset": [
          278,
          299
        ]
      }
    ]
  ],
  [
    105,
    "\n",
    []
  ],
  [
    106,
    "CONSERVACI\u00d3N Y USO SUSTENTABLE \n",
    []
  ],
  [
    107,
    "\n",
    []
  ],
  [
    108,
    "Las condiciones bajo las cuales se desarrollan los bosques de oyamel en el estado merecen atenci\u00f3n, ya que estimulan un crecimiento muy vigoroso de la vegetaci\u00f3n, as\u00ed como una alta riqueza de especies que puede observarse a lo largo del gradiente altitudinal que cubren y los diferentes estratos que com- ponen su estructura vertical.\n",
    []
  ],
  [
    109,
    "Las fuertes pendientes y profundas barrancas en las que se distribuyen pue- den hacer muy dif\u00edcil el acceso y la inversi\u00f3n econ\u00f3mica para la extracci\u00f3n de \u00e1rboles.\n",
    []
  ],
  [
    110,
    "La belleza esc\u00e9nica de la zona (figura 10), la distribuci\u00f3n res- tringida de especies como Abies hickelii y Oritrophium orizabense, la primera dominante en las zonas de mayor altitud del Pico de Orizaba y Acultzingo, la segunda end\u00e9mica de M\u00e9xico y restringida a la zona del Pico de Orizaba imponen limitantes para el aprovechamiento forestal, ya que afectar\u00eda el tama\u00f1o de estas poblaciones, su variabilidad gen\u00e9- tica y por lo tanto su existencia.\n",
    [
      {
        "text": "Oritrophium orizabense",
        "type": "Nombre_cientifico",
        "offset": [
          108,
          130
        ]
      },
      {
        "text": "Abies hickelii",
        "type": "Nombre_cientifico",
        "offset": [
          91,
          105
        ]
      }
    ]
  ],
  [
    111,
    "De acuerdo con lo anterior, se deben rescatar las funciones asignadas por decreto presidencial al Par- que Nacional, permitiendo que sea administrado, con la debida capacitaci\u00f3n, por los pobladores del \u00e1rea, esto posibilitar\u00eda adem\u00e1s la preservaci\u00f3n de importantes corrientes fluviales como el r\u00edo Jamapa, que proporciona agua a peque\u00f1os poblados, impor- tantes ciudades e industrias del centro de Veracruz.\n",
    []
  ],
  [
    112,
    "Una opci\u00f3n que no se ha explorado y que puede constituir una posible l\u00ednea de investigaci\u00f3n b\u00e1sica y aplicada es el establecimiento de plantaciones de arbolitos de navidad con base en las poblaciones nativas de Abies hickelii y A. religiosa; esta actividad puede ser una fuente adicional de empleo, obten- ci\u00f3n de recursos econ\u00f3micos para los pobladores, la preservaci\u00f3n de las especies, el h\u00e1bitat y una invita- ci\u00f3n a la exploraci\u00f3n del lugar y el uso de \u00e1rboles nativos en la \u00e9poca navide\u00f1a por parte de las pobla- ciones urbanas cercanas a la zona. \n",
    [
      {
        "text": "A. religiosa",
        "type": "Nombre_cientifico",
        "offset": [
          228,
          240
        ]
      },
      {
        "text": "Abies hickelii",
        "type": "Nombre_cientifico",
        "offset": [
          211,
          225
        ]
      }
    ]
  ],
  [
    113,
    "Algunas actividades como la agricultura deben replan- tearse con base en el uso de sistemas agroforestales en curvas de nivel, pr\u00e1ctica que adem\u00e1s no es ajena a los pobladores de algunas de las \u00e1reas en donde se encuen- tra este tipo de vegetaci\u00f3n; el establecimiento de estos sistemas posibilitar\u00eda adem\u00e1s la obtenci\u00f3n de le\u00f1a, fru- tales y la preservaci\u00f3n del suelo.\n",
    []
  ],
  [
    114,
    "El libre pastoreo puede ser manejado, sin embargo, es importante llevar a cabo estudios de ecolog\u00eda que incluyan la evaluaci\u00f3n de la condici\u00f3n y tendencia del agostadero, as\u00ed como una selecci\u00f3n cuidadosa del mejor tipo de ganado para las condi- ciones del \u00e1rea.\n",
    []
  ],
  [
    115,
    "Finalmente, en los bosques cercanos debe lle- varse a cabo investigaci\u00f3n b\u00e1sica (fitosociol\u00f3gica y de gen\u00e9tica poblacional) y aplicada (demogr\u00e1fica y sistemas de manejo) que permita generar tecnolog\u00eda adecuada a las condiciones ecol\u00f3gicas y sociales de las comunidades locales.\n",
    []
  ]
]