[
  [
    1,
    "INTRODUCCI\u00d3N\n",
    []
  ],
  [
    2,
    "\n",
    []
  ],
  [
    3,
    "La familia Fagaceae, a la que pertenecen los encinos o robles del g\u00e9nero Quercus se distribuye en todo el mundo, excepto en \u00c1frica tropical.\n",
    [
      {
        "text": "Quercus",
        "type": "Nombre_cientifico",
        "offset": [
          73,
          80
        ]
      },
      {
        "text": "encinos",
        "type": "Nombre_comun",
        "offset": [
          45,
          52
        ]
      },
      {
        "text": "robles",
        "type": "Nombre_comun",
        "offset": [
          55,
          61
        ]
      },
      {
        "text": "Fagaceae",
        "type": "Nombre_cientifico",
        "offset": [
          11,
          19
        ]
      }
    ]
  ],
  [
    4,
    "Incluye nueve g\u00e9neros y aproximadamente 1 000 especies, distribuidas en dos subfamilias: Castaneoideae, que incluye a Castanea, Castanopsis, Chrysolepis y Lithocarpus; y Fagoideae, que comprende a Fagus, Quercus, Trigonobalanus, Colombobalanus y Formanodendron (Nixon, 1989).\n",
    [
      {
        "text": "Formanodendron",
        "type": "Nombre_cientifico",
        "offset": [
          246,
          260
        ]
      },
      {
        "text": "Lithocarpus",
        "type": "Nombre_cientifico",
        "offset": [
          155,
          166
        ]
      },
      {
        "text": "Chrysolepis",
        "type": "Nombre_cientifico",
        "offset": [
          141,
          152
        ]
      },
      {
        "text": "Quercus",
        "type": "Nombre_cientifico",
        "offset": [
          204,
          211
        ]
      },
      {
        "text": "Fagus",
        "type": "Nombre_cientifico",
        "offset": [
          197,
          202
        ]
      },
      {
        "text": "Colombobalanus",
        "type": "Nombre_cientifico",
        "offset": [
          229,
          243
        ]
      },
      {
        "text": "Trigonobalanus",
        "type": "Nombre_cientifico",
        "offset": [
          213,
          227
        ]
      },
      {
        "text": "Castanea",
        "type": "Nombre_cientifico",
        "offset": [
          118,
          126
        ]
      },
      {
        "text": "Castanopsis",
        "type": "Nombre_cientifico",
        "offset": [
          128,
          139
        ]
      },
      {
        "text": "Fagoideae",
        "type": "Nombre_cientifico",
        "offset": [
          170,
          179
        ]
      },
      {
        "text": "Castaneoideae",
        "type": "Nombre_cientifico",
        "offset": [
          89,
          102
        ]
      }
    ]
  ],
  [
    5,
    "El g\u00e9nero Quercus, al que pertenecen los encinos es el m\u00e1s diverso de la familia, lo constituyen aproximadamente 500 especies, distribuidas en las regiones templadas y subtropicales del hemisferio norte.\n",
    [
      {
        "text": "encinos",
        "type": "Nombre_comun",
        "offset": [
          41,
          48
        ]
      },
      {
        "text": "Quercus",
        "type": "Nombre_cientifico",
        "offset": [
          10,
          17
        ]
      }
    ]
  ],
  [
    6,
    "M\u00e9xico es el pa\u00eds que posee el mayor n\u00famero de especies del mundo, entre 135 y 150 (Nixon, 1993).\n",
    []
  ],
  [
    7,
    "Se caracteriza porque sus especies comprenden \u00e1rboles y arbustos caducifolios o perennifolios, monoicos con polinizaci\u00f3n por el viento.\n",
    [
      {
        "text": "\u00e1rboles",
        "type": "Nombre_comun",
        "offset": [
          46,
          53
        ]
      },
      {
        "text": "arbustos caducifolios",
        "type": "Nombre_comun",
        "offset": [
          56,
          77
        ]
      },
      {
        "text": "perennifolios",
        "type": "Nombre_comun",
        "offset": [
          80,
          93
        ]
      },
      {
        "text": "monoicos",
        "type": "Nombre_comun",
        "offset": [
          95,
          103
        ]
      }
    ]
  ],
  [
    8,
    "El fruto es una nuez parcial o totalmente envuelta por un involucro o c\u00fapula, el cual posee una sola semilla con los cotiledones gruesos y sin endospermo.\n",
    []
  ],
  [
    9,
    "Las hojas de los encinos poseen una gran diversidad morfol\u00f3gica, con frecuencia dentro de una misma especie.\n",
    [
      {
        "text": "encinos",
        "type": "Nombre_comun",
        "offset": [
          17,
          24
        ]
      }
    ]
  ],
  [
    10,
    "La mayor\u00eda de los taxa florecen de enero a junio y fructifican de junio a diciembre.\n",
    []
  ],
  [
    11,
    "Es considerado como un g\u00e9nero taxon\u00f3micamente complicado, debido a su gran variabilidad morfol\u00f3gica, a la capacidad de formar h\u00edbridos y a que sus estructuras reproductivas no se han estudiado lo suficiente (Romero, Rojas y G\u00f3mez, 2000a).\n",
    []
  ],
  [
    12,
    "Esto ha llevado a la existencia de una gran cantidad de sin\u00f3nimos. \n",
    []
  ],
  [
    13,
    "\n",
    []
  ],
  [
    14,
    "DIVERSIDAD DE ESPECIES\n",
    []
  ],
  [
    15,
    "\n",
    []
  ],
  [
    16,
    "En el Estado de M\u00e9xico habitan alrededor de 23 especies de encinos (Romero, Rojas y Aguilar 2002), de las cuales, diez pertenecen a la secci\u00f3n Quercus (encinos blancos) y 13 a la secci\u00f3n Lobatae (encinos rojos, Nixon1993).\n",
    [
      {
        "text": "Quercus",
        "type": "Nombre_cientifico",
        "offset": [
          143,
          150
        ]
      },
      {
        "arg2_text": "Lobatae",
        "arg1_offset": [
          196,
          209
        ],
        "arg2_line": 16,
        "arg2_offset": [
          187,
          194
        ],
        "arg1_text": "encinos rojos",
        "type": "alias",
        "arg1_line": 16
      },
      {
        "text": "encinos",
        "type": "Nombre_comun",
        "offset": [
          59,
          66
        ]
      },
      {
        "text": "encinos blancos)",
        "type": "Nombre_comun",
        "offset": [
          152,
          168
        ]
      },
      {
        "text": "encinos rojos",
        "type": "Nombre_comun",
        "offset": [
          196,
          209
        ]
      },
      {
        "text": "Lobatae",
        "type": "Nombre_cientifico",
        "offset": [
          187,
          194
        ]
      }
    ]
  ],
  [
    17,
    "Quince de las especies son end\u00e9micas de M\u00e9xico y el resto se distribuyen de M\u00e9xico a Centro Am\u00e9rica; s\u00f3lo Quercus rugosa se encuentra hasta el norte de la frontera mexicana, en los Estados Unidos.\n",
    [
      {
        "text": "Quercus rugosa",
        "type": "Nombre_cientifico",
        "offset": [
          106,
          120
        ]
      }
    ]
  ],
  [
    18,
    "Una especie, Q. hintonii, es end\u00e9mica del Estado de M\u00e9xico (Cuadro 1). \n",
    [
      {
        "text": "Q. hintonii",
        "type": "Nombre_cientifico",
        "offset": [
          13,
          24
        ]
      },
      {
        "text": "Q. hintonii",
        "type": "Nombre_cientifico",
        "offset": [
          13,
          24
        ]
      }
    ]
  ],
  [
    19,
    "\n",
    []
  ],
  [
    20,
    "DISTRIBUCI\u00d3N GEOGR\u00c1FICA \n",
    []
  ],
  [
    21,
    "\n",
    []
  ],
  [
    22,
    "Las especies del g\u00e9nero Quercus se encuentran distribuidas en las zonas monta\u00f1osas de todas las entidades federativas de M\u00e9xico, a excepci\u00f3n de Yucat\u00e1n y Quintana Roo.\n",
    [
      {
        "text": "Quercus",
        "type": "Nombre_cientifico",
        "offset": [
          24,
          31
        ]
      }
    ]
  ],
  [
    23,
    "Constituyen el elemento dominante de la vegetaci\u00f3n de la Sierra Madre Oriental, pero tambi\u00e9n son muy comunes en la Occidental, en el Eje Neovolc\u00e1nico Transversal, en la Sierra Madre del Sur, en las sierras del norte de Oaxaca, de Chiapas y Baja California.\n",
    []
  ],
  [
    24,
    "Tambi\u00e9n est\u00e1n presentes en muchos macizos monta\u00f1osos del Altiplano y de otras partes de la Rep\u00fablica Mexicana (Rzedowski, 1978).\n",
    []
  ],
  [
    25,
    "En M\u00e9xico se les encuentra formando bosques de encino, comunidades muy caracter\u00edsticas de las zonas monta\u00f1osas.\n",
    [
      {
        "text": "encino",
        "type": "Nombre_comun",
        "offset": [
          47,
          53
        ]
      }
    ]
  ],
  [
    26,
    "De hecho, junto con los miembros del g\u00e9nero Pinus, constituyen la mayor parte de la cubierta vegetal de \u00e1reas de clima templado y semih\u00famedo; sin embargo, no se limitan a estas condiciones, pues penetran en regiones de clima caliente formando tambi\u00e9n bosques, y en las regiones h\u00famedas, siendo elementos del bosque tropical perennifolio y bosque mes\u00f3filo de monta\u00f1a, y a\u00fan existen en las semi\u00e1ridas, siendo parte del matorral xer\u00f3filo, asumiendo con frecuencia forma arbustiva (Rzedowski, 1978).\n",
    [
      {
        "text": "Pinus",
        "type": "Nombre_cientifico",
        "offset": [
          44,
          49
        ]
      }
    ]
  ],
  [
    27,
    "En el Estado de M\u00e9xico forman parte de los bosques de encino y bosques mixtos de pino-encino, aunque tambi\u00e9n existen especies que habitan en otras comunidades, tales como bosque mes\u00f3filo de monta\u00f1a, bosque tropical caducifolio, matorral xer\u00f3filo, bosque de galer\u00eda y pastizal (Romero, Rojas y Aguilar, 2002).\n",
    []
  ],
  [
    28,
    "La mayor\u00eda de las especies presentan alturas entre 10 y 20 m, pero Q. rugosa y Q. laurina llegan a medir hasta 30 m.. Las especies de zonas \u00e1ridas, com Q. frutex y Q. deserticota, forman matorrales de 0.4 a 7 m, que por lo general son comunidades muy densas.\n",
    [
      {
        "text": "Q. rugosa",
        "type": "Nombre_cientifico",
        "offset": [
          67,
          76
        ]
      },
      {
        "text": "Q. rugosa",
        "type": "Nombre_cientifico",
        "offset": [
          67,
          76
        ]
      },
      {
        "text": "Q. laurina",
        "type": "Nombre_cientifico",
        "offset": [
          79,
          89
        ]
      },
      {
        "text": "Q. frutex",
        "type": "Nombre_cientifico",
        "offset": [
          152,
          161
        ]
      },
      {
        "text": "Q. deserticota",
        "type": "Nombre_cientifico",
        "offset": [
          164,
          178
        ]
      },
      {
        "text": "Q. laurina",
        "type": "Nombre_cientifico",
        "offset": [
          79,
          89
        ]
      }
    ]
  ],
  [
    29,
    "La mayor parte de las especies se encuentran en los bosques mixtos.\n",
    []
  ],
  [
    30,
    "Sin embargo, Q.. splende habita en el bosque tropical caducifolio y Q. elliptica puede formar parte del bosque de galer\u00eda.\n",
    [
      {
        "text": "Q. elliptica",
        "type": "Nombre_cientifico",
        "offset": [
          68,
          80
        ]
      },
      {
        "text": "Q. elliptica",
        "type": "Nombre_cientifico",
        "offset": [
          68,
          80
        ]
      }
    ]
  ],
  [
    31,
    "Entre las especies que crecen en bosque mes\u00f3filo de monta\u00f1a est\u00e1n Q. acutifolia, Q. castanea, Q. crassipes, Q. dysophylla, Q. glabrescens, Q. glaucoides, Q. obtusata, Q. scytophylla y Q. urbanii, aunque no todas ellas son exclusivas de este tipo de vegetaci\u00f3n.\n",
    [
      {
        "text": "Q. scytophylla",
        "type": "Nombre_cientifico",
        "offset": [
          167,
          181
        ]
      },
      {
        "text": "Q. urbanii",
        "type": "Nombre_cientifico",
        "offset": [
          184,
          194
        ]
      },
      {
        "text": "Q. glaucoides",
        "type": "Nombre_cientifico",
        "offset": [
          139,
          152
        ]
      },
      {
        "text": "Q. obtusata",
        "type": "Nombre_cientifico",
        "offset": [
          154,
          165
        ]
      },
      {
        "text": "Q. dysophylla",
        "type": "Nombre_cientifico",
        "offset": [
          108,
          121
        ]
      },
      {
        "text": "Q. glabrescens",
        "type": "Nombre_cientifico",
        "offset": [
          123,
          137
        ]
      },
      {
        "text": "Q. crassipes",
        "type": "Nombre_cientifico",
        "offset": [
          94,
          106
        ]
      },
      {
        "text": "Q. urbanii",
        "type": "Nombre_cientifico",
        "offset": [
          184,
          194
        ]
      },
      {
        "text": "Q. scytophylla",
        "type": "Nombre_cientifico",
        "offset": [
          167,
          181
        ]
      },
      {
        "text": "Q. acutifolia",
        "type": "Nombre_cientifico",
        "offset": [
          66,
          79
        ]
      },
      {
        "text": "Q. acutifolia",
        "type": "Nombre_cientifico",
        "offset": [
          66,
          79
        ]
      },
      {
        "text": "Q. crassipes",
        "type": "Nombre_cientifico",
        "offset": [
          94,
          106
        ]
      },
      {
        "text": "Q. castanea",
        "type": "Nombre_cientifico",
        "offset": [
          81,
          92
        ]
      },
      {
        "text": "Q. glaucoides",
        "type": "Nombre_cientifico",
        "offset": [
          139,
          152
        ]
      },
      {
        "text": "Q. glabrescens",
        "type": "Nombre_cientifico",
        "offset": [
          123,
          137
        ]
      },
      {
        "text": "Q. castanea",
        "type": "Nombre_cientifico",
        "offset": [
          81,
          92
        ]
      },
      {
        "text": "Q. obtusata",
        "type": "Nombre_cientifico",
        "offset": [
          154,
          165
        ]
      },
      {
        "text": "Q. dysophylla",
        "type": "Nombre_cientifico",
        "offset": [
          108,
          121
        ]
      }
    ]
  ],
  [
    32,
    "En matorral xer\u00f3filo se encuentran Q. crassipes, Q. deserticola, Q.. frut , Q. laeta, Q. obtusata y Q. rugosa.\n",
    [
      {
        "text": "Q. obtusata",
        "type": "Nombre_cientifico",
        "offset": [
          86,
          97
        ]
      },
      {
        "text": "Q.. frut",
        "type": "Nombre_cientifico",
        "offset": [
          65,
          73
        ]
      },
      {
        "text": "Q. rugosa",
        "type": "Nombre_cientifico",
        "offset": [
          100,
          109
        ]
      },
      {
        "text": "Q. crassipes",
        "type": "Nombre_cientifico",
        "offset": [
          35,
          47
        ]
      },
      {
        "text": "Q. deserticola",
        "type": "Nombre_cientifico",
        "offset": [
          49,
          63
        ]
      },
      {
        "text": "Q. obtusata",
        "type": "Nombre_cientifico",
        "offset": [
          86,
          97
        ]
      },
      {
        "text": "Q. laeta",
        "type": "Nombre_cientifico",
        "offset": [
          76,
          84
        ]
      },
      {
        "text": "Q. crassipe",
        "type": "Nombre_cientifico",
        "offset": [
          35,
          46
        ]
      },
      {
        "text": "Q. deserticola",
        "type": "Nombre_cientifico",
        "offset": [
          49,
          63
        ]
      },
      {
        "text": "Q. laeta",
        "type": "Nombre_cientifico",
        "offset": [
          76,
          84
        ]
      },
      {
        "text": "Q. rugosa",
        "type": "Nombre_cientifico",
        "offset": [
          100,
          109
        ]
      }
    ]
  ],
  [
    33,
    "En cuanto a la distribuci\u00f3n altitudinal, Q. conspersa, Q. elliptica y Q. hintonii son especies caracter\u00edsticas de altitudes menores a 2 000 msnm, y Q. scytophylla se encuentra hasta 900 msnm.\n",
    [
      {
        "text": "Q. elliptica",
        "type": "Nombre_cientifico",
        "offset": [
          55,
          67
        ]
      },
      {
        "text": "Q. hintonii",
        "type": "Nombre_cientifico",
        "offset": [
          70,
          81
        ]
      },
      {
        "text": "Q. elliptica",
        "type": "Nombre_cientifico",
        "offset": [
          55,
          67
        ]
      },
      {
        "text": "Q. conspersa",
        "type": "Nombre_cientifico",
        "offset": [
          41,
          53
        ]
      },
      {
        "text": "Q. scytophylla",
        "type": "Nombre_cientifico",
        "offset": [
          148,
          162
        ]
      },
      {
        "text": "Q. hintonii",
        "type": "Nombre_cientifico",
        "offset": [
          70,
          81
        ]
      },
      {
        "text": "Q. conspersa",
        "type": "Nombre_cientifico",
        "offset": [
          41,
          53
        ]
      },
      {
        "text": "Q. scytophylla",
        "type": "Nombre_cientifico",
        "offset": [
          148,
          162
        ]
      }
    ]
  ],
  [
    34,
    "La mayor\u00eda de las especies se distribuyen en intervalos altitudinales amplios, principalmente dentro de los 1 430 a 3 500 msnm.\n",
    []
  ],
  [
    35,
    "Las especies que se distribuyen de manera m\u00e1s amplia altitudinalmente son Q. rugosa, Q. scytophylla, Q. obtusata, Q.. castan y Q. crassipes.\n",
    [
      {
        "text": "Q. crassipes",
        "type": "Nombre_cientifico",
        "offset": [
          127,
          139
        ]
      },
      {
        "text": "Q. obtusata",
        "type": "Nombre_cientifico",
        "offset": [
          101,
          112
        ]
      },
      {
        "text": "Q. scytophylla",
        "type": "Nombre_cientifico",
        "offset": [
          85,
          99
        ]
      },
      {
        "text": "Q.. castan",
        "type": "Nombre_cientifico",
        "offset": [
          114,
          124
        ]
      },
      {
        "text": "Q. crassipes",
        "type": "Nombre_cientifico",
        "offset": [
          127,
          139
        ]
      },
      {
        "text": "Q. obtusata",
        "type": "Nombre_cientifico",
        "offset": [
          101,
          112
        ]
      },
      {
        "text": "Q. scytophylla",
        "type": "Nombre_cientifico",
        "offset": [
          85,
          99
        ]
      },
      {
        "text": "Q. rugosa",
        "type": "Nombre_cientifico",
        "offset": [
          74,
          83
        ]
      },
      {
        "text": "Q. rugosa",
        "type": "Nombre_cientifico",
        "offset": [
          74,
          83
        ]
      }
    ]
  ],
  [
    36,
    "Es interesante notar que las especies de encino del Estado de M\u00e9xico pueden distribuirse ampliamente o restringirse dentro de la entidad a las provincias del Eje Neovolc\u00e1nico o a la Sierra Madre del Sur.\n",
    []
  ],
  [
    37,
    "Las especies que habitan en el Eje Neovolc\u00e1nico son Q. deserticola, Q. dysophylla, Q. frutex, Q. glabrescens, Q. laeta y Q. mexicana.\n",
    [
      {
        "text": "Q. deserticola",
        "type": "Nombre_cientifico",
        "offset": [
          52,
          66
        ]
      },
      {
        "text": "Q. glabrescens",
        "type": "Nombre_cientifico",
        "offset": [
          94,
          108
        ]
      },
      {
        "text": "Q. frutex",
        "type": "Nombre_cientifico",
        "offset": [
          83,
          92
        ]
      },
      {
        "text": "Q. laeta",
        "type": "Nombre_cientifico",
        "offset": [
          110,
          118
        ]
      },
      {
        "text": "Q. dysophylla",
        "type": "Nombre_cientifico",
        "offset": [
          68,
          81
        ]
      },
      {
        "text": "Q. deserticola",
        "type": "Nombre_cientifico",
        "offset": [
          52,
          66
        ]
      },
      {
        "text": "Q. dysophylla",
        "type": "Nombre_cientifico",
        "offset": [
          68,
          81
        ]
      },
      {
        "text": "Q. frutex",
        "type": "Nombre_cientifico",
        "offset": [
          83,
          92
        ]
      },
      {
        "text": "Q. glabrescens",
        "type": "Nombre_cientifico",
        "offset": [
          94,
          108
        ]
      },
      {
        "text": "Q. laeta",
        "type": "Nombre_cientifico",
        "offset": [
          110,
          118
        ]
      },
      {
        "text": "Q. mexicana",
        "type": "Nombre_cientifico",
        "offset": [
          121,
          132
        ]
      },
      {
        "text": "Q. mexicana",
        "type": "Nombre_cientifico",
        "offset": [
          121,
          132
        ]
      }
    ]
  ],
  [
    38,
    "Y las que se encuentran en la Sierra Madre del Sur son Q. acutifolia, Q. conspersa, Q. elliptica, Q. glaucoides, Q hintonii, Q. magnoliifolia, Q. peduncularis, Q. scytophylla, Q. splendens y Q. urbanii.\n",
    [
      {
        "text": "Q. urbanii",
        "type": "Nombre_cientifico",
        "offset": [
          191,
          201
        ]
      },
      {
        "text": "Q. splendens",
        "type": "Nombre_cientifico",
        "offset": [
          176,
          188
        ]
      },
      {
        "text": "Q. magnoliifolia",
        "type": "Nombre_cientifico",
        "offset": [
          125,
          141
        ]
      },
      {
        "text": "Q hintonii",
        "type": "Nombre_cientifico",
        "offset": [
          113,
          123
        ]
      },
      {
        "text": "Q. scytophylla",
        "type": "Nombre_cientifico",
        "offset": [
          160,
          174
        ]
      },
      {
        "text": "Q. peduncularis",
        "type": "Nombre_cientifico",
        "offset": [
          143,
          158
        ]
      },
      {
        "text": "Q. elliptica",
        "type": "Nombre_cientifico",
        "offset": [
          84,
          96
        ]
      },
      {
        "text": "Q. elliptica",
        "type": "Nombre_cientifico",
        "offset": [
          84,
          96
        ]
      },
      {
        "text": "Q. glaucoides",
        "type": "Nombre_cientifico",
        "offset": [
          98,
          111
        ]
      },
      {
        "text": "Q. acutifolia",
        "type": "Nombre_cientifico",
        "offset": [
          55,
          68
        ]
      },
      {
        "text": "Q. conspersa",
        "type": "Nombre_cientifico",
        "offset": [
          70,
          82
        ]
      },
      {
        "text": "Q. scytophylla",
        "type": "Nombre_cientifico",
        "offset": [
          160,
          174
        ]
      },
      {
        "text": "Q. splendens",
        "type": "Nombre_cientifico",
        "offset": [
          176,
          188
        ]
      },
      {
        "text": "Q. magnoliifolia",
        "type": "Nombre_cientifico",
        "offset": [
          125,
          141
        ]
      },
      {
        "text": "Q. peduncularis",
        "type": "Nombre_cientifico",
        "offset": [
          143,
          158
        ]
      },
      {
        "text": "Q. glaucoides",
        "type": "Nombre_cientifico",
        "offset": [
          98,
          111
        ]
      },
      {
        "text": "Q. conspersa",
        "type": "Nombre_cientifico",
        "offset": [
          70,
          82
        ]
      },
      {
        "text": "Q. urbanii",
        "type": "Nombre_cientifico",
        "offset": [
          191,
          201
        ]
      },
      {
        "text": "Q. acutifolia",
        "type": "Nombre_cientifico",
        "offset": [
          55,
          68
        ]
      }
    ]
  ],
  [
    39,
    "\n",
    []
  ],
  [
    40,
    "IMPORTANCIA Y USOS\n",
    []
  ],
  [
    41,
    "\n",
    []
  ],
  [
    42,
    "Los encinos muestran una variaci\u00f3n impresionante en cuanto a caracter\u00edsticas morfol\u00f3gicas, fisiol\u00f3gicas, competitivas y adaptativas (Jones, 1986).\n",
    [
      {
        "text": "encinos",
        "type": "Nombre_comun",
        "offset": [
          4,
          11
        ]
      }
    ]
  ],
  [
    43,
    "Esto les ha permitido habitar en una gran diversidad de ambientes geogr\u00e1ficos.\n",
    []
  ],
  [
    44,
    "Es interesante observar que protagonizan funciones ecol\u00f3gicas muy importantes como fuentes de sost\u00e9n de ep\u00edfitas; refugio y alimento de aves, mam\u00edferos, reptiles y artr\u00f3podos, as\u00ed como de microorganismos de la riz\u00f3sfera; son generadores y formadores del suelo, modificadores de condiciones microambientales; reguladores y modificadores de los eventos del fuego y sus efectos en el bosque y participantes activos en la infiltraci\u00f3n de agua en cantidades importantes, entre otros.\n",
    [
      {
        "text": "artr\u00f3podos",
        "type": "Nombre_comun",
        "offset": [
          164,
          174
        ]
      },
      {
        "text": "reptiles",
        "type": "Nombre_comun",
        "offset": [
          153,
          161
        ]
      },
      {
        "text": "mam\u00edferos",
        "type": "Nombre_comun",
        "offset": [
          142,
          151
        ]
      },
      {
        "text": "aves",
        "type": "Nombre_comun",
        "offset": [
          136,
          140
        ]
      }
    ]
  ],
  [
    45,
    "Sus funciones en las comunidades no son todav\u00eda bien conocidas, pero est\u00e1 bien establecido que los encinos pueden desaparecer de una regi\u00f3n por actividades antropog\u00e9nicas que alteran el pH, el contenidos de bases, materia org\u00e1nica y la riqueza de microfauna y microflora del subsuelo; adem\u00e1s incrementan la susceptibilidad a la erosi\u00f3n a la p\u00e9rdida de micorrizas y a cambios en la humedad y el flujo de nutrimentos (Reyes y Gama-Castro, 1995).\n",
    [
      {
        "text": "encinos",
        "type": "Nombre_comun",
        "offset": [
          99,
          106
        ]
      }
    ]
  ],
  [
    46,
    "En M\u00e9xico los encinos han sido poco estudiados en los aspectos silv\u00edcolas, ecol\u00f3gicos y tecnol\u00f3gicos (para su industrializaci\u00f3n).\n",
    [
      {
        "text": "encinos",
        "type": "Nombre_comun",
        "offset": [
          14,
          21
        ]
      }
    ]
  ],
  [
    47,
    "Adem\u00e1s, es escaso el mercado existente de los productos que se derivan de ellos (Romero, 1993).\n",
    []
  ],
  [
    48,
    "En otros pa\u00edses, principalmente de Europa occidental, han tenido importancia primordial en el desarrollo de las civilizaciones.\n",
    []
  ],
  [
    49,
    "En la d\u00e9cada de los setenta, la madera de encino ten\u00eda bastante aceptaci\u00f3n en la manufactura de variados productos terminados industrialmente.\n",
    [
      {
        "text": "encino",
        "type": "Nombre_comun",
        "offset": [
          42,
          48
        ]
      }
    ]
  ],
  [
    50,
    "Alemania sobresale por los trabajos que ha realizado sobre manejo de encinos, en el siglo VI ya se realizaban plantaciones; actualmente, se aplican t\u00e9cnicas de siembra directa, fertilizaci\u00f3n, podas, injertos y turnos de hasta 300 a\u00f1os.\n",
    [
      {
        "text": "encinos",
        "type": "Nombre_comun",
        "offset": [
          69,
          76
        ]
      }
    ]
  ],
  [
    51,
    "A la aplicaci\u00f3n de estas t\u00e9cnicas y por consiguiente a la inversi\u00f3n econ\u00f3mica, es a lo que se llama, en el sentido amplio de la palabra, silvicultura intensiva.\n",
    []
  ],
  [
    52,
    "En M\u00e9xico su uso se ha restringido a la elaboraci\u00f3n de carb\u00f3n y le\u00f1a (Romero, 1993).\n",
    []
  ],
  [
    53,
    "Son varios los factores que han limitado el aprovechamiento de los encinos, como desconocimiento taxon\u00f3mico, ecol\u00f3gico y de su distribuci\u00f3n geogr\u00e1fica, escaso conocimiento relacionado con lo procesos tecnol\u00f3gicos y desconocimiento casi total de su reproducci\u00f3n.\n",
    [
      {
        "text": "encinos",
        "type": "Nombre_comun",
        "offset": [
          67,
          74
        ]
      }
    ]
  ],
  [
    54,
    "En la medida que se incremente el estudio de los encinos, se podr\u00e1 realizar el manejo de las especies seleccionadas y M\u00e9xico podr\u00e1 ser autosuficiente.\n",
    [
      {
        "text": "encinos",
        "type": "Nombre_comun",
        "offset": [
          49,
          56
        ]
      },
      {
        "arg2_text": "podr\u00e1n utilizarse intensivamente como pulpa para papel, mangos para herramienta, cajas de empaque, construcciones navales y terrestres, durmientes, muebles, instrumentos musicales, pilotes, chapa, artesan\u00edas, toneler\u00eda y combustible",
        "arg1_offset": [
          49,
          56
        ],
        "arg2_line": 55,
        "arg2_offset": [
          40,
          272
        ],
        "arg1_text": "encinos",
        "type": "se_usa",
        "arg1_line": 54
      }
    ]
  ],
  [
    55,
    "As\u00ed, en nuestro pa\u00eds, diversas especies podr\u00e1n utilizarse intensivamente como pulpa para papel, mangos para herramienta, cajas de empaque, construcciones navales y terrestres, durmientes, muebles, instrumentos musicales, pilotes, chapa, artesan\u00edas, toneler\u00eda y combustible (Flores, 1971; De la Paz, 1974).\n",
    [
      {
        "text": "podr\u00e1n utilizarse intensivamente como pulpa para papel, mangos para herramienta, cajas de empaque, construcciones navales y terrestres, durmientes, muebles, instrumentos musicales, pilotes, chapa, artesan\u00edas, toneler\u00eda y combustible",
        "type": "Uso",
        "offset": [
          40,
          272
        ]
      }
    ]
  ],
  [
    56,
    "Actualmente, todas las partes o estructuras de los encinos son susceptibles de utilizaci\u00f3n.\n",
    [
      {
        "text": "encinos",
        "type": "Nombre_comun",
        "offset": [
          51,
          58
        ]
      },
      {
        "arg2_text": "Las hojas tiernas son utilizadas, despu\u00e9s de su cocimiento y mezcladas con harina de ma\u00edz, para elaborar tortillas",
        "arg1_offset": [
          51,
          58
        ],
        "arg2_line": 59,
        "arg2_offset": [
          0,
          114
        ],
        "arg1_text": "encinos",
        "type": "se_usa",
        "arg1_line": 56
      },
      {
        "arg2_text": "Las bellotas se han usado como alimento para cerdos, gallinas y conejos, obteni\u00e9ndose aumentos de peso significativos",
        "arg1_offset": [
          51,
          58
        ],
        "arg2_line": 60,
        "arg2_offset": [
          0,
          117
        ],
        "arg1_text": "encinos",
        "type": "se_usa",
        "arg1_line": 56
      },
      {
        "arg2_text": "Los frutos de algunas especies sirven para elaborar harina para tortillas, pan, galletas, tamales y atole",
        "arg1_offset": [
          51,
          58
        ],
        "arg2_line": 61,
        "arg2_offset": [
          0,
          105
        ],
        "arg1_text": "encinos",
        "type": "se_usa",
        "arg1_line": 56
      },
      {
        "arg2_text": "La corteza es utilizada en el tratamiento de la leucorrea, blenorragia y hemorroides",
        "arg1_offset": [
          51,
          58
        ],
        "arg2_line": 58,
        "arg2_offset": [
          0,
          84
        ],
        "arg1_text": "encinos",
        "type": "se_usa",
        "arg1_line": 56
      },
      {
        "arg2_text": "adem\u00e1s de su uso generalizado para le\u00f1a y carb\u00f3n, se utiliza principalmente para poster\u00eda, pulpa para elaborar papel, implementos agr\u00edcolas, construcci\u00f3n, curtidur\u00eda, cercas, muebles r\u00fasticos, bancos, puertas, chapa, redilas, vaquetas para tambor y artesan\u00edas.",
        "arg1_offset": [
          51,
          58
        ],
        "arg2_line": 57,
        "arg2_offset": [
          11,
          271
        ],
        "arg1_text": "encinos",
        "type": "se_usa",
        "arg1_line": 56
      }
    ]
  ],
  [
    57,
    "La madera, adem\u00e1s de su uso generalizado para le\u00f1a y carb\u00f3n, se utiliza principalmente para poster\u00eda, pulpa para elaborar papel, implementos agr\u00edcolas, construcci\u00f3n, curtidur\u00eda, cercas, muebles r\u00fasticos, bancos, puertas, chapa, redilas, vaquetas para tambor y artesan\u00edas.\n",
    [
      {
        "text": "adem\u00e1s de su uso generalizado para le\u00f1a y carb\u00f3n, se utiliza principalmente para poster\u00eda, pulpa para elaborar papel, implementos agr\u00edcolas, construcci\u00f3n, curtidur\u00eda, cercas, muebles r\u00fasticos, bancos, puertas, chapa, redilas, vaquetas para tambor y artesan\u00edas.",
        "type": "Uso",
        "offset": [
          11,
          271
        ]
      }
    ]
  ],
  [
    58,
    "La corteza es utilizada en el tratamiento de la leucorrea, blenorragia y hemorroides (Font, 1980).\n",
    [
      {
        "text": "La corteza es utilizada en el tratamiento de la leucorrea, blenorragia y hemorroides",
        "type": "Medicinal",
        "offset": [
          0,
          84
        ]
      }
    ]
  ],
  [
    59,
    "Las hojas tiernas son utilizadas, despu\u00e9s de su cocimiento y mezcladas con harina de ma\u00edz, para elaborar tortillas (V\u00e1zquez, 1992).\n",
    [
      {
        "text": "Las hojas tiernas son utilizadas, despu\u00e9s de su cocimiento y mezcladas con harina de ma\u00edz, para elaborar tortillas",
        "type": "Alimentario",
        "offset": [
          0,
          114
        ]
      }
    ]
  ],
  [
    60,
    "Las bellotas se han usado como alimento para cerdos, gallinas y conejos, obteni\u00e9ndose aumentos de peso significativos (Garc\u00eda, 1976).\n",
    [
      {
        "text": "Las bellotas se han usado como alimento para cerdos, gallinas y conejos, obteni\u00e9ndose aumentos de peso significativos",
        "type": "Alimentario",
        "offset": [
          0,
          117
        ]
      }
    ]
  ],
  [
    61,
    "Los frutos de algunas especies sirven para elaborar harina para tortillas, pan, galletas, tamales y atole (Camacho, 1985).\n",
    [
      {
        "text": "Los frutos de algunas especies sirven para elaborar harina para tortillas, pan, galletas, tamales y atole",
        "type": "Alimentario",
        "offset": [
          0,
          105
        ]
      }
    ]
  ],
  [
    62,
    "La corteza de algunos encinos, entre ellos Quercus castanea, Q. elliptica y Q, rugosa, es utilizada para reforzar los dientes, aliviar dolores de las enc\u00edas, fermentar bebidas de ma\u00edz y agave.\n",
    [
      {
        "arg2_text": "cura radicalmente las f\u00edstulas del recto, la diarrea y las hemorragias, y pa\u00f1os empapados disminuyen las inflamaciones producidas por las paperas",
        "arg1_offset": [
          22,
          29
        ],
        "arg2_line": 63,
        "arg2_offset": [
          90,
          235
        ],
        "arg1_text": "encinos",
        "type": "se_usa",
        "arg1_line": 62
      },
      {
        "arg2_text": "es utilizada para reforzar los dientes, aliviar dolores de las enc\u00edas, fermentar bebidas de ma\u00edz y agave",
        "arg1_offset": [
          22,
          29
        ],
        "arg2_line": 62,
        "arg2_offset": [
          87,
          191
        ],
        "arg1_text": "encinos",
        "type": "se_usa",
        "arg1_line": 62
      },
      {
        "arg2_text": "Las flores se usan como antiespasm\u00f3dicos, contra los v\u00e9rtigos y la epilepsia",
        "arg1_offset": [
          22,
          29
        ],
        "arg2_line": 64,
        "arg2_offset": [
          0,
          76
        ],
        "arg1_text": "encinos",
        "type": "se_usa",
        "arg1_line": 62
      },
      {
        "text": "Q. elliptica",
        "type": "Nombre_cientifico",
        "offset": [
          61,
          73
        ]
      },
      {
        "text": "Quercus castanea",
        "type": "Nombre_cientifico",
        "offset": [
          43,
          59
        ]
      },
      {
        "text": "es utilizada para reforzar los dientes, aliviar dolores de las enc\u00edas, fermentar bebidas de ma\u00edz y agave",
        "type": "Uso",
        "offset": [
          87,
          191
        ]
      },
      {
        "text": "Q, rugosa",
        "type": "Nombre_cientifico",
        "offset": [
          76,
          85
        ]
      },
      {
        "text": "Q. elliptica",
        "type": "Nombre_cientifico",
        "offset": [
          61,
          73
        ]
      },
      {
        "text": "encinos",
        "type": "Nombre_comun",
        "offset": [
          22,
          29
        ]
      }
    ]
  ],
  [
    63,
    "Tambi\u00e9n se ha referido (Ponce, 1941) que el cocimiento de la corteza, usado externamente, cura radicalmente las f\u00edstulas del recto, la diarrea y las hemorragias, y pa\u00f1os empapados disminuyen las inflamaciones producidas por las paperas.\n",
    [
      {
        "text": "cura radicalmente las f\u00edstulas del recto, la diarrea y las hemorragias, y pa\u00f1os empapados disminuyen las inflamaciones producidas por las paperas",
        "type": "Medicinal",
        "offset": [
          90,
          235
        ]
      }
    ]
  ],
  [
    64,
    "Las flores se usan como antiespasm\u00f3dicos, contra los v\u00e9rtigos y la epilepsia (Mart\u00ednez, 1954; Ponce, 1941).\n",
    [
      {
        "text": "Las flores se usan como antiespasm\u00f3dicos, contra los v\u00e9rtigos y la epilepsia",
        "type": "Medicinal",
        "offset": [
          0,
          76
        ]
      }
    ]
  ],
  [
    65,
    "Tambi\u00e9n son comestibles; las flores tiernas de Q. crassipes se hierven y capean con huevos (Camacho, 1985). \n",
    [
      {
        "text": "Q. crassipes",
        "type": "Nombre_cientifico",
        "offset": [
          47,
          59
        ]
      },
      {
        "arg2_text": "se hierven y capean con huevos",
        "arg1_offset": [
          47,
          59
        ],
        "arg2_line": 65,
        "arg2_offset": [
          60,
          90
        ],
        "arg1_text": "Q. crassipes",
        "type": "se_usa",
        "arg1_line": 65
      },
      {
        "text": "Q. crassipes",
        "type": "Nombre_cientifico",
        "offset": [
          47,
          59
        ]
      },
      {
        "text": "se hierven y capean con huevos",
        "type": "Alimentario",
        "offset": [
          60,
          90
        ]
      }
    ]
  ],
  [
    66,
    "\n",
    []
  ],
  [
    67,
    "SITUACI\u00d3N ACTUAL Y PERSPECTIVAS\n",
    []
  ],
  [
    68,
    "\n",
    []
  ],
  [
    69,
    "La m\u00e1s reciente estimaci\u00f3n de la superficie ocupada por diferentes formas de uso del suelo en M\u00e9xico proviene del Inventario Forestal Nacional del 2000 (IFN, 2000).\n",
    []
  ],
  [
    70,
    "Esta fuente se\u00f1ala que cerca de la mitad del pa\u00eds ha sido afectada severamente por las actividades humanas.\n",
    []
  ],
  [
    71,
    "Algunos de los estados que conservan vegetaci\u00f3n natural en la mayor parte de su superficie son Coahuila, Quintana Roo y la pen\u00ednsula de Baja California.\n",
    []
  ],
  [
    72,
    "Por el contrario, en Veracruz, Tabasco, Hidalgo, Estado de M\u00e9xico, Tlaxcala, Morelos y Distrito Federal, la cobertura antr\u00f3pica (cultivos, pastizales ganaderos y asentamientos) rebasa 60% del territorio.\n",
    []
  ],
  [
    73,
    "Los estados que dedican una mayor proporci\u00f3n de su superficie antr\u00f3pica a la agricultura se encuentran en el centro del pa\u00eds, en particular aquellos cercanos al Distrito Federal.\n",
    []
  ],
  [
    74,
    "En cambio, los estados del norte, del Golfo de M\u00e9xico y Chiapas destinan proporcionalmente una mayor cantidad de esta \u00e1rea a la ganader\u00eda (IFN, 2000).\n",
    []
  ],
  [
    75,
    "En el Estado de M\u00e9xico la explotaci\u00f3n intensiva de los encinos para la fabricaci\u00f3n de carb\u00f3n, le\u00f1a y para la construcci\u00f3n ha provocado que dichas comunidades se encuentren con alg\u00fan grado de deterioro (Romero, Rojas y Aguilar, 2002).\n",
    [
      {
        "arg2_text": "fabricaci\u00f3n de carb\u00f3n, le\u00f1a y para la construcci\u00f3n",
        "arg1_offset": [
          55,
          62
        ],
        "arg2_line": 75,
        "arg2_offset": [
          71,
          121
        ],
        "arg1_text": "encinos",
        "type": "se_usa",
        "arg1_line": 75
      },
      {
        "text": "encinos",
        "type": "Nombre_comun",
        "offset": [
          55,
          62
        ]
      },
      {
        "text": "fabricaci\u00f3n de carb\u00f3n, le\u00f1a y para la construcci\u00f3n",
        "type": "Uso",
        "offset": [
          71,
          121
        ]
      }
    ]
  ],
  [
    76,
    "Las causas m\u00e1s importantes de tal situaci\u00f3n son los incendios, la tala clandestina, los asentamientos humanos y el establecimiento de tierras agr\u00edcolas y ganaderas.\n",
    []
  ],
  [
    77,
    "Dada su distribuci\u00f3n actual, las especies del Estado de M\u00e9xico se pueden clasificar como sigue: a) Especies escasas: Q. acutifolia, Q. conspersa, Q. hintonii, Q. elliptica, Q. glabrescens, Q. peduncularis, Q. splendens y Q. urbanii. b) Especies medianamente abundantes: Q. deserticola, Q. dysophylla, Q. frutex , Q. glaucoides, Q. laeta, Q. magnoliifolia, Q. mexicana y Q. scytophylla. c) Especies abundantes: Q. candicans, Q. castanea, Q. crassifolia, Q. crassipes, Q. laurina, Q. obtusata y Q. rugosa.\n",
    [
      {
        "text": "Q. glaucoides",
        "type": "Nombre_cientifico",
        "offset": [
          313,
          326
        ]
      },
      {
        "text": "Q. frutex",
        "type": "Nombre_cientifico",
        "offset": [
          301,
          310
        ]
      },
      {
        "text": "Q. laeta",
        "type": "Nombre_cientifico",
        "offset": [
          328,
          336
        ]
      },
      {
        "text": "Q. glabrescens",
        "type": "Nombre_cientifico",
        "offset": [
          173,
          187
        ]
      },
      {
        "text": "Q. deserticola",
        "type": "Nombre_cientifico",
        "offset": [
          270,
          284
        ]
      },
      {
        "text": "Q. laurina",
        "type": "Nombre_cientifico",
        "offset": [
          467,
          477
        ]
      },
      {
        "text": "Q. rugosa",
        "type": "Nombre_cientifico",
        "offset": [
          493,
          502
        ]
      },
      {
        "text": "Q. conspersa",
        "type": "Nombre_cientifico",
        "offset": [
          132,
          144
        ]
      },
      {
        "text": "Q. laurina",
        "type": "Nombre_cientifico",
        "offset": [
          467,
          477
        ]
      },
      {
        "text": "Q. splendens",
        "type": "Nombre_cientifico",
        "offset": [
          206,
          218
        ]
      },
      {
        "text": "Q. candicans",
        "type": "Nombre_cientifico",
        "offset": [
          410,
          422
        ]
      },
      {
        "text": "Q. crassipes",
        "type": "Nombre_cientifico",
        "offset": [
          453,
          465
        ]
      },
      {
        "text": "Q. scytophylla",
        "type": "Nombre_cientifico",
        "offset": [
          370,
          384
        ]
      },
      {
        "text": "Q. magnoliifolia",
        "type": "Nombre_cientifico",
        "offset": [
          338,
          354
        ]
      },
      {
        "text": "Q. frutex",
        "type": "Nombre_cientifico",
        "offset": [
          301,
          310
        ]
      },
      {
        "text": "Q. obtusata",
        "type": "Nombre_cientifico",
        "offset": [
          479,
          490
        ]
      },
      {
        "text": "Q. magnoliifolia",
        "type": "Nombre_cientifico",
        "offset": [
          338,
          354
        ]
      },
      {
        "text": "Q. castanea",
        "type": "Nombre_cientifico",
        "offset": [
          424,
          435
        ]
      },
      {
        "text": "Q. dysophylla",
        "type": "Nombre_cientifico",
        "offset": [
          286,
          299
        ]
      },
      {
        "text": "Q. crassipe",
        "type": "Nombre_cientifico",
        "offset": [
          453,
          464
        ]
      },
      {
        "text": "Q. crassifolia",
        "type": "Nombre_cientifico",
        "offset": [
          437,
          451
        ]
      },
      {
        "text": "Q. scytophylla",
        "type": "Nombre_cientifico",
        "offset": [
          370,
          384
        ]
      },
      {
        "text": "Q. candicans",
        "type": "Nombre_cientifico",
        "offset": [
          410,
          422
        ]
      },
      {
        "text": "Q. mexicana",
        "type": "Nombre_cientifico",
        "offset": [
          356,
          367
        ]
      },
      {
        "text": "Q. crassifolia",
        "type": "Nombre_cientifico",
        "offset": [
          437,
          451
        ]
      },
      {
        "text": "Q. urbanii",
        "type": "Nombre_cientifico",
        "offset": [
          221,
          231
        ]
      },
      {
        "text": "Q. laeta",
        "type": "Nombre_cientifico",
        "offset": [
          328,
          336
        ]
      },
      {
        "text": "Q. elliptica",
        "type": "Nombre_cientifico",
        "offset": [
          159,
          171
        ]
      },
      {
        "text": "Q. mexicana",
        "type": "Nombre_cientifico",
        "offset": [
          356,
          367
        ]
      },
      {
        "text": "Q. hintonii",
        "type": "Nombre_cientifico",
        "offset": [
          146,
          157
        ]
      },
      {
        "text": "Q. obtusata",
        "type": "Nombre_cientifico",
        "offset": [
          479,
          490
        ]
      },
      {
        "text": "Q. acutifolia",
        "type": "Nombre_cientifico",
        "offset": [
          117,
          130
        ]
      },
      {
        "text": "Q. conspersa",
        "type": "Nombre_cientifico",
        "offset": [
          132,
          144
        ]
      },
      {
        "text": "Q. hintonii",
        "type": "Nombre_cientifico",
        "offset": [
          146,
          157
        ]
      },
      {
        "text": "Q. elliptica",
        "type": "Nombre_cientifico",
        "offset": [
          159,
          171
        ]
      },
      {
        "text": "Q. glabrescens",
        "type": "Nombre_cientifico",
        "offset": [
          173,
          187
        ]
      },
      {
        "text": "Q. peduncularis",
        "type": "Nombre_cientifico",
        "offset": [
          189,
          204
        ]
      },
      {
        "text": "Q. rugosa",
        "type": "Nombre_cientifico",
        "offset": [
          493,
          502
        ]
      },
      {
        "text": "Q. castanea",
        "type": "Nombre_cientifico",
        "offset": [
          424,
          435
        ]
      },
      {
        "text": "Q. acutifolia",
        "type": "Nombre_cientifico",
        "offset": [
          117,
          130
        ]
      },
      {
        "text": "Q. peduncularis",
        "type": "Nombre_cientifico",
        "offset": [
          189,
          204
        ]
      },
      {
        "text": "Q. deserticola",
        "type": "Nombre_cientifico",
        "offset": [
          270,
          284
        ]
      },
      {
        "text": "Q. glaucoides",
        "type": "Nombre_cientifico",
        "offset": [
          313,
          326
        ]
      },
      {
        "text": "Q. urbanii",
        "type": "Nombre_cientifico",
        "offset": [
          221,
          231
        ]
      },
      {
        "text": "Q. splendens",
        "type": "Nombre_cientifico",
        "offset": [
          206,
          218
        ]
      },
      {
        "text": "Q. dysophylla",
        "type": "Nombre_cientifico",
        "offset": [
          286,
          299
        ]
      }
    ]
  ],
  [
    78,
    "Aunque ninguna de las especies de encino de M\u00e9xico figura en la NOM-059-ECOL- 2001 (Semarnat, 2002), no significa que se encuentren sin riesgo; deber\u00e1n hacerse o reportarse los estudios correspondientes para proponer el ingreso de algunas de ellas.\n",
    [
      {
        "text": "encino",
        "type": "Nombre_comun",
        "offset": [
          34,
          40
        ]
      }
    ]
  ],
  [
    79,
    "En el Estado de M\u00e9xico existe s\u00f3lo una especie end\u00e9mica para la entidad: Q. hintonii, la cual forma poblaciones restringidas a la Depresi\u00f3n del Balsas; hasta ahora se le ha buscado en los estados adyacentes, confirmando que limita su distribuci\u00f3n al estado en cuesti\u00f3n (Romero y Aguilar,1995; Romero, Rojas y Almonte, 2000b).\n",
    [
      {
        "text": "Q. hintonii",
        "type": "Nombre_cientifico",
        "offset": [
          73,
          84
        ]
      },
      {
        "text": "Q. hintonii",
        "type": "Nombre_cientifico",
        "offset": [
          73,
          84
        ]
      }
    ]
  ],
  [
    80,
    "En el laboratorio de Ecolog\u00eda y Taxonom\u00eda de \u00c1rboles y Arbustos de la Facultad de Estudios Superiores Iztacala de la Universidad Nacional Aut\u00f3noma de M\u00e9xico actualmente se trabaja sobre la ecolog\u00eda y reproducci\u00f3n de la mayor parte de las especies del Estado de M\u00e9xico.\n",
    []
  ],
  [
    81,
    "Las especies con escasa abundancia tienen generalmente problemas de supervivencia en vivero, debido muy probablemente a factores clim\u00e1ticos.\n",
    []
  ],
  [
    82,
    "Aunque no se descarta que el desarrollo inadecuado de las micorrizas sea la causa.\n",
    []
  ],
  [
    83,
    "Las especies medianamente abundantes y abundantes en la entidad tambi\u00e9n deben establecerse en viveros.\n",
    []
  ],
  [
    84,
    "Los individuos obtenidos podr\u00e1n ser \u00fatiles para restaurar comunidades da\u00f1adas y para reforestar zonas con poca cobertura arb\u00f3rea, considerando que, en muchos casos, tendr\u00e1n que dise\u00f1arse programas en donde se considere la sucesi\u00f3n vegetal o la sustituci\u00f3n de especies a fin de que los encinos tengan \u00e9xito.\n",
    []
  ],
  [
    85,
    "Es altamente recomen- dable que se establezcan en toda la entidad viveros para la producci\u00f3n de encinos en donde crezcan las especies de las localidades cercanas, evitando problemas de adaptaci\u00f3n clim\u00e1tica y de tipo de suelo.\n",
    []
  ],
  [
    86,
    "\n",
    []
  ]
]