[
  [
    1,
    "4.5 flora urbana \r\n",
    []
  ],
  [
    2,
    "Margarita de la Cerda Lemus \r\n",
    []
  ],
  [
    3,
    "Gabriel Gonz\u00e1lez Adame \r\n",
    []
  ],
  [
    4,
    "\r\n",
    []
  ],
  [
    5,
    "Introducci\u00f3n \r\n",
    []
  ],
  [
    6,
    "\r\n",
    []
  ],
  [
    7,
    "El uso de plantas con fines urban\u00edsticos en la ciudad de Aguascalientes inici\u00f3 con la creaci\u00f3n de los primeros barrios y la plantaci\u00f3n de huertas de \u00e1rboles frutales que tambi\u00e9n se empleaban como zonas de reuni\u00f3n.\r\n",
    []
  ],
  [
    8,
    "\u00c9stas abarcaban grandes extensiones, principalmente hacia la zona de El Encino (a\u00fan pueden verse restos de ellas sobre la avenida Paseo de la Cruz) donde sus calles sol\u00edan lucir naranjos agrios preferidos tanto por su olor como por sus frutos.\r\n",
    []
  ],
  [
    9,
    "Asimismo, el uso de plantas ornamentales inici\u00f3 con la creaci\u00f3n de \u00e1reas de esparcimiento y reuni\u00f3n dominical como la Plaza de Armas frente a la Catedral, dominada principalmente por grandes ejemplares de Jacaranda mimosaefolia; el tradicional y emblem\u00e1tico jard\u00edn de San Marcos, cuya balaustrada de cantera rosa fue finalizada en 1847.\r\n",
    [
      {
        "text": "Jacaranda mimosaefolia",
        "type": "Nombre_cientifico",
        "offset": [
          205,
          227
        ]
      }
    ]
  ],
  [
    10,
    "Continuando con la construcci\u00f3n del jard\u00edn de El Encino, el jard\u00edn de Guadalupe, el parque Hidalgo, donde se encuentran tanto especies nativas como Taxodium mucronatum (figura 4.5.1), gran variedad de especies ex\u00f3ticas entre las que podemos citar: Jacaranda mimosaefolia, Juglans nigra, Casimiroa edulis, Morus alba, Sambucus nigra, Persea americana, Ficus benjamina, Duranta repens, Ligustrum lucidum, Fraxinus uhdei, F. velutina, Jasminum officinale, Bauhinia variegata, Pyrostegia ignea, Solanum rantonnetii, Podranea ricasoliana, Lantana camara, Brugmansia candida, Eucalyptus cinerea, Cytisus maderensis, Nerium oleander y Pittosporum tobira (cuadro 4.5.1).\r\n",
    [
      {
        "text": "Persea americana",
        "type": "Nombre_cientifico",
        "offset": [
          333,
          349
        ]
      },
      {
        "text": "Ficus benjamina",
        "type": "Nombre_cientifico",
        "offset": [
          351,
          366
        ]
      },
      {
        "text": "Pittosporum tobira",
        "type": "Nombre_cientifico",
        "offset": [
          628,
          646
        ]
      },
      {
        "text": "Eucalyptus cinerea",
        "type": "Nombre_cientifico",
        "offset": [
          570,
          588
        ]
      },
      {
        "text": "Brugmansia candida",
        "type": "Nombre_cientifico",
        "offset": [
          550,
          568
        ]
      },
      {
        "text": "Nerium oleander",
        "type": "Nombre_cientifico",
        "offset": [
          610,
          625
        ]
      },
      {
        "text": "Morus alba",
        "type": "Nombre_cientifico",
        "offset": [
          305,
          315
        ]
      },
      {
        "text": "Sambucus nigra",
        "type": "Nombre_cientifico",
        "offset": [
          317,
          331
        ]
      },
      {
        "text": "Juglans nigra",
        "type": "Nombre_cientifico",
        "offset": [
          272,
          285
        ]
      },
      {
        "text": "Casimiroa edulis",
        "type": "Nombre_cientifico",
        "offset": [
          287,
          303
        ]
      },
      {
        "text": "Taxodium mucronatum",
        "type": "Nombre_cientifico",
        "offset": [
          148,
          167
        ]
      },
      {
        "text": "Jacaranda mimosaefolia",
        "type": "Nombre_cientifico",
        "offset": [
          248,
          270
        ]
      },
      {
        "text": "Lantana camara",
        "type": "Nombre_cientifico",
        "offset": [
          534,
          548
        ]
      },
      {
        "text": "Podranea ricasoliana",
        "type": "Nombre_cientifico",
        "offset": [
          512,
          532
        ]
      },
      {
        "text": "Jasminum officinale",
        "type": "Nombre_cientifico",
        "offset": [
          432,
          451
        ]
      },
      {
        "text": "Bauhinia variegata",
        "type": "Nombre_cientifico",
        "offset": [
          453,
          471
        ]
      },
      {
        "text": "F. velutina",
        "type": "Nombre_cientifico",
        "offset": [
          419,
          430
        ]
      },
      {
        "text": "Fraxinus uhdei",
        "type": "Nombre_cientifico",
        "offset": [
          403,
          417
        ]
      },
      {
        "text": "Solanum rantonnetii",
        "type": "Nombre_cientifico",
        "offset": [
          491,
          510
        ]
      },
      {
        "text": "Pyrostegia ignea",
        "type": "Nombre_cientifico",
        "offset": [
          473,
          489
        ]
      },
      {
        "text": "Ligustrum lucidum",
        "type": "Nombre_cientifico",
        "offset": [
          384,
          401
        ]
      },
      {
        "text": "Duranta repens",
        "type": "Nombre_cientifico",
        "offset": [
          368,
          382
        ]
      },
      {
        "text": "Cytisus maderensis",
        "type": "Nombre_cientifico",
        "offset": [
          590,
          608
        ]
      }
    ]
  ],
  [
    11,
    "\r\n",
    []
  ],
  [
    12,
    "\r\n",
    []
  ],
  [
    13,
    "El parque Hidalgo \r\n",
    []
  ],
  [
    14,
    "\r\n",
    []
  ],
  [
    15,
    "Ubicado en la parte oriente de la ciudad, \u00e9ste fue planeado y dise\u00f1ado en lo que otrora fuesen los m\u00e1rgenes de un r\u00edo que corr\u00eda de este a oeste, y que en la actualidad es la avenida Adolfo L\u00f3pez Mateos.\r\n",
    []
  ],
  [
    16,
    "En este parque se observan evidencias de este pasado al contar con la presencia de grandes \u00e1rboles riparios como ahuehuetes (Taxodium mucronatum), fresnos (Fraxinus uhdei), \u00e1lamos (Populus canadensis) (figura 4.5.2), sauces (Salix babylonica), adem\u00e1s se encuentran grandes individuos de palma abanico (Washigtonia robusta), frutales, entre otros.\r\n",
    [
      {
        "text": "Taxodium mucronatum",
        "type": "Nombre_cientifico",
        "offset": [
          125,
          144
        ]
      },
      {
        "text": "\u00e1lamos",
        "type": "Nombre_comun",
        "offset": [
          173,
          179
        ]
      },
      {
        "text": "fresnos",
        "type": "Nombre_comun",
        "offset": [
          147,
          154
        ]
      },
      {
        "text": "ahuehuetes",
        "type": "Nombre_comun",
        "offset": [
          113,
          123
        ]
      },
      {
        "text": "palma abanico",
        "type": "Nombre_comun",
        "offset": [
          287,
          300
        ]
      },
      {
        "text": "Washigtonia robusta",
        "type": "Nombre_cientifico",
        "offset": [
          302,
          321
        ]
      },
      {
        "text": "Fraxinus uhdei",
        "type": "Nombre_cientifico",
        "offset": [
          156,
          170
        ]
      },
      {
        "text": "Populus canadensis",
        "type": "Nombre_cientifico",
        "offset": [
          181,
          199
        ]
      },
      {
        "arg2_text": "Salix babylonica",
        "arg1_offset": [
          217,
          223
        ],
        "arg2_line": 16,
        "arg2_offset": [
          225,
          241
        ],
        "arg1_text": "sauces",
        "type": "alias",
        "arg1_line": 16
      },
      {
        "arg2_text": "Washigtonia robusta",
        "arg1_offset": [
          287,
          300
        ],
        "arg2_line": 16,
        "arg2_offset": [
          302,
          321
        ],
        "arg1_text": "palma abanico",
        "type": "alias",
        "arg1_line": 16
      },
      {
        "arg2_text": "Taxodium mucronatum",
        "arg1_offset": [
          113,
          123
        ],
        "arg2_line": 16,
        "arg2_offset": [
          125,
          144
        ],
        "arg1_text": "ahuehuetes",
        "type": "alias",
        "arg1_line": 16
      },
      {
        "arg2_text": "Fraxinus uhdei",
        "arg1_offset": [
          147,
          154
        ],
        "arg2_line": 16,
        "arg2_offset": [
          156,
          170
        ],
        "arg1_text": "fresnos",
        "type": "alias",
        "arg1_line": 16
      },
      {
        "arg2_text": "Populus canadensis",
        "arg1_offset": [
          173,
          179
        ],
        "arg2_line": 16,
        "arg2_offset": [
          181,
          199
        ],
        "arg1_text": "\u00e1lamos",
        "type": "alias",
        "arg1_line": 16
      },
      {
        "text": "Salix babylonica",
        "type": "Nombre_cientifico",
        "offset": [
          225,
          241
        ]
      },
      {
        "text": "sauces",
        "type": "Nombre_comun",
        "offset": [
          217,
          223
        ]
      }
    ]
  ],
  [
    17,
    "\r\n",
    []
  ],
  [
    18,
    "La Alameda \r\n",
    []
  ],
  [
    19,
    "\r\n",
    []
  ],
  [
    20,
    "Ubicada al oriente de la ciudad corre de la antigua estaci\u00f3n de trenes a los ba\u00f1os viejos del Ojocaliente, como su nombre lo indica originalmente estaba constituida principalmente por \u00e1lamos y algunas jacarandas; en la actualidad, adem\u00e1s de Populus canadensis, se encuentran Eucaliptus camaldulensis, Fraxinus uhdei, Casuarina equisetifolia, Paulownia tomentosa, entre otros.\r\n",
    [
      {
        "text": "Populus canadensis",
        "type": "Nombre_cientifico",
        "offset": [
          241,
          259
        ]
      },
      {
        "text": "Eucaliptus camaldulensis",
        "type": "Nombre_cientifico",
        "offset": [
          275,
          299
        ]
      },
      {
        "text": "Casuarina equisetifolia",
        "type": "Nombre_cientifico",
        "offset": [
          317,
          340
        ]
      },
      {
        "text": "Fraxinus uhdei",
        "type": "Nombre_cientifico",
        "offset": [
          301,
          315
        ]
      },
      {
        "text": "Paulownia tomentosa",
        "type": "Nombre_cientifico",
        "offset": [
          342,
          361
        ]
      }
    ]
  ],
  [
    21,
    "\r\n",
    []
  ],
  [
    22,
    "Parque Rodolfo Landeros (antes parque H\u00e9roes Mexicanos) \r\n",
    []
  ],
  [
    23,
    "\r\n",
    []
  ],
  [
    24,
    "Ubicado al sur de la ciudad, considerado como el m\u00e1s importante por su extensi\u00f3n.\r\n",
    []
  ],
  [
    25,
    "Grandes \u00e1reas est\u00e1n ocupadas por \u00e1lamos (Populus canadensis, P. deltoides), \u00e1lamo plateado (P. alba), sauces (Salix babylonica y S. bonplandiana), fresnos (Fraxinus uhdei y F. velutina), eucaliptos (Eucalyptus camaldulensis y E. cinerea), cedros (Juniperus virginiana y J. virginiana var. glabra), pirul criollo (Schinus molle), pirul chino (Schinus terebinthifolius), mezquite (Prosopis laevigata), sabino o ahuehuete (Taxodium mucronatum), pino (Pinus radiata), olivo (Olea europaea), cipr\u00e9s (Cupressus lusitanica), tamarisco (Tamarix gallica), liquid\u00e1mbar (Liquidambar styraciflua), arce (Acer negundo), palma (Washingtonia robusta), bamb\u00fa (Bambusa vulgaris), carrizo (Arundo donax), acacia (Acacia retinodes), buganvilia (Bougainvillea glabra) y floripondio (Brugmansia suaveolens).\r\n",
    [
      {
        "text": "cipr\u00e9s",
        "type": "Nombre_comun",
        "offset": [
          487,
          493
        ]
      },
      {
        "text": "\u00e1lamos",
        "type": "Nombre_comun",
        "offset": [
          33,
          39
        ]
      },
      {
        "text": "Washingtonia robusta",
        "type": "Nombre_cientifico",
        "offset": [
          614,
          634
        ]
      },
      {
        "text": "Tamarix gallica",
        "type": "Nombre_cientifico",
        "offset": [
          529,
          544
        ]
      },
      {
        "text": "bamb\u00fa",
        "type": "Nombre_comun",
        "offset": [
          637,
          642
        ]
      },
      {
        "text": "Juniperus virginiana",
        "type": "Nombre_cientifico",
        "offset": [
          247,
          267
        ]
      },
      {
        "text": "liquid\u00e1mbar",
        "type": "Nombre_comun",
        "offset": [
          547,
          558
        ]
      },
      {
        "text": "tamarisco",
        "type": "Nombre_comun",
        "offset": [
          518,
          527
        ]
      },
      {
        "text": "palma",
        "type": "Nombre_comun",
        "offset": [
          607,
          612
        ]
      },
      {
        "text": "arce",
        "type": "Nombre_comun",
        "offset": [
          586,
          590
        ]
      },
      {
        "text": "pino",
        "type": "Nombre_comun",
        "offset": [
          442,
          446
        ]
      },
      {
        "text": "sabino",
        "type": "Nombre_comun",
        "offset": [
          400,
          406
        ]
      },
      {
        "text": "olivo",
        "type": "Nombre_comun",
        "offset": [
          464,
          469
        ]
      },
      {
        "text": "Pinus radiata",
        "type": "Nombre_cientifico",
        "offset": [
          448,
          461
        ]
      },
      {
        "text": "Acer negundo",
        "type": "Nombre_cientifico",
        "offset": [
          592,
          604
        ]
      },
      {
        "text": "carrizo",
        "type": "Nombre_comun",
        "offset": [
          663,
          670
        ]
      },
      {
        "text": "Liquidambar styraciflua",
        "type": "Nombre_cientifico",
        "offset": [
          560,
          583
        ]
      },
      {
        "text": "F. velutina",
        "type": "Nombre_cientifico",
        "offset": [
          173,
          184
        ]
      },
      {
        "text": "S. bonplandiana",
        "type": "Nombre_cientifico",
        "offset": [
          129,
          144
        ]
      },
      {
        "text": "Eucalyptus camaldulensis",
        "type": "Nombre_cientifico",
        "offset": [
          199,
          223
        ]
      },
      {
        "text": "P. deltoides",
        "type": "Nombre_cientifico",
        "offset": [
          61,
          73
        ]
      },
      {
        "text": "Fraxinus uhdei",
        "type": "Nombre_cientifico",
        "offset": [
          156,
          170
        ]
      },
      {
        "arg2_text": "Brugmansia suaveolens",
        "arg1_offset": [
          750,
          761
        ],
        "arg2_line": 25,
        "arg2_offset": [
          763,
          784
        ],
        "arg1_text": "floripondio",
        "type": "alias",
        "arg1_line": 25
      },
      {
        "arg2_text": "Bambusa vulgaris",
        "arg1_offset": [
          637,
          642
        ],
        "arg2_line": 25,
        "arg2_offset": [
          644,
          660
        ],
        "arg1_text": "bamb\u00fa",
        "type": "alias",
        "arg1_line": 25
      },
      {
        "arg2_text": "Arundo donax",
        "arg1_offset": [
          663,
          670
        ],
        "arg2_line": 25,
        "arg2_offset": [
          672,
          684
        ],
        "arg1_text": "carrizo",
        "type": "alias",
        "arg1_line": 25
      },
      {
        "arg2_text": "Acacia retinodes",
        "arg1_offset": [
          687,
          693
        ],
        "arg2_line": 25,
        "arg2_offset": [
          695,
          711
        ],
        "arg1_text": "acacia",
        "type": "alias",
        "arg1_line": 25
      },
      {
        "arg2_text": "Bougainvillea glabra",
        "arg1_offset": [
          714,
          724
        ],
        "arg2_line": 25,
        "arg2_offset": [
          726,
          746
        ],
        "arg1_text": "buganvilia",
        "type": "alias",
        "arg1_line": 25
      },
      {
        "arg2_text": "Populus canadensis",
        "arg1_offset": [
          33,
          39
        ],
        "arg2_line": 25,
        "arg2_offset": [
          41,
          59
        ],
        "arg1_text": "\u00e1lamos",
        "type": "alias",
        "arg1_line": 25
      },
      {
        "arg2_text": "P. deltoides",
        "arg1_offset": [
          33,
          39
        ],
        "arg2_line": 25,
        "arg2_offset": [
          61,
          73
        ],
        "arg1_text": "\u00e1lamos",
        "type": "alias",
        "arg1_line": 25
      },
      {
        "arg2_text": "P. deltoides",
        "arg1_offset": [
          33,
          39
        ],
        "arg2_line": 25,
        "arg2_offset": [
          61,
          73
        ],
        "arg1_text": "\u00e1lamos",
        "type": "alias",
        "arg1_line": 25
      },
      {
        "arg2_text": "P. alba",
        "arg1_offset": [
          76,
          90
        ],
        "arg2_line": 25,
        "arg2_offset": [
          92,
          99
        ],
        "arg1_text": "\u00e1lamo plateado",
        "type": "alias",
        "arg1_line": 25
      },
      {
        "text": "acacia",
        "type": "Nombre_comun",
        "offset": [
          687,
          693
        ]
      },
      {
        "text": "buganvilia",
        "type": "Nombre_comun",
        "offset": [
          714,
          724
        ]
      },
      {
        "text": "floripondio",
        "type": "Nombre_comun",
        "offset": [
          750,
          761
        ]
      },
      {
        "text": "E. cinerea",
        "type": "Nombre_cientifico",
        "offset": [
          226,
          236
        ]
      },
      {
        "text": "Schinus terebinthifolius",
        "type": "Nombre_cientifico",
        "offset": [
          342,
          366
        ]
      },
      {
        "text": "Arundo donax",
        "type": "Nombre_cientifico",
        "offset": [
          672,
          684
        ]
      },
      {
        "text": "Acacia retinodes",
        "type": "Nombre_cientifico",
        "offset": [
          695,
          711
        ]
      },
      {
        "arg2_text": "Juniperus virginiana",
        "arg1_offset": [
          239,
          245
        ],
        "arg2_line": 25,
        "arg2_offset": [
          247,
          267
        ],
        "arg1_text": "cedros",
        "type": "alias",
        "arg1_line": 25
      },
      {
        "arg2_text": "J. virginiana var. glabra",
        "arg1_offset": [
          239,
          245
        ],
        "arg2_line": 25,
        "arg2_offset": [
          270,
          295
        ],
        "arg1_text": "cedros",
        "type": "alias",
        "arg1_line": 25
      },
      {
        "arg2_text": "Eucalyptus camaldulensis",
        "arg1_offset": [
          187,
          197
        ],
        "arg2_line": 25,
        "arg2_offset": [
          199,
          223
        ],
        "arg1_text": "eucaliptos",
        "type": "alias",
        "arg1_line": 25
      },
      {
        "arg2_text": "E. cinerea",
        "arg1_offset": [
          187,
          197
        ],
        "arg2_line": 25,
        "arg2_offset": [
          226,
          236
        ],
        "arg1_text": "eucaliptos",
        "type": "alias",
        "arg1_line": 25
      },
      {
        "arg2_text": "Fraxinus uhdei",
        "arg1_offset": [
          147,
          154
        ],
        "arg2_line": 25,
        "arg2_offset": [
          156,
          170
        ],
        "arg1_text": "fresnos",
        "type": "alias",
        "arg1_line": 25
      },
      {
        "arg2_text": "F. velutina",
        "arg1_offset": [
          147,
          154
        ],
        "arg2_line": 25,
        "arg2_offset": [
          173,
          184
        ],
        "arg1_text": "fresnos",
        "type": "alias",
        "arg1_line": 25
      },
      {
        "arg2_text": "Salix babylonica",
        "arg1_offset": [
          102,
          108
        ],
        "arg2_line": 25,
        "arg2_offset": [
          110,
          126
        ],
        "arg1_text": "sauces",
        "type": "alias",
        "arg1_line": 25
      },
      {
        "arg2_text": "S. bonplandiana",
        "arg1_offset": [
          102,
          108
        ],
        "arg2_line": 25,
        "arg2_offset": [
          129,
          144
        ],
        "arg1_text": "sauces",
        "type": "alias",
        "arg1_line": 25
      },
      {
        "arg2_text": "Schinus molle",
        "arg1_offset": [
          298,
          311
        ],
        "arg2_line": 25,
        "arg2_offset": [
          313,
          326
        ],
        "arg1_text": "pirul criollo",
        "type": "alias",
        "arg1_line": 25
      },
      {
        "arg2_text": "Schinus terebinthifolius",
        "arg1_offset": [
          329,
          340
        ],
        "arg2_line": 25,
        "arg2_offset": [
          342,
          366
        ],
        "arg1_text": "pirul chino",
        "type": "alias",
        "arg1_line": 25
      },
      {
        "text": "Taxodium mucronatum",
        "type": "Nombre_cientifico",
        "offset": [
          420,
          439
        ]
      },
      {
        "text": "Brugmansia suaveolens",
        "type": "Nombre_cientifico",
        "offset": [
          763,
          784
        ]
      },
      {
        "text": "Bougainvillea glabra",
        "type": "Nombre_cientifico",
        "offset": [
          726,
          746
        ]
      },
      {
        "text": "Prosopis laevigata",
        "type": "Nombre_cientifico",
        "offset": [
          379,
          397
        ]
      },
      {
        "text": "mezquite",
        "type": "Nombre_comun",
        "offset": [
          369,
          377
        ]
      },
      {
        "text": "ahuehuete",
        "type": "Nombre_comun",
        "offset": [
          409,
          418
        ]
      },
      {
        "text": "sauces",
        "type": "Nombre_comun",
        "offset": [
          102,
          108
        ]
      },
      {
        "text": "fresnos",
        "type": "Nombre_comun",
        "offset": [
          147,
          154
        ]
      },
      {
        "text": "\u00e1lamo plateado",
        "type": "Nombre_comun",
        "offset": [
          76,
          90
        ]
      },
      {
        "text": "P. alba",
        "type": "Nombre_cientifico",
        "offset": [
          92,
          99
        ]
      },
      {
        "text": "pirul criollo",
        "type": "Nombre_comun",
        "offset": [
          298,
          311
        ]
      },
      {
        "text": "pirul chino",
        "type": "Nombre_comun",
        "offset": [
          329,
          340
        ]
      },
      {
        "text": "eucaliptos",
        "type": "Nombre_comun",
        "offset": [
          187,
          197
        ]
      },
      {
        "text": "cedros",
        "type": "Nombre_comun",
        "offset": [
          239,
          245
        ]
      },
      {
        "text": "Cupressus lusitanica",
        "type": "Nombre_cientifico",
        "offset": [
          495,
          515
        ]
      },
      {
        "text": "Olea europaea",
        "type": "Nombre_cientifico",
        "offset": [
          471,
          484
        ]
      },
      {
        "text": "Populus canadensis",
        "type": "Nombre_cientifico",
        "offset": [
          41,
          59
        ]
      },
      {
        "text": "Salix babylonica",
        "type": "Nombre_cientifico",
        "offset": [
          110,
          126
        ]
      },
      {
        "text": "Schinus molle",
        "type": "Nombre_cientifico",
        "offset": [
          313,
          326
        ]
      },
      {
        "text": "J. virginiana var. glabra",
        "type": "Nombre_cientifico",
        "offset": [
          270,
          295
        ]
      },
      {
        "text": "Bambusa vulgaris",
        "type": "Nombre_cientifico",
        "offset": [
          644,
          660
        ]
      },
      {
        "arg2_text": "Washingtonia robusta",
        "arg1_offset": [
          607,
          612
        ],
        "arg2_line": 25,
        "arg2_offset": [
          614,
          634
        ],
        "arg1_text": "palma",
        "type": "alias",
        "arg1_line": 25
      },
      {
        "arg2_text": "Acer negundo",
        "arg1_offset": [
          586,
          590
        ],
        "arg2_line": 25,
        "arg2_offset": [
          592,
          604
        ],
        "arg1_text": "arce",
        "type": "alias",
        "arg1_line": 25
      },
      {
        "arg2_text": "Liquidambar styraciflua",
        "arg1_offset": [
          547,
          558
        ],
        "arg2_line": 25,
        "arg2_offset": [
          560,
          583
        ],
        "arg1_text": "liquid\u00e1mbar",
        "type": "alias",
        "arg1_line": 25
      },
      {
        "arg2_text": "Tamarix gallica",
        "arg1_offset": [
          518,
          527
        ],
        "arg2_line": 25,
        "arg2_offset": [
          529,
          544
        ],
        "arg1_text": "tamarisco",
        "type": "alias",
        "arg1_line": 25
      },
      {
        "arg2_text": "Cupressus lusitanica",
        "arg1_offset": [
          487,
          493
        ],
        "arg2_line": 25,
        "arg2_offset": [
          495,
          515
        ],
        "arg1_text": "cipr\u00e9s",
        "type": "alias",
        "arg1_line": 25
      },
      {
        "arg2_text": "Olea europaea",
        "arg1_offset": [
          464,
          469
        ],
        "arg2_line": 25,
        "arg2_offset": [
          471,
          484
        ],
        "arg1_text": "olivo",
        "type": "alias",
        "arg1_line": 25
      },
      {
        "arg2_text": "Pinus radiata",
        "arg1_offset": [
          442,
          446
        ],
        "arg2_line": 25,
        "arg2_offset": [
          448,
          461
        ],
        "arg1_text": "pino",
        "type": "alias",
        "arg1_line": 25
      },
      {
        "arg2_text": "Taxodium mucronatum",
        "arg1_offset": [
          409,
          418
        ],
        "arg2_line": 25,
        "arg2_offset": [
          420,
          439
        ],
        "arg1_text": "ahuehuete",
        "type": "alias",
        "arg1_line": 25
      },
      {
        "arg2_text": "Taxodium mucronatum",
        "arg1_offset": [
          400,
          406
        ],
        "arg2_line": 25,
        "arg2_offset": [
          420,
          439
        ],
        "arg1_text": "sabino",
        "type": "alias",
        "arg1_line": 25
      },
      {
        "arg2_text": "Prosopis laevigata",
        "arg1_offset": [
          369,
          377
        ],
        "arg2_line": 25,
        "arg2_offset": [
          379,
          397
        ],
        "arg1_text": "mezquite",
        "type": "alias",
        "arg1_line": 25
      }
    ]
  ],
  [
    26,
    "\r\n",
    []
  ],
  [
    27,
    "Parque El Cedazo\r\n",
    []
  ],
  [
    28,
    "\r\n",
    []
  ],
  [
    29,
    "Ubicado al oriente de la ciudad, cuenta con un cuerpo de agua de aproximadamente 14 ha, predominan las siguientes especies: sauce llor\u00f3n (Salix babil\u00f3nica), casuarina (Casuarina equisetifolia), pirul criollo (Schinus molle), pirul chino (Schinus terebinthifolius), cedro lim\u00f3n (Cupressus macrocarpa), cedro panteonero (Cupressus sempervirens), mezquite (Prosopis laevigata), grevilea (Grevillea robusta), eucalipto (Eucaliptus camaldulensis), fresno (Fraxinus uhdei), \u00e1lamo plateado (Populus alba), piracanto (Pyracantha crenato-serrata), jaral (Baccharis heterophylla), Hebe salicifolia y un \u00e1rbol \u00fanico llamado Bocconia frutescens.\r\n",
    [
      {
        "text": "Cupressus macrocarpa",
        "type": "Nombre_cientifico",
        "offset": [
          278,
          298
        ]
      },
      {
        "text": "Schinus terebinthifolius",
        "type": "Nombre_cientifico",
        "offset": [
          238,
          262
        ]
      },
      {
        "arg2_text": "Schinus terebinthifolius",
        "arg1_offset": [
          226,
          236
        ],
        "arg2_line": 29,
        "arg2_offset": [
          238,
          262
        ],
        "arg1_text": "irul chino",
        "type": "alias",
        "arg1_line": 29
      },
      {
        "arg2_text": "Cupressus macrocarpa",
        "arg1_offset": [
          265,
          276
        ],
        "arg2_line": 29,
        "arg2_offset": [
          278,
          298
        ],
        "arg1_text": "cedro lim\u00f3n",
        "type": "alias",
        "arg1_line": 29
      },
      {
        "arg2_text": "Salix babil\u00f3nica",
        "arg1_offset": [
          124,
          136
        ],
        "arg2_line": 29,
        "arg2_offset": [
          138,
          154
        ],
        "arg1_text": "sauce llor\u00f3n",
        "type": "alias",
        "arg1_line": 29
      },
      {
        "arg2_text": "Casuarina equisetifolia",
        "arg1_offset": [
          157,
          166
        ],
        "arg2_line": 29,
        "arg2_offset": [
          168,
          191
        ],
        "arg1_text": "casuarina",
        "type": "alias",
        "arg1_line": 29
      },
      {
        "arg2_text": "Schinus molle",
        "arg1_offset": [
          194,
          207
        ],
        "arg2_line": 29,
        "arg2_offset": [
          209,
          222
        ],
        "arg1_text": "pirul criollo",
        "type": "alias",
        "arg1_line": 29
      },
      {
        "text": "cedro panteonero",
        "type": "Nombre_comun",
        "offset": [
          301,
          317
        ]
      },
      {
        "text": "mezquite",
        "type": "Nombre_comun",
        "offset": [
          344,
          352
        ]
      },
      {
        "text": "casuarina",
        "type": "Nombre_comun",
        "offset": [
          157,
          166
        ]
      },
      {
        "text": "pirul criollo",
        "type": "Nombre_comun",
        "offset": [
          194,
          207
        ]
      },
      {
        "text": "irul chino",
        "type": "Nombre_comun",
        "offset": [
          226,
          236
        ]
      },
      {
        "text": "cedro lim\u00f3n",
        "type": "Nombre_comun",
        "offset": [
          265,
          276
        ]
      },
      {
        "arg2_text": "Populus alba",
        "arg1_offset": [
          468,
          482
        ],
        "arg2_line": 29,
        "arg2_offset": [
          484,
          496
        ],
        "arg1_text": "\u00e1lamo plateado",
        "type": "alias",
        "arg1_line": 29
      },
      {
        "arg2_text": "Fraxinus uhdei",
        "arg1_offset": [
          443,
          449
        ],
        "arg2_line": 29,
        "arg2_offset": [
          451,
          465
        ],
        "arg1_text": "fresno",
        "type": "alias",
        "arg1_line": 29
      },
      {
        "arg2_text": "Baccharis heterophylla",
        "arg1_offset": [
          539,
          544
        ],
        "arg2_line": 29,
        "arg2_offset": [
          546,
          568
        ],
        "arg1_text": "jaral",
        "type": "alias",
        "arg1_line": 29
      },
      {
        "arg2_text": "Pyracantha crenato-serrata",
        "arg1_offset": [
          499,
          508
        ],
        "arg2_line": 29,
        "arg2_offset": [
          510,
          536
        ],
        "arg1_text": "piracanto",
        "type": "alias",
        "arg1_line": 29
      },
      {
        "arg2_text": "Prosopis laevigata",
        "arg1_offset": [
          344,
          352
        ],
        "arg2_line": 29,
        "arg2_offset": [
          354,
          372
        ],
        "arg1_text": "mezquite",
        "type": "alias",
        "arg1_line": 29
      },
      {
        "arg2_text": "Cupressus sempervirens",
        "arg1_offset": [
          301,
          317
        ],
        "arg2_line": 29,
        "arg2_offset": [
          319,
          341
        ],
        "arg1_text": "cedro panteonero",
        "type": "alias",
        "arg1_line": 29
      },
      {
        "arg2_text": "Eucaliptus camaldulensis",
        "arg1_offset": [
          405,
          414
        ],
        "arg2_line": 29,
        "arg2_offset": [
          416,
          440
        ],
        "arg1_text": "eucalipto",
        "type": "alias",
        "arg1_line": 29
      },
      {
        "arg2_text": "Grevillea robusta",
        "arg1_offset": [
          375,
          383
        ],
        "arg2_line": 29,
        "arg2_offset": [
          385,
          402
        ],
        "arg1_text": "grevilea",
        "type": "alias",
        "arg1_line": 29
      },
      {
        "text": "Casuarina equisetifolia",
        "type": "Nombre_cientifico",
        "offset": [
          168,
          191
        ]
      },
      {
        "text": "Schinus molle",
        "type": "Nombre_cientifico",
        "offset": [
          209,
          222
        ]
      },
      {
        "text": "Pyracantha crenato-serrata",
        "type": "Nombre_cientifico",
        "offset": [
          510,
          536
        ]
      },
      {
        "text": "Cupressus sempervirens",
        "type": "Nombre_cientifico",
        "offset": [
          319,
          341
        ]
      },
      {
        "text": "Prosopis laevigata",
        "type": "Nombre_cientifico",
        "offset": [
          354,
          372
        ]
      },
      {
        "text": "Grevillea robusta",
        "type": "Nombre_cientifico",
        "offset": [
          385,
          402
        ]
      },
      {
        "text": "Fraxinus uhdei",
        "type": "Nombre_cientifico",
        "offset": [
          451,
          465
        ]
      },
      {
        "text": "Baccharis heterophylla",
        "type": "Nombre_cientifico",
        "offset": [
          546,
          568
        ]
      },
      {
        "text": "Hebe salicifolia",
        "type": "Nombre_cientifico",
        "offset": [
          571,
          587
        ]
      },
      {
        "text": "Bocconia frutescens",
        "type": "Nombre_cientifico",
        "offset": [
          613,
          632
        ]
      },
      {
        "text": "jaral",
        "type": "Nombre_comun",
        "offset": [
          539,
          544
        ]
      },
      {
        "text": "piracanto",
        "type": "Nombre_comun",
        "offset": [
          499,
          508
        ]
      },
      {
        "text": "\u00e1lamo plateado",
        "type": "Nombre_comun",
        "offset": [
          468,
          482
        ]
      },
      {
        "text": "fresno",
        "type": "Nombre_comun",
        "offset": [
          443,
          449
        ]
      },
      {
        "text": "Eucaliptus camaldulensis",
        "type": "Nombre_cientifico",
        "offset": [
          416,
          440
        ]
      },
      {
        "text": "eucalipto",
        "type": "Nombre_comun",
        "offset": [
          405,
          414
        ]
      },
      {
        "text": "grevilea",
        "type": "Nombre_comun",
        "offset": [
          375,
          383
        ]
      },
      {
        "text": "Populus alba",
        "type": "Nombre_cientifico",
        "offset": [
          484,
          496
        ]
      },
      {
        "text": "sauce llor\u00f3n",
        "type": "Nombre_comun",
        "offset": [
          124,
          136
        ]
      },
      {
        "text": "Salix babil\u00f3nica",
        "type": "Nombre_cientifico",
        "offset": [
          138,
          154
        ]
      }
    ]
  ],
  [
    30,
    "\r\n",
    []
  ],
  [
    31,
    "Parque M\u00e9xico\r\n",
    []
  ],
  [
    32,
    "\r\n",
    []
  ],
  [
    33,
    "Otro de los m\u00e1s grandes, situado al noreste de la ciudad; entre las especies dominantes que presenta est\u00e1n: eucaliptos (Eucalyptus globulus y E. camaldulensis), cipr\u00e9s (Cupressus lusitanica y C. sempervirens), \u00e1lamo (Populus canadensis), sauce (Salix babylonica y S. bonplandiana), sabino o ahuehuete (Taxodium mucronatum), tuja (Thuja orientalis), pirul criollo (Schinus molle), pirul chino (Schinus terebinthifolius), mezquite (Prosopis laevigata), acacia (Acacia retinodes y A. farnesiana), fresno (Fraxinus uhdei), jacaranda (Jacaranda mimosaefolia), casuarina (Casuarina equisetifolia), grevilea (Grevillea robusta), palo bobo (Ipomoea murucoides), trueno (Ligustrum lucidum), buganvilia (Bougainvillea glabra), rosa laurel (Nerium oleander), plumbago (Plumbago capensis), pitosporo (Pittosporum tobira), retama (Cytisus maderensis), jarilla (Senecio salignus), lantana (Lantana camara) y zacate de las pampas (Cortaderia selloana).\r\n",
    [
      {
        "text": "Senecio salignus",
        "type": "Nombre_cientifico",
        "offset": [
          848,
          864
        ]
      },
      {
        "text": "Lantana camara",
        "type": "Nombre_cientifico",
        "offset": [
          876,
          890
        ]
      },
      {
        "text": "Pittosporum tobira",
        "type": "Nombre_cientifico",
        "offset": [
          789,
          807
        ]
      },
      {
        "text": "Cytisus maderensis",
        "type": "Nombre_cientifico",
        "offset": [
          818,
          836
        ]
      },
      {
        "text": "Nerium oleander",
        "type": "Nombre_cientifico",
        "offset": [
          730,
          745
        ]
      },
      {
        "text": "Plumbago capensis",
        "type": "Nombre_cientifico",
        "offset": [
          758,
          775
        ]
      },
      {
        "text": "Grevillea robusta",
        "type": "Nombre_cientifico",
        "offset": [
          602,
          619
        ]
      },
      {
        "text": "Ipomoea murucoides",
        "type": "Nombre_cientifico",
        "offset": [
          633,
          651
        ]
      },
      {
        "text": "fresno",
        "type": "Nombre_comun",
        "offset": [
          494,
          500
        ]
      },
      {
        "text": "jacaranda",
        "type": "Nombre_comun",
        "offset": [
          519,
          528
        ]
      },
      {
        "text": "mezquite",
        "type": "Nombre_comun",
        "offset": [
          420,
          428
        ]
      },
      {
        "text": "acacia",
        "type": "Nombre_comun",
        "offset": [
          451,
          457
        ]
      },
      {
        "text": "pirul criollo",
        "type": "Nombre_comun",
        "offset": [
          349,
          362
        ]
      },
      {
        "text": "pirul chino",
        "type": "Nombre_comun",
        "offset": [
          380,
          391
        ]
      },
      {
        "text": "ahuehuete",
        "type": "Nombre_comun",
        "offset": [
          291,
          300
        ]
      },
      {
        "text": "tuja",
        "type": "Nombre_comun",
        "offset": [
          324,
          328
        ]
      },
      {
        "text": "sauce",
        "type": "Nombre_comun",
        "offset": [
          238,
          243
        ]
      },
      {
        "text": "sabino",
        "type": "Nombre_comun",
        "offset": [
          282,
          288
        ]
      },
      {
        "text": "Bougainvillea glabra",
        "type": "Nombre_cientifico",
        "offset": [
          694,
          714
        ]
      },
      {
        "text": "Ligustrum lucidum",
        "type": "Nombre_cientifico",
        "offset": [
          662,
          679
        ]
      },
      {
        "text": "A. farnesiana",
        "type": "Nombre_cientifico",
        "offset": [
          478,
          491
        ]
      },
      {
        "text": "Thuja orientalis",
        "type": "Nombre_cientifico",
        "offset": [
          330,
          346
        ]
      },
      {
        "text": "Jacaranda mimosaefolia",
        "type": "Nombre_cientifico",
        "offset": [
          530,
          552
        ]
      },
      {
        "text": "Fraxinus uhdei",
        "type": "Nombre_cientifico",
        "offset": [
          502,
          516
        ]
      },
      {
        "text": "Casuarina equisetifolia",
        "type": "Nombre_cientifico",
        "offset": [
          566,
          589
        ]
      },
      {
        "arg2_text": "Grevillea robusta",
        "arg1_offset": [
          592,
          600
        ],
        "arg2_line": 33,
        "arg2_offset": [
          602,
          619
        ],
        "arg1_text": "grevilea",
        "type": "alias",
        "arg1_line": 33
      },
      {
        "arg2_text": "Ipomoea murucoides",
        "arg1_offset": [
          622,
          631
        ],
        "arg2_line": 33,
        "arg2_offset": [
          633,
          651
        ],
        "arg1_text": "palo bobo",
        "type": "alias",
        "arg1_line": 33
      },
      {
        "arg2_text": "Ligustrum lucidum",
        "arg1_offset": [
          654,
          660
        ],
        "arg2_line": 33,
        "arg2_offset": [
          662,
          679
        ],
        "arg1_text": "trueno",
        "type": "alias",
        "arg1_line": 33
      },
      {
        "arg2_text": "Bougainvillea glabra",
        "arg1_offset": [
          682,
          692
        ],
        "arg2_line": 33,
        "arg2_offset": [
          694,
          714
        ],
        "arg1_text": "buganvilia",
        "type": "alias",
        "arg1_line": 33
      },
      {
        "arg2_text": "Nerium oleander",
        "arg1_offset": [
          717,
          728
        ],
        "arg2_line": 33,
        "arg2_offset": [
          730,
          745
        ],
        "arg1_text": "rosa laurel",
        "type": "alias",
        "arg1_line": 33
      },
      {
        "arg2_text": "Plumbago capensis",
        "arg1_offset": [
          748,
          756
        ],
        "arg2_line": 33,
        "arg2_offset": [
          758,
          775
        ],
        "arg1_text": "plumbago",
        "type": "alias",
        "arg1_line": 33
      },
      {
        "arg2_text": "Pittosporum tobira",
        "arg1_offset": [
          778,
          787
        ],
        "arg2_line": 33,
        "arg2_offset": [
          789,
          807
        ],
        "arg1_text": "pitosporo",
        "type": "alias",
        "arg1_line": 33
      },
      {
        "arg2_text": "Cytisus maderensis",
        "arg1_offset": [
          810,
          816
        ],
        "arg2_line": 33,
        "arg2_offset": [
          818,
          836
        ],
        "arg1_text": "retama",
        "type": "alias",
        "arg1_line": 33
      },
      {
        "arg2_text": "Senecio salignus",
        "arg1_offset": [
          839,
          846
        ],
        "arg2_line": 33,
        "arg2_offset": [
          848,
          864
        ],
        "arg1_text": "jarilla",
        "type": "alias",
        "arg1_line": 33
      },
      {
        "arg2_text": "Lantana camara",
        "arg1_offset": [
          867,
          874
        ],
        "arg2_line": 33,
        "arg2_offset": [
          876,
          890
        ],
        "arg1_text": "lantana",
        "type": "alias",
        "arg1_line": 33
      },
      {
        "text": "Schinus molle",
        "type": "Nombre_cientifico",
        "offset": [
          364,
          377
        ]
      },
      {
        "text": "Schinus terebinthifolius",
        "type": "Nombre_cientifico",
        "offset": [
          393,
          417
        ]
      },
      {
        "text": "Taxodium mucronatum",
        "type": "Nombre_cientifico",
        "offset": [
          302,
          321
        ]
      },
      {
        "arg2_text": "Prosopis laevigata",
        "arg1_offset": [
          420,
          428
        ],
        "arg2_line": 33,
        "arg2_offset": [
          430,
          448
        ],
        "arg1_text": "mezquite",
        "type": "alias",
        "arg1_line": 33
      },
      {
        "text": "lantana",
        "type": "Nombre_comun",
        "offset": [
          867,
          874
        ]
      },
      {
        "text": "grevilea",
        "type": "Nombre_comun",
        "offset": [
          592,
          600
        ]
      },
      {
        "text": "casuarina",
        "type": "Nombre_comun",
        "offset": [
          555,
          564
        ]
      },
      {
        "text": "trueno",
        "type": "Nombre_comun",
        "offset": [
          654,
          660
        ]
      },
      {
        "text": "palo bobo",
        "type": "Nombre_comun",
        "offset": [
          622,
          631
        ]
      },
      {
        "text": "rosa laurel",
        "type": "Nombre_comun",
        "offset": [
          717,
          728
        ]
      },
      {
        "text": "buganvilia",
        "type": "Nombre_comun",
        "offset": [
          682,
          692
        ]
      },
      {
        "text": "pitosporo",
        "type": "Nombre_comun",
        "offset": [
          778,
          787
        ]
      },
      {
        "text": "plumbago",
        "type": "Nombre_comun",
        "offset": [
          748,
          756
        ]
      },
      {
        "text": "S. bonplandiana",
        "type": "Nombre_cientifico",
        "offset": [
          264,
          279
        ]
      },
      {
        "arg2_text": "Cupressus lusitanica",
        "arg1_offset": [
          161,
          167
        ],
        "arg2_line": 33,
        "arg2_offset": [
          169,
          189
        ],
        "arg1_text": "cipr\u00e9s",
        "type": "alias",
        "arg1_line": 33
      },
      {
        "text": "Prosopis laevigata",
        "type": "Nombre_cientifico",
        "offset": [
          430,
          448
        ]
      },
      {
        "text": "Acacia retinodes",
        "type": "Nombre_cientifico",
        "offset": [
          459,
          475
        ]
      },
      {
        "text": "Populus canadensis",
        "type": "Nombre_cientifico",
        "offset": [
          217,
          235
        ]
      },
      {
        "text": "zacate de las pampas",
        "type": "Nombre_comun",
        "offset": [
          894,
          914
        ]
      },
      {
        "text": "Eucalyptus globulus",
        "type": "Nombre_cientifico",
        "offset": [
          120,
          139
        ]
      },
      {
        "text": "C. sempervirens",
        "type": "Nombre_cientifico",
        "offset": [
          192,
          207
        ]
      },
      {
        "text": "E. camaldulensis",
        "type": "Nombre_cientifico",
        "offset": [
          142,
          158
        ]
      },
      {
        "arg2_text": "Eucalyptus globulus",
        "arg1_offset": [
          108,
          118
        ],
        "arg2_line": 33,
        "arg2_offset": [
          120,
          139
        ],
        "arg1_text": "eucaliptos",
        "type": "alias",
        "arg1_line": 33
      },
      {
        "text": "\u00e1lamo",
        "type": "Nombre_comun",
        "offset": [
          210,
          215
        ]
      },
      {
        "text": "cipr\u00e9s",
        "type": "Nombre_comun",
        "offset": [
          161,
          167
        ]
      },
      {
        "text": "eucaliptos",
        "type": "Nombre_comun",
        "offset": [
          108,
          118
        ]
      },
      {
        "arg2_text": "Thuja orientalis",
        "arg1_offset": [
          324,
          328
        ],
        "arg2_line": 33,
        "arg2_offset": [
          330,
          346
        ],
        "arg1_text": "tuja",
        "type": "alias",
        "arg1_line": 33
      },
      {
        "arg2_text": "Schinus molle",
        "arg1_offset": [
          349,
          362
        ],
        "arg2_line": 33,
        "arg2_offset": [
          364,
          377
        ],
        "arg1_text": "pirul criollo",
        "type": "alias",
        "arg1_line": 33
      },
      {
        "arg2_text": "Populus canadensis",
        "arg1_offset": [
          210,
          215
        ],
        "arg2_line": 33,
        "arg2_offset": [
          217,
          235
        ],
        "arg1_text": "\u00e1lamo",
        "type": "alias",
        "arg1_line": 33
      },
      {
        "arg2_text": "Salix babylonica",
        "arg1_offset": [
          238,
          243
        ],
        "arg2_line": 33,
        "arg2_offset": [
          245,
          261
        ],
        "arg1_text": "sauce",
        "type": "alias",
        "arg1_line": 33
      },
      {
        "arg2_text": "E. camaldulensis",
        "arg1_offset": [
          108,
          118
        ],
        "arg2_line": 33,
        "arg2_offset": [
          142,
          158
        ],
        "arg1_text": "eucaliptos",
        "type": "alias",
        "arg1_line": 33
      },
      {
        "arg2_text": "C. sempervirens",
        "arg1_offset": [
          161,
          167
        ],
        "arg2_line": 33,
        "arg2_offset": [
          192,
          207
        ],
        "arg1_text": "cipr\u00e9s",
        "type": "alias",
        "arg1_line": 33
      },
      {
        "arg2_text": "Taxodium mucronatum",
        "arg1_offset": [
          282,
          288
        ],
        "arg2_line": 33,
        "arg2_offset": [
          302,
          321
        ],
        "arg1_text": "sabino",
        "type": "alias",
        "arg1_line": 33
      },
      {
        "arg2_text": "Taxodium mucronatum",
        "arg1_offset": [
          291,
          300
        ],
        "arg2_line": 33,
        "arg2_offset": [
          302,
          321
        ],
        "arg1_text": "ahuehuete",
        "type": "alias",
        "arg1_line": 33
      },
      {
        "arg2_text": "S. bonplandiana",
        "arg1_offset": [
          238,
          243
        ],
        "arg2_line": 33,
        "arg2_offset": [
          264,
          279
        ],
        "arg1_text": "sauce",
        "type": "alias",
        "arg1_line": 33
      },
      {
        "text": "Cortaderia selloana",
        "type": "Nombre_cientifico",
        "offset": [
          916,
          935
        ]
      },
      {
        "text": "jarilla",
        "type": "Nombre_comun",
        "offset": [
          839,
          846
        ]
      },
      {
        "text": "retama",
        "type": "Nombre_comun",
        "offset": [
          810,
          816
        ]
      },
      {
        "text": "Salix babylonica",
        "type": "Nombre_cientifico",
        "offset": [
          245,
          261
        ]
      },
      {
        "text": "Cupressus lusitanica",
        "type": "Nombre_cientifico",
        "offset": [
          169,
          189
        ]
      },
      {
        "arg2_text": "Cortaderia selloana",
        "arg1_offset": [
          894,
          914
        ],
        "arg2_line": 33,
        "arg2_offset": [
          916,
          935
        ],
        "arg1_text": "zacate de las pampas",
        "type": "alias",
        "arg1_line": 33
      },
      {
        "arg2_text": "Schinus terebinthifolius",
        "arg1_offset": [
          380,
          391
        ],
        "arg2_line": 33,
        "arg2_offset": [
          393,
          417
        ],
        "arg1_text": "pirul chino",
        "type": "alias",
        "arg1_line": 33
      },
      {
        "arg2_text": "A. farnesiana",
        "arg1_offset": [
          451,
          457
        ],
        "arg2_line": 33,
        "arg2_offset": [
          478,
          491
        ],
        "arg1_text": "acacia",
        "type": "alias",
        "arg1_line": 33
      },
      {
        "arg2_text": "Fraxinus uhdei",
        "arg1_offset": [
          494,
          500
        ],
        "arg2_line": 33,
        "arg2_offset": [
          502,
          516
        ],
        "arg1_text": "fresno",
        "type": "alias",
        "arg1_line": 33
      },
      {
        "arg2_text": "Acacia retinodes",
        "arg1_offset": [
          451,
          457
        ],
        "arg2_line": 33,
        "arg2_offset": [
          459,
          475
        ],
        "arg1_text": "acacia",
        "type": "alias",
        "arg1_line": 33
      },
      {
        "arg2_text": "Casuarina equisetifolia",
        "arg1_offset": [
          555,
          564
        ],
        "arg2_line": 33,
        "arg2_offset": [
          566,
          589
        ],
        "arg1_text": "casuarina",
        "type": "alias",
        "arg1_line": 33
      },
      {
        "arg2_text": "Jacaranda mimosaefolia",
        "arg1_offset": [
          519,
          528
        ],
        "arg2_line": 33,
        "arg2_offset": [
          530,
          552
        ],
        "arg1_text": "jacaranda",
        "type": "alias",
        "arg1_line": 33
      }
    ]
  ],
  [
    34,
    "\r\n",
    []
  ],
  [
    35,
    "En las calles y avenidas de la ciudad de Aguascalientes es com\u00fan encontrar especies que normalmente se propagan en los viveros municipales como eucaliptos (Eucalyptus camaldulensis, E. globulus), laurel de la india (Ficus retusa), grevilea (Grevillea robusta), trueno (Ligustrum lucidum), clavo o pitosporo (Pittosporum tobira), pirul criollo (Schinus molle) y ficus (Ficus benjamina).\r\n",
    [
      {
        "text": "eucaliptos",
        "type": "Nombre_comun",
        "offset": [
          144,
          154
        ]
      },
      {
        "text": "laurel de la india",
        "type": "Nombre_comun",
        "offset": [
          196,
          214
        ]
      },
      {
        "text": "grevilea",
        "type": "Nombre_comun",
        "offset": [
          231,
          239
        ]
      },
      {
        "text": "trueno",
        "type": "Nombre_comun",
        "offset": [
          261,
          267
        ]
      },
      {
        "text": "clavo",
        "type": "Nombre_comun",
        "offset": [
          289,
          294
        ]
      },
      {
        "text": "pitosporo",
        "type": "Nombre_comun",
        "offset": [
          297,
          306
        ]
      },
      {
        "text": "pirul criollo",
        "type": "Nombre_comun",
        "offset": [
          329,
          342
        ]
      },
      {
        "text": "Ficus benjamina",
        "type": "Nombre_cientifico",
        "offset": [
          368,
          383
        ]
      },
      {
        "text": "Pittosporum tobira",
        "type": "Nombre_cientifico",
        "offset": [
          308,
          326
        ]
      },
      {
        "text": "Schinus molle",
        "type": "Nombre_cientifico",
        "offset": [
          344,
          357
        ]
      },
      {
        "text": "Grevillea robusta",
        "type": "Nombre_cientifico",
        "offset": [
          241,
          258
        ]
      },
      {
        "text": "Ligustrum lucidum",
        "type": "Nombre_cientifico",
        "offset": [
          269,
          286
        ]
      },
      {
        "arg2_text": "Grevillea robusta",
        "arg1_offset": [
          231,
          239
        ],
        "arg2_line": 35,
        "arg2_offset": [
          241,
          258
        ],
        "arg1_text": "grevilea",
        "type": "alias",
        "arg1_line": 35
      },
      {
        "text": "ficus",
        "type": "Nombre_comun",
        "offset": [
          361,
          366
        ]
      },
      {
        "text": "Eucalyptus camaldulensis",
        "type": "Nombre_cientifico",
        "offset": [
          156,
          180
        ]
      },
      {
        "text": "Ficus retusa",
        "type": "Nombre_cientifico",
        "offset": [
          216,
          228
        ]
      },
      {
        "text": "E. globulus",
        "type": "Nombre_cientifico",
        "offset": [
          182,
          193
        ]
      },
      {
        "arg2_text": "Ficus retusa",
        "arg1_offset": [
          196,
          214
        ],
        "arg2_line": 35,
        "arg2_offset": [
          216,
          228
        ],
        "arg1_text": "laurel de la india",
        "type": "alias",
        "arg1_line": 35
      },
      {
        "arg2_text": "E. globulus",
        "arg1_offset": [
          144,
          154
        ],
        "arg2_line": 35,
        "arg2_offset": [
          182,
          193
        ],
        "arg1_text": "eucaliptos",
        "type": "alias",
        "arg1_line": 35
      },
      {
        "arg2_text": "Pittosporum tobira",
        "arg1_offset": [
          289,
          294
        ],
        "arg2_line": 35,
        "arg2_offset": [
          308,
          326
        ],
        "arg1_text": "clavo",
        "type": "alias",
        "arg1_line": 35
      },
      {
        "arg2_text": "Ligustrum lucidum",
        "arg1_offset": [
          261,
          267
        ],
        "arg2_line": 35,
        "arg2_offset": [
          269,
          286
        ],
        "arg1_text": "trueno",
        "type": "alias",
        "arg1_line": 35
      },
      {
        "arg2_text": "Ficus benjamina",
        "arg1_offset": [
          361,
          366
        ],
        "arg2_line": 35,
        "arg2_offset": [
          368,
          383
        ],
        "arg1_text": "ficus",
        "type": "alias",
        "arg1_line": 35
      },
      {
        "arg2_text": "Pittosporum tobira",
        "arg1_offset": [
          297,
          306
        ],
        "arg2_line": 35,
        "arg2_offset": [
          308,
          326
        ],
        "arg1_text": "pitosporo",
        "type": "alias",
        "arg1_line": 35
      },
      {
        "arg2_text": "Schinus molle",
        "arg1_offset": [
          329,
          342
        ],
        "arg2_line": 35,
        "arg2_offset": [
          344,
          357
        ],
        "arg1_text": "pirul criollo",
        "type": "alias",
        "arg1_line": 35
      },
      {
        "arg2_text": "Eucalyptus camaldulensis",
        "arg1_offset": [
          144,
          154
        ],
        "arg2_line": 35,
        "arg2_offset": [
          156,
          180
        ],
        "arg1_text": "eucaliptos",
        "type": "alias",
        "arg1_line": 35
      }
    ]
  ],
  [
    36,
    "En los camellones secundarios se puede encontrar mayor variedad de especies, ya que algunas plantas son sembradas por los habitantes de esa zona.\r\n",
    []
  ],
  [
    37,
    "Entre las principales especies tenemos: pinos (Pinus spp.), tuja (Thuja orientalis), \u00e1lamo (Populus canadensis), palmas (Phoenix canariensis y Arecastrum romanzoffianum), enebro (Juniperus virginiana), palma o yuca (Yucca elephantipes), varios tipos de maguey (Agave angustifolia, A. americana variegata, A. salmiana), olmo chino (Ulmus parvifolia), cedro panteonero (Cupressus sempervirens), cepillo (Callistemon citrinus), azalea (Rhododendron mucronatum), color\u00edn (Erythrina crista-galli, E, americana), casuarina (Casuarina equisetifolia), \u00e1rbol de los farolitos (Koelreuteria elegans) y varias especies de nopales (Opuntia spp.), Cunningamia lanceolada; Cryptomeria japonica; Pinus oocarpa; Iresine lindenii; Chorisia speciosa; Ehretia tinifolia: Acanthocereus horridus; Opuntia leucotricha; Tamarindus indica; Quisqualis indica; Ditaxis heterantha; Quercus potosina; Magnolia virginiana; Trichilia havanensis; Ficus altisima; Acca sellowiana; Eucalyptus robusta; Bocconia frutescens; Baccharis heterophylla; Jatropha dioica; Manihot esculenta var. variegata; Euphorbia marginata; Condalia velutina; Skimmia reevesiana y Camellia japonica.\r\n",
    [
      {
        "text": "Trichilia havanensis",
        "type": "Nombre_cientifico",
        "offset": [
          894,
          914
        ]
      },
      {
        "text": "Koelreuteria elegans",
        "type": "Nombre_cientifico",
        "offset": [
          568,
          588
        ]
      },
      {
        "text": "Casuarina equisetifolia",
        "type": "Nombre_cientifico",
        "offset": [
          518,
          541
        ]
      },
      {
        "text": "Opuntia",
        "type": "Nombre_cientifico",
        "offset": [
          620,
          627
        ]
      },
      {
        "text": "Cryptomeria japonica",
        "type": "Nombre_cientifico",
        "offset": [
          659,
          679
        ]
      },
      {
        "text": "Cupressus sempervirens",
        "type": "Nombre_cientifico",
        "offset": [
          368,
          390
        ]
      },
      {
        "text": "Callistemon citrinus",
        "type": "Nombre_cientifico",
        "offset": [
          402,
          422
        ]
      },
      {
        "text": "Rhododendron mucronatum",
        "type": "Nombre_cientifico",
        "offset": [
          433,
          456
        ]
      },
      {
        "text": "Erythrina crista-galli",
        "type": "Nombre_cientifico",
        "offset": [
          468,
          490
        ]
      },
      {
        "text": "Pinus oocarpa",
        "type": "Nombre_cientifico",
        "offset": [
          681,
          694
        ]
      },
      {
        "text": "Iresine lindenii",
        "type": "Nombre_cientifico",
        "offset": [
          696,
          712
        ]
      },
      {
        "arg2_text": "Cupressus sempervirens",
        "arg1_offset": [
          350,
          366
        ],
        "arg2_line": 37,
        "arg2_offset": [
          368,
          390
        ],
        "arg1_text": "cedro panteonero",
        "type": "alias",
        "arg1_line": 37
      },
      {
        "arg2_text": "Callistemon citrinus",
        "arg1_offset": [
          393,
          400
        ],
        "arg2_line": 37,
        "arg2_offset": [
          402,
          422
        ],
        "arg1_text": "cepillo",
        "type": "alias",
        "arg1_line": 37
      },
      {
        "arg2_text": "A. salmiana",
        "arg1_offset": [
          253,
          259
        ],
        "arg2_line": 37,
        "arg2_offset": [
          305,
          316
        ],
        "arg1_text": "maguey",
        "type": "alias",
        "arg1_line": 37
      },
      {
        "arg2_text": "Ulmus parvifolia",
        "arg1_offset": [
          319,
          329
        ],
        "arg2_line": 37,
        "arg2_offset": [
          331,
          347
        ],
        "arg1_text": "olmo chino",
        "type": "alias",
        "arg1_line": 37
      },
      {
        "arg2_text": "Yucca elephantipes",
        "arg1_offset": [
          210,
          214
        ],
        "arg2_line": 37,
        "arg2_offset": [
          216,
          234
        ],
        "arg1_text": "yuca",
        "type": "alias",
        "arg1_line": 37
      },
      {
        "arg2_text": "Juniperus virginiana",
        "arg1_offset": [
          171,
          177
        ],
        "arg2_line": 37,
        "arg2_offset": [
          179,
          199
        ],
        "arg1_text": "enebro",
        "type": "alias",
        "arg1_line": 37
      },
      {
        "arg2_text": "Yucca elephantipes",
        "arg1_offset": [
          202,
          207
        ],
        "arg2_line": 37,
        "arg2_offset": [
          216,
          234
        ],
        "arg1_text": "palma",
        "type": "alias",
        "arg1_line": 37
      },
      {
        "arg2_text": "Phoenix canariensis",
        "arg1_offset": [
          113,
          119
        ],
        "arg2_line": 37,
        "arg2_offset": [
          121,
          140
        ],
        "arg1_text": "palmas",
        "type": "alias",
        "arg1_line": 37
      },
      {
        "arg2_text": "Arecastrum romanzoffianum",
        "arg1_offset": [
          113,
          119
        ],
        "arg2_line": 37,
        "arg2_offset": [
          143,
          168
        ],
        "arg1_text": "palmas",
        "type": "alias",
        "arg1_line": 37
      },
      {
        "text": "Eucalyptus robusta",
        "type": "Nombre_cientifico",
        "offset": [
          949,
          967
        ]
      },
      {
        "text": "Ficus altisima",
        "type": "Nombre_cientifico",
        "offset": [
          916,
          930
        ]
      },
      {
        "text": "Bocconia frutescens",
        "type": "Nombre_cientifico",
        "offset": [
          969,
          988
        ]
      },
      {
        "text": "Manihot esculenta var. variegata",
        "type": "Nombre_cientifico",
        "offset": [
          1031,
          1063
        ]
      },
      {
        "text": "Acca sellowiana",
        "type": "Nombre_cientifico",
        "offset": [
          932,
          947
        ]
      },
      {
        "text": "Baccharis heterophylla",
        "type": "Nombre_cientifico",
        "offset": [
          990,
          1012
        ]
      },
      {
        "text": "Euphorbia marginata",
        "type": "Nombre_cientifico",
        "offset": [
          1065,
          1084
        ]
      },
      {
        "text": "Phoenix canariensis",
        "type": "Nombre_cientifico",
        "offset": [
          121,
          140
        ]
      },
      {
        "text": "Arecastrum romanzoffianum",
        "type": "Nombre_cientifico",
        "offset": [
          143,
          168
        ]
      },
      {
        "text": "Thuja orientalis",
        "type": "Nombre_cientifico",
        "offset": [
          66,
          82
        ]
      },
      {
        "text": "Populus canadensis",
        "type": "Nombre_cientifico",
        "offset": [
          92,
          110
        ]
      },
      {
        "text": "A. salmiana",
        "type": "Nombre_cientifico",
        "offset": [
          305,
          316
        ]
      },
      {
        "text": "Ulmus parvifolia",
        "type": "Nombre_cientifico",
        "offset": [
          331,
          347
        ]
      },
      {
        "text": "Ehretia tinifolia",
        "type": "Nombre_cientifico",
        "offset": [
          733,
          750
        ]
      },
      {
        "text": "Acanthocereus horridus",
        "type": "Nombre_cientifico",
        "offset": [
          752,
          774
        ]
      },
      {
        "text": "Pinus",
        "type": "Nombre_cientifico",
        "offset": [
          47,
          52
        ]
      },
      {
        "text": "Magnolia virginiana",
        "type": "Nombre_cientifico",
        "offset": [
          873,
          892
        ]
      },
      {
        "text": "Yucca elephantipes",
        "type": "Nombre_cientifico",
        "offset": [
          216,
          234
        ]
      },
      {
        "text": "azalea",
        "type": "Nombre_comun",
        "offset": [
          425,
          431
        ]
      },
      {
        "text": "color\u00edn",
        "type": "Nombre_comun",
        "offset": [
          459,
          466
        ]
      },
      {
        "text": "nopales",
        "type": "Nombre_comun",
        "offset": [
          611,
          618
        ]
      },
      {
        "text": "Juniperus virginiana",
        "type": "Nombre_cientifico",
        "offset": [
          179,
          199
        ]
      },
      {
        "text": "\u00e1rbol de los farolitos",
        "type": "Nombre_comun",
        "offset": [
          544,
          566
        ]
      },
      {
        "text": "Cunningamia lanceolada",
        "type": "Nombre_cientifico",
        "offset": [
          635,
          657
        ]
      },
      {
        "text": "casuarina",
        "type": "Nombre_comun",
        "offset": [
          507,
          516
        ]
      },
      {
        "text": "E, americana",
        "type": "Nombre_cientifico",
        "offset": [
          492,
          504
        ]
      },
      {
        "text": "A. americana variegata",
        "type": "Nombre_cientifico",
        "offset": [
          281,
          303
        ]
      },
      {
        "text": "Agave angustifolia",
        "type": "Nombre_cientifico",
        "offset": [
          261,
          279
        ]
      },
      {
        "arg2_text": "A. americana variegata",
        "arg1_offset": [
          253,
          259
        ],
        "arg2_line": 37,
        "arg2_offset": [
          281,
          303
        ],
        "arg1_text": "maguey",
        "type": "alias",
        "arg1_line": 37
      },
      {
        "text": "palmas",
        "type": "Nombre_comun",
        "offset": [
          113,
          119
        ]
      },
      {
        "text": "\u00e1lamo",
        "type": "Nombre_comun",
        "offset": [
          85,
          90
        ]
      },
      {
        "text": "tuja",
        "type": "Nombre_comun",
        "offset": [
          60,
          64
        ]
      },
      {
        "text": "pinos",
        "type": "Nombre_comun",
        "offset": [
          40,
          45
        ]
      },
      {
        "text": "maguey",
        "type": "Nombre_comun",
        "offset": [
          253,
          259
        ]
      },
      {
        "text": "olmo chino",
        "type": "Nombre_comun",
        "offset": [
          319,
          329
        ]
      },
      {
        "text": "cedro panteonero",
        "type": "Nombre_comun",
        "offset": [
          350,
          366
        ]
      },
      {
        "text": "enebro",
        "type": "Nombre_comun",
        "offset": [
          171,
          177
        ]
      },
      {
        "text": "yuca",
        "type": "Nombre_comun",
        "offset": [
          210,
          214
        ]
      },
      {
        "text": "palma",
        "type": "Nombre_comun",
        "offset": [
          202,
          207
        ]
      },
      {
        "text": "Chorisia speciosa",
        "type": "Nombre_cientifico",
        "offset": [
          714,
          731
        ]
      },
      {
        "text": "Tamarindus indica",
        "type": "Nombre_cientifico",
        "offset": [
          797,
          814
        ]
      },
      {
        "text": "Quisqualis indica",
        "type": "Nombre_cientifico",
        "offset": [
          816,
          833
        ]
      },
      {
        "text": "Ditaxis heterantha",
        "type": "Nombre_cientifico",
        "offset": [
          835,
          853
        ]
      },
      {
        "text": "Quercus potosina",
        "type": "Nombre_cientifico",
        "offset": [
          855,
          871
        ]
      },
      {
        "arg2_text": "Populus canadensis",
        "arg1_offset": [
          85,
          90
        ],
        "arg2_line": 37,
        "arg2_offset": [
          92,
          110
        ],
        "arg1_text": "\u00e1lamo",
        "type": "alias",
        "arg1_line": 37
      },
      {
        "arg2_text": "Thuja orientalis",
        "arg1_offset": [
          60,
          64
        ],
        "arg2_line": 37,
        "arg2_offset": [
          66,
          82
        ],
        "arg1_text": "tuja",
        "type": "alias",
        "arg1_line": 37
      },
      {
        "arg2_text": "Pinus",
        "arg1_offset": [
          40,
          45
        ],
        "arg2_line": 37,
        "arg2_offset": [
          47,
          52
        ],
        "arg1_text": "pinos",
        "type": "alias",
        "arg1_line": 37
      },
      {
        "text": "cepillo",
        "type": "Nombre_comun",
        "offset": [
          393,
          400
        ]
      },
      {
        "text": "Jatropha dioica",
        "type": "Nombre_cientifico",
        "offset": [
          1014,
          1029
        ]
      },
      {
        "text": "Condalia velutina",
        "type": "Nombre_cientifico",
        "offset": [
          1086,
          1103
        ]
      },
      {
        "text": "Skimmia reevesiana",
        "type": "Nombre_cientifico",
        "offset": [
          1105,
          1123
        ]
      },
      {
        "arg2_text": "Agave angustifolia",
        "arg1_offset": [
          253,
          259
        ],
        "arg2_line": 37,
        "arg2_offset": [
          261,
          279
        ],
        "arg1_text": "maguey",
        "type": "alias",
        "arg1_line": 37
      },
      {
        "text": "Opuntia leucotricha",
        "type": "Nombre_cientifico",
        "offset": [
          776,
          795
        ]
      },
      {
        "arg2_text": "Casuarina equisetifolia",
        "arg1_offset": [
          507,
          516
        ],
        "arg2_line": 37,
        "arg2_offset": [
          518,
          541
        ],
        "arg1_text": "casuarina",
        "type": "alias",
        "arg1_line": 37
      },
      {
        "arg2_text": "E, americana",
        "arg1_offset": [
          459,
          466
        ],
        "arg2_line": 37,
        "arg2_offset": [
          492,
          504
        ],
        "arg1_text": "color\u00edn",
        "type": "alias",
        "arg1_line": 37
      },
      {
        "arg2_text": "Erythrina crista-galli",
        "arg1_offset": [
          459,
          466
        ],
        "arg2_line": 37,
        "arg2_offset": [
          468,
          490
        ],
        "arg1_text": "color\u00edn",
        "type": "alias",
        "arg1_line": 37
      },
      {
        "arg2_text": "Rhododendron mucronatum",
        "arg1_offset": [
          425,
          431
        ],
        "arg2_line": 37,
        "arg2_offset": [
          433,
          456
        ],
        "arg1_text": "azalea",
        "type": "alias",
        "arg1_line": 37
      },
      {
        "arg2_text": "Opuntia",
        "arg1_offset": [
          611,
          618
        ],
        "arg2_line": 37,
        "arg2_offset": [
          620,
          627
        ],
        "arg1_text": "nopales",
        "type": "alias",
        "arg1_line": 37
      },
      {
        "arg2_text": "Koelreuteria elegans",
        "arg1_offset": [
          544,
          566
        ],
        "arg2_line": 37,
        "arg2_offset": [
          568,
          588
        ],
        "arg1_text": "\u00e1rbol de los farolitos",
        "type": "alias",
        "arg1_line": 37
      },
      {
        "text": "Camellia japonica",
        "type": "Nombre_cientifico",
        "offset": [
          1126,
          1143
        ]
      }
    ]
  ],
  [
    38,
    "\r\n",
    []
  ],
  [
    39,
    "Finalmente, con respecto a la investigaci\u00f3n sobre plantas ornamentales del estado de Aguascalientes, existen dos trabajos, un Manual de Forestaci\u00f3n y \u00e1reas verdes, editado por el Comit\u00e9 Municipal y de Fauna Silvestre y Presidencia Municipal de Aguascalientes en 1995 donde se describen e ilustran 60 especies de \u00e1rboles y arbustos distribuidos en las \u00e1reas verdes de la ciudad, con 30 especies propuestas para la reforestaci\u00f3n urbana, y recientemente en el herbario de la UAA se realiz\u00f3 un cat\u00e1logo sobre las plantas ornamentales de la ciudad de Aguascalientes en el que se registran 221 especies de las cuales 32 son nativas (figura 4.5.3), se presentan 159 g\u00e9neros incluidos en 79 familias (cuadro 4.5.2).\r\n",
    []
  ],
  [
    40,
    "Con respecto a los otros municipios del Estado no existe informaci\u00f3n acerca de sus \u00e1reas verdes.\r\n",
    []
  ],
  [
    41,
    "En ellos los parques y jardines son escasos, limit\u00e1ndose s\u00f3lo a la plaza de armas o al jard\u00edn del templo y contando generalmente con especies como eucalipto (Eucalyptus spp.), pirul criollo (Schinus molle), pirul chino (Schinus terebinthifolius), trueno (Ligustrum lucidum), buganvilia (Bougainvillea glabra), rosa laurel (Nerium oleander), jacaranda (Jacaranda mimosaefolia), casuarina (Casuarina equisetifolia), grevilea (Grevillea robusta), palma canaria (Phoenix canariensis) y ficus (Ficus retusa), las cuales son plantas que suelen propagar y distribuir los viveros municipales.\r\n",
    [
      {
        "text": "Ficus retusa",
        "type": "Nombre_cientifico",
        "offset": [
          489,
          501
        ]
      },
      {
        "text": "Phoenix canariensis",
        "type": "Nombre_cientifico",
        "offset": [
          459,
          478
        ]
      },
      {
        "text": "Casuarina equisetifolia",
        "type": "Nombre_cientifico",
        "offset": [
          388,
          411
        ]
      },
      {
        "text": "Grevillea robusta",
        "type": "Nombre_cientifico",
        "offset": [
          424,
          441
        ]
      },
      {
        "text": "eucalipto",
        "type": "Nombre_comun",
        "offset": [
          147,
          156
        ]
      },
      {
        "arg2_text": "Bougainvillea glabra",
        "arg1_offset": [
          275,
          285
        ],
        "arg2_line": 41,
        "arg2_offset": [
          287,
          307
        ],
        "arg1_text": "buganvilia",
        "type": "alias",
        "arg1_line": 41
      },
      {
        "arg2_text": "Nerium oleander",
        "arg1_offset": [
          310,
          321
        ],
        "arg2_line": 41,
        "arg2_offset": [
          323,
          338
        ],
        "arg1_text": "rosa laurel",
        "type": "alias",
        "arg1_line": 41
      },
      {
        "arg2_text": "Nerium oleander",
        "arg1_offset": [
          310,
          321
        ],
        "arg2_line": 41,
        "arg2_offset": [
          323,
          338
        ],
        "arg1_text": "rosa laurel",
        "type": "alias",
        "arg1_line": 41
      },
      {
        "arg2_text": "Jacaranda mimosaefolia",
        "arg1_offset": [
          341,
          350
        ],
        "arg2_line": 41,
        "arg2_offset": [
          352,
          374
        ],
        "arg1_text": "jacaranda",
        "type": "alias",
        "arg1_line": 41
      },
      {
        "arg2_text": "Casuarina equisetifolia",
        "arg1_offset": [
          377,
          386
        ],
        "arg2_line": 41,
        "arg2_offset": [
          388,
          411
        ],
        "arg1_text": "casuarina",
        "type": "alias",
        "arg1_line": 41
      },
      {
        "text": "ficus",
        "type": "Nombre_comun",
        "offset": [
          482,
          487
        ]
      },
      {
        "text": "casuarina",
        "type": "Nombre_comun",
        "offset": [
          377,
          386
        ]
      },
      {
        "text": "jacaranda",
        "type": "Nombre_comun",
        "offset": [
          341,
          350
        ]
      },
      {
        "text": "palma canaria",
        "type": "Nombre_comun",
        "offset": [
          444,
          457
        ]
      },
      {
        "text": "grevilea",
        "type": "Nombre_comun",
        "offset": [
          414,
          422
        ]
      },
      {
        "text": "trueno",
        "type": "Nombre_comun",
        "offset": [
          247,
          253
        ]
      },
      {
        "text": "pirul chino",
        "type": "Nombre_comun",
        "offset": [
          207,
          218
        ]
      },
      {
        "text": "rosa laurel",
        "type": "Nombre_comun",
        "offset": [
          310,
          321
        ]
      },
      {
        "text": "buganvilia",
        "type": "Nombre_comun",
        "offset": [
          275,
          285
        ]
      },
      {
        "arg2_text": "Ligustrum lucidum",
        "arg1_offset": [
          247,
          253
        ],
        "arg2_line": 41,
        "arg2_offset": [
          255,
          272
        ],
        "arg1_text": "trueno",
        "type": "alias",
        "arg1_line": 41
      },
      {
        "arg2_text": "Schinus terebinthifolius",
        "arg1_offset": [
          207,
          218
        ],
        "arg2_line": 41,
        "arg2_offset": [
          220,
          244
        ],
        "arg1_text": "pirul chino",
        "type": "alias",
        "arg1_line": 41
      },
      {
        "arg2_text": "Schinus molle",
        "arg1_offset": [
          176,
          189
        ],
        "arg2_line": 41,
        "arg2_offset": [
          191,
          204
        ],
        "arg1_text": "pirul criollo",
        "type": "alias",
        "arg1_line": 41
      },
      {
        "arg2_text": "Eucalyptus",
        "arg1_offset": [
          147,
          156
        ],
        "arg2_line": 41,
        "arg2_offset": [
          158,
          168
        ],
        "arg1_text": "eucalipto",
        "type": "alias",
        "arg1_line": 41
      },
      {
        "text": "pirul criollo",
        "type": "Nombre_comun",
        "offset": [
          176,
          189
        ]
      },
      {
        "text": "Bougainvillea glabra",
        "type": "Nombre_cientifico",
        "offset": [
          287,
          307
        ]
      },
      {
        "text": "Jacaranda mimosaefolia",
        "type": "Nombre_cientifico",
        "offset": [
          352,
          374
        ]
      },
      {
        "text": "Ligustrum lucidum",
        "type": "Nombre_cientifico",
        "offset": [
          255,
          272
        ]
      },
      {
        "text": "Eucalyptus",
        "type": "Nombre_cientifico",
        "offset": [
          158,
          168
        ]
      },
      {
        "text": "Nerium oleander",
        "type": "Nombre_cientifico",
        "offset": [
          323,
          338
        ]
      },
      {
        "text": "Schinus terebinthifolius",
        "type": "Nombre_cientifico",
        "offset": [
          220,
          244
        ]
      },
      {
        "text": "Schinus molle",
        "type": "Nombre_cientifico",
        "offset": [
          191,
          204
        ]
      }
    ]
  ],
  [
    42,
    "\r\n",
    []
  ],
  [
    43,
    "Problem\u00e1tica de la flora urbana \r\n",
    []
  ],
  [
    44,
    "\r\n",
    []
  ],
  [
    45,
    "Existen diferentes problem\u00e1ticas relacionadas con la flora urbana en Aguascalientes.\r\n",
    []
  ],
  [
    46,
    "En primer lugar, existe un gran desfasamiento entre el crecimiento urbano e industrial con respecto a la creaci\u00f3n y calidad de nuevas \u00e1reas verdes urbanas.\r\n",
    []
  ],
  [
    47,
    "El crecimiento de la ciudad se caracteriza por su forma horizontal ocasionando la p\u00e9rdida de \u00e1reas verdes naturales que son importantes en la recarga de los mantos fre\u00e1ticos, tales como el \u00e1rea de mezquitera ubicada junto al parque La Pona, algunos manchones de mezquites en la zona del fraccionamiento Ojocaliente y en general el poniente de la ciudad.\r\n",
    []
  ],
  [
    48,
    "Por otra parte, en los nuevos desarrollos habitacionales los espacios verdes p\u00fablicos y privados quedan reducidos al m\u00ednimo (figura 4.5.4), ocasionando problem\u00e1ticas que van desde sociales, por la ausencia de zonas de esparcimiento, hasta el incremento en la aparici\u00f3n de fallas geol\u00f3gicas generadas por el desequilibrio entre la extracci\u00f3n y la recarga h\u00eddrica del subsuelo.\r\n",
    []
  ],
  [
    49,
    "Finalmente, el fen\u00f3meno de islas de calor, el cual es provocado por la gran cantidad de superficie reflejante del pavimento, dada la ausencia de cobertura vegetal que ocasiona que en tiempo de lluvia \u00e9sta se concentr\u00e9 m\u00e1s sobre la mancha urbana al generar inundaciones.\r\n",
    []
  ],
  [
    50,
    "\r\n",
    []
  ],
  [
    51,
    "Conclusiones y recomendaciones \r\n",
    []
  ],
  [
    52,
    "\r\n",
    []
  ],
  [
    53,
    "En nuestro Estado se observa un aparente desinter\u00e9s por parte de la poblaci\u00f3n, as\u00ed como de las autoridades sobre el cuidado y mantenimiento de \u00e1reas verdes p\u00fablicas.\r\n",
    []
  ],
  [
    54,
    "Por ejemplo, en los nuevos centros comerciales pr\u00e1cticamente se carece de arbolados que puedan brindar sombra a los autos, en la calles se da preferencia a las plantas de talla baja que no aportan sombra y se limitan las copas de los \u00e1rboles o incluso se talan completamente para darle prioridad a anuncios espectaculares de tiendas y/o cableado.\r\n",
    []
  ],
  [
    55,
    "Esto se refleja en la presencia de calles y avenidas con \u00e1rboles raqu\u00edticos, muertos, mutilados o con tumoraciones provocadas por podas inadecuadas (figura 4.5.5).\r\n",
    []
  ],
  [
    56,
    "De esta forma, ser\u00eda recomendable imitar a otras ciudades en donde los tendidos el\u00e9ctricos de sus centros hist\u00f3ricos, principales arterias e incluso conjuntos habitacionales, son subterr\u00e1neos y cuentan con banquetas amplias, lo que permite a los \u00e1rboles alcanzar un buen desarrollo y as\u00ed generar un mejor clima, mejorando el aspecto urbano (figura 4.5.6).\r\n",
    []
  ],
  [
    57,
    "Tambi\u00e9n es importante que se planeen con anticipaci\u00f3n los dise\u00f1os paisaj\u00edsticos o de arquitectura del paisaje, as\u00ed como que se obtenga informaci\u00f3n sobre el crecimiento que alcanzar\u00e1n las plantas a utilizar una vez que llegan a la edad adulta: el tipo de follaje y ra\u00edz que desarrollar\u00e1n para no afectar construcciones, tuber\u00edas o evitar el levantamiento de banquetas, su \u00e9poca de floraci\u00f3n, requerimientos de agua y de exposici\u00f3n a la luz o sombra (figura 4.5.7).\r\n",
    []
  ],
  [
    58,
    "Es de suma importancia que los viveros municipales dejen de producir especies \u201csexenales\u201d (preferidas por su r\u00e1pido crecimiento) como los pirules (figura 4.5.8), eucaliptos y \u00e1lamos blancos, ya que son agresivas con el medio ambiente.\r\n",
    []
  ],
  [
    59,
    "Se recomienda entonces que se enfoquen a la selecci\u00f3n y uso de otras especies ex\u00f3ticas menos agresivas, as\u00ed como al empleo de la gran variedad de especies nativas de la regi\u00f3n.\r\n",
    []
  ],
  [
    60,
    "\u00c9stas, adem\u00e1s de contar con follaje o flores llamativas (seg\u00fan la especie), tienen la ventaja de presentar adaptaciones a las condiciones locales del clima y suelo, lo que les permite desarrollarse mejor y gastar menos agua en su mantenimiento (figura 4.5.9).\r\n",
    []
  ],
  [
    61,
    "Entre estas \u00faltimas se tienen los pinos pi\u00f1oneros (Pinus cembroides), la yuca (Yucca filifera), la venadilla (Bursera spp.), los nopales (Opuntia spp.), Baccharis heterophylla, huizaches (Acacia schaffneri, A. farnesiana, A. acatlensis), Leucaena esculenta, mezquite (Prosopis laevigata), palo bobo (Ipomoea murucoides), garambullo (Myrtillocactus geometrizans), sangre de grado (Jatropha dioica), Manihot esculenta, encinos (Quercus spp.), chamizo (Dodonaea viscosa), sacalosuchil (Plumeria rubra), Cedrela ciliata, tronadora (Tecoma stans), Plumeria rubra, Senecio salignus, lantana (Lantana camara), sotol (Dasylirion acrotriche), gatu\u00f1o (Mimosa monancistra), Agave angustifolia, higuerilla (Ricinus communis), carrizo (Arundo donax), Forestiera phillyreoides, etc.\r\n",
    [
      {
        "text": "Tecoma stans",
        "type": "Nombre_cientifico",
        "offset": [
          528,
          540
        ]
      },
      {
        "text": "Cedrela ciliata",
        "type": "Nombre_cientifico",
        "offset": [
          500,
          515
        ]
      },
      {
        "text": "Plumeria rubra",
        "type": "Nombre_cientifico",
        "offset": [
          483,
          497
        ]
      },
      {
        "text": "Agave angustifolia",
        "type": "Nombre_cientifico",
        "offset": [
          663,
          681
        ]
      },
      {
        "text": "Prosopis laevigata",
        "type": "Nombre_cientifico",
        "offset": [
          268,
          286
        ]
      },
      {
        "text": "Leucaena esculenta",
        "type": "Nombre_cientifico",
        "offset": [
          238,
          256
        ]
      },
      {
        "text": "Myrtillocactus geometrizans",
        "type": "Nombre_cientifico",
        "offset": [
          333,
          360
        ]
      },
      {
        "text": "Ipomoea murucoides",
        "type": "Nombre_cientifico",
        "offset": [
          300,
          318
        ]
      },
      {
        "text": "A. farnesiana",
        "type": "Nombre_cientifico",
        "offset": [
          207,
          220
        ]
      },
      {
        "text": "Yucca filifera",
        "type": "Nombre_cientifico",
        "offset": [
          79,
          93
        ]
      },
      {
        "text": "Pinus cembroides",
        "type": "Nombre_cientifico",
        "offset": [
          51,
          67
        ]
      },
      {
        "text": "A. acatlensis",
        "type": "Nombre_cientifico",
        "offset": [
          222,
          235
        ]
      },
      {
        "text": "chamizo",
        "type": "Nombre_comun",
        "offset": [
          441,
          448
        ]
      },
      {
        "text": "encinos",
        "type": "Nombre_comun",
        "offset": [
          417,
          424
        ]
      },
      {
        "text": "lantana",
        "type": "Nombre_comun",
        "offset": [
          577,
          584
        ]
      },
      {
        "text": "sotol",
        "type": "Nombre_comun",
        "offset": [
          603,
          608
        ]
      },
      {
        "text": "gatu\u00f1o",
        "type": "Nombre_comun",
        "offset": [
          634,
          640
        ]
      },
      {
        "text": "higuerilla",
        "type": "Nombre_comun",
        "offset": [
          683,
          693
        ]
      },
      {
        "text": "carrizo",
        "type": "Nombre_comun",
        "offset": [
          714,
          721
        ]
      },
      {
        "text": "Quercus",
        "type": "Nombre_cientifico",
        "offset": [
          426,
          433
        ]
      },
      {
        "text": "Dodonaea viscosa",
        "type": "Nombre_cientifico",
        "offset": [
          450,
          466
        ]
      },
      {
        "text": "Jatropha dioica",
        "type": "Nombre_cientifico",
        "offset": [
          380,
          395
        ]
      },
      {
        "text": "Manihot esculenta",
        "type": "Nombre_cientifico",
        "offset": [
          398,
          415
        ]
      },
      {
        "text": "Baccharis heterophylla",
        "type": "Nombre_cientifico",
        "offset": [
          153,
          175
        ]
      },
      {
        "text": "Acacia schaffneri",
        "type": "Nombre_cientifico",
        "offset": [
          188,
          205
        ]
      },
      {
        "text": "Bursera",
        "type": "Nombre_cientifico",
        "offset": [
          110,
          117
        ]
      },
      {
        "text": "Opuntia",
        "type": "Nombre_cientifico",
        "offset": [
          138,
          145
        ]
      },
      {
        "text": "huizaches",
        "type": "Nombre_comun",
        "offset": [
          177,
          186
        ]
      },
      {
        "text": "nopales",
        "type": "Nombre_comun",
        "offset": [
          129,
          136
        ]
      },
      {
        "text": "venadilla",
        "type": "Nombre_comun",
        "offset": [
          99,
          108
        ]
      },
      {
        "text": "yuca",
        "type": "Nombre_comun",
        "offset": [
          73,
          77
        ]
      },
      {
        "text": "sangre de grado",
        "type": "Nombre_comun",
        "offset": [
          363,
          378
        ]
      },
      {
        "text": "garambullo",
        "type": "Nombre_comun",
        "offset": [
          321,
          331
        ]
      },
      {
        "text": "palo bobo",
        "type": "Nombre_comun",
        "offset": [
          289,
          298
        ]
      },
      {
        "text": "mezquite",
        "type": "Nombre_comun",
        "offset": [
          258,
          266
        ]
      },
      {
        "text": "sacalosuchil",
        "type": "Nombre_comun",
        "offset": [
          469,
          481
        ]
      },
      {
        "text": "tronadora",
        "type": "Nombre_comun",
        "offset": [
          517,
          526
        ]
      },
      {
        "text": "Forestiera phillyreoides",
        "type": "Nombre_cientifico",
        "offset": [
          738,
          762
        ]
      },
      {
        "text": "Arundo donax",
        "type": "Nombre_cientifico",
        "offset": [
          723,
          735
        ]
      },
      {
        "text": "Ricinus communis",
        "type": "Nombre_cientifico",
        "offset": [
          695,
          711
        ]
      },
      {
        "text": "Lantana camara",
        "type": "Nombre_cientifico",
        "offset": [
          586,
          600
        ]
      },
      {
        "text": "Senecio salignus",
        "type": "Nombre_cientifico",
        "offset": [
          559,
          575
        ]
      },
      {
        "text": "Plumeria rubra",
        "type": "Nombre_cientifico",
        "offset": [
          543,
          557
        ]
      },
      {
        "text": "Mimosa monancistra",
        "type": "Nombre_cientifico",
        "offset": [
          642,
          660
        ]
      },
      {
        "text": "Dasylirion acrotriche",
        "type": "Nombre_cientifico",
        "offset": [
          610,
          631
        ]
      },
      {
        "text": "pi\u00f1oneros",
        "type": "Nombre_comun",
        "offset": [
          40,
          49
        ]
      }
    ]
  ],
  [
    62,
    "Por su parte, para la reforestaci\u00f3n de zonas riparias como el r\u00edo San Pedro y zonas con niveles de agua cercanos a la superficie como lo es la Alameda, se recomienda el uso de ahuehuetes (Taxodium mucronatum), \u00e1lamos (Populus spp.), sauces (Salix spp.) y fresnos (Fraxinus uhdei), ya que estas especies se adaptan bien a lugares con amplios espacios y abundancia de agua.\r\n",
    [
      {
        "text": "fresnos",
        "type": "Nombre_comun",
        "offset": [
          255,
          262
        ]
      },
      {
        "text": "\u00e1lamos",
        "type": "Nombre_comun",
        "offset": [
          210,
          216
        ]
      },
      {
        "text": "Taxodium mucronatum",
        "type": "Nombre_cientifico",
        "offset": [
          188,
          207
        ]
      },
      {
        "text": "Fraxinus uhdei",
        "type": "Nombre_cientifico",
        "offset": [
          264,
          278
        ]
      },
      {
        "text": "Salix",
        "type": "Nombre_cientifico",
        "offset": [
          241,
          246
        ]
      },
      {
        "text": "ahuehuetes",
        "type": "Nombre_comun",
        "offset": [
          176,
          186
        ]
      },
      {
        "text": "sauces",
        "type": "Nombre_comun",
        "offset": [
          233,
          239
        ]
      }
    ]
  ]
]